﻿2020_02_24_02_23_13
Images 1.0.7355.35756
2020-02-24 02:23:13.326 Time out between pack = 7 sec.; pack size = 100; packIX = 4595 of 100000; total item processed = 459500 of 493370; ID_OBJET from 32765020 to 32765119
2020-02-24 02:23:58.212 Starting RevisionLog()
2020-02-24 02:23:58.225 Time out between pack = 7 sec.; pack size = 100; packIX = 4596 of 100000; total item processed = 459600 of 493370; ID_OBJET from 32765120 to 32765219
2020-02-24 02:24:41.655 Starting RevisionLog()
2020-02-24 02:24:41.666 Time out between pack = 7 sec.; pack size = 100; packIX = 4597 of 100000; total item processed = 459700 of 493370; ID_OBJET from 32765220 to 32765320
2020-02-24 02:25:28.411 Starting RevisionLog()
2020-02-24 02:25:28.422 Time out between pack = 7 sec.; pack size = 100; packIX = 4598 of 100000; total item processed = 459800 of 493370; ID_OBJET from 32765321 to 32765421
2020-02-24 02:26:14.650 Starting RevisionLog()
2020-02-24 02:26:14.661 Time out between pack = 7 sec.; pack size = 100; packIX = 4599 of 100000; total item processed = 459900 of 493370; ID_OBJET from 32765422 to 32765524
2020-02-24 02:26:55.068 Starting RevisionLog()
2020-02-24 02:26:55.080 Time out between pack = 7 sec.; pack size = 100; packIX = 4600 of 100000; total item processed = 460000 of 493370; ID_OBJET from 32765525 to 32765624
2020-02-24 02:27:40.132 Starting RevisionLog()
2020-02-24 02:27:40.149 Time out between pack = 7 sec.; pack size = 100; packIX = 4601 of 100000; total item processed = 460100 of 493370; ID_OBJET from 32765625 to 32765724
2020-02-24 02:28:27.986 Starting RevisionLog()
2020-02-24 02:28:27.999 Time out between pack = 7 sec.; pack size = 100; packIX = 4602 of 100000; total item processed = 460200 of 493370; ID_OBJET from 32765725 to 32765824
2020-02-24 02:29:08.011 Starting RevisionLog()
2020-02-24 02:29:08.022 Time out between pack = 7 sec.; pack size = 100; packIX = 4603 of 100000; total item processed = 460300 of 493370; ID_OBJET from 32765825 to 32765924
2020-02-24 02:29:50.039 Starting RevisionLog()
2020-02-24 02:29:50.051 Time out between pack = 7 sec.; pack size = 100; packIX = 4604 of 100000; total item processed = 460400 of 493370; ID_OBJET from 32765932 to 32766033
2020-02-24 02:30:35.604 Starting RevisionLog()
2020-02-24 02:30:35.615 Time out between pack = 7 sec.; pack size = 100; packIX = 4605 of 100000; total item processed = 460500 of 493370; ID_OBJET from 32766034 to 32766133
2020-02-24 02:31:14.136 Starting RevisionLog()
2020-02-24 02:31:14.147 Time out between pack = 7 sec.; pack size = 100; packIX = 4606 of 100000; total item processed = 460600 of 493370; ID_OBJET from 32766134 to 32766233
2020-02-24 02:31:51.294 Starting RevisionLog()
2020-02-24 02:31:51.304 Time out between pack = 7 sec.; pack size = 100; packIX = 4607 of 100000; total item processed = 460700 of 493370; ID_OBJET from 32766234 to 32766333
2020-02-24 02:32:32.921 Starting RevisionLog()
2020-02-24 02:32:32.933 Time out between pack = 7 sec.; pack size = 100; packIX = 4608 of 100000; total item processed = 460800 of 493370; ID_OBJET from 32766334 to 32766433
2020-02-24 02:33:14.743 Starting RevisionLog()
2020-02-24 02:33:14.754 Time out between pack = 7 sec.; pack size = 100; packIX = 4609 of 100000; total item processed = 460900 of 493370; ID_OBJET from 32766434 to 32766534
2020-02-24 02:33:53.688 Starting RevisionLog()
2020-02-24 02:33:53.698 Time out between pack = 7 sec.; pack size = 100; packIX = 4610 of 100000; total item processed = 461000 of 493370; ID_OBJET from 32766535 to 32766634
2020-02-24 02:34:39.975 Starting RevisionLog()
2020-02-24 02:34:39.987 Time out between pack = 7 sec.; pack size = 100; packIX = 4611 of 100000; total item processed = 461100 of 493370; ID_OBJET from 32766635 to 32766734
2020-02-24 02:35:22.949 Starting RevisionLog()
2020-02-24 02:35:22.962 Time out between pack = 7 sec.; pack size = 100; packIX = 4612 of 100000; total item processed = 461200 of 493370; ID_OBJET from 32766735 to 32766834
2020-02-24 02:36:03.002 Starting RevisionLog()
2020-02-24 02:36:03.014 Time out between pack = 7 sec.; pack size = 100; packIX = 4613 of 100000; total item processed = 461300 of 493370; ID_OBJET from 32766835 to 32766934
2020-02-24 02:36:38.858 Starting RevisionLog()
2020-02-24 02:36:38.869 Time out between pack = 7 sec.; pack size = 100; packIX = 4614 of 100000; total item processed = 461400 of 493370; ID_OBJET from 32766935 to 32767036
2020-02-24 02:37:19.248 Starting RevisionLog()
2020-02-24 02:37:19.260 Time out between pack = 7 sec.; pack size = 100; packIX = 4615 of 100000; total item processed = 461500 of 493370; ID_OBJET from 32767037 to 32767136
2020-02-24 02:37:56.042 Starting RevisionLog()
2020-02-24 02:37:56.054 Time out between pack = 7 sec.; pack size = 100; packIX = 4616 of 100000; total item processed = 461600 of 493370; ID_OBJET from 32767137 to 32767236
2020-02-24 02:38:35.647 Starting RevisionLog()
2020-02-24 02:38:35.662 Time out between pack = 7 sec.; pack size = 100; packIX = 4617 of 100000; total item processed = 461700 of 493370; ID_OBJET from 32767237 to 32767336
2020-02-24 02:39:15.945 Starting RevisionLog()
2020-02-24 02:39:15.956 Time out between pack = 7 sec.; pack size = 100; packIX = 4618 of 100000; total item processed = 461800 of 493370; ID_OBJET from 32767337 to 32767437
2020-02-24 02:39:55.810 Starting RevisionLog()
2020-02-24 02:39:55.821 Time out between pack = 7 sec.; pack size = 100; packIX = 4619 of 100000; total item processed = 461900 of 493370; ID_OBJET from 32767438 to 32767537
2020-02-24 02:40:39.180 Starting RevisionLog()
2020-02-24 02:40:39.192 Time out between pack = 7 sec.; pack size = 100; packIX = 4620 of 100000; total item processed = 462000 of 493370; ID_OBJET from 32767538 to 32767637
2020-02-24 02:41:23.411 Starting RevisionLog()
2020-02-24 02:41:23.426 Time out between pack = 7 sec.; pack size = 100; packIX = 4621 of 100000; total item processed = 462100 of 493370; ID_OBJET from 32767638 to 32767738
2020-02-24 02:42:05.744 Starting RevisionLog()
2020-02-24 02:42:05.757 Time out between pack = 7 sec.; pack size = 100; packIX = 4622 of 100000; total item processed = 462200 of 493370; ID_OBJET from 32767739 to 32767838
2020-02-24 02:42:50.145 Starting RevisionLog()
2020-02-24 02:42:50.155 Time out between pack = 7 sec.; pack size = 100; packIX = 4623 of 100000; total item processed = 462300 of 493370; ID_OBJET from 32767839 to 32767938
2020-02-24 02:43:30.288 Starting RevisionLog()
2020-02-24 02:43:30.299 Time out between pack = 7 sec.; pack size = 100; packIX = 4624 of 100000; total item processed = 462400 of 493370; ID_OBJET from 32767939 to 32768039
2020-02-24 02:44:13.468 Starting RevisionLog()
2020-02-24 02:44:13.480 Time out between pack = 7 sec.; pack size = 100; packIX = 4625 of 100000; total item processed = 462500 of 493370; ID_OBJET from 32768040 to 32768140
2020-02-24 02:44:56.189 Starting RevisionLog()
2020-02-24 02:44:56.201 Time out between pack = 7 sec.; pack size = 100; packIX = 4626 of 100000; total item processed = 462600 of 493370; ID_OBJET from 32768141 to 32768240
2020-02-24 02:45:39.491 Starting RevisionLog()
2020-02-24 02:45:39.502 Time out between pack = 7 sec.; pack size = 100; packIX = 4627 of 100000; total item processed = 462700 of 493370; ID_OBJET from 32768241 to 32768340
2020-02-24 02:46:22.158 Starting RevisionLog()
2020-02-24 02:46:22.172 Time out between pack = 7 sec.; pack size = 100; packIX = 4628 of 100000; total item processed = 462800 of 493370; ID_OBJET from 32768341 to 32768442
2020-02-24 02:47:00.296 Starting RevisionLog()
2020-02-24 02:47:00.306 Time out between pack = 7 sec.; pack size = 100; packIX = 4629 of 100000; total item processed = 462900 of 493370; ID_OBJET from 32768443 to 32768542
2020-02-24 02:47:40.594 Starting RevisionLog()
2020-02-24 02:47:40.604 Time out between pack = 7 sec.; pack size = 100; packIX = 4630 of 100000; total item processed = 463000 of 493370; ID_OBJET from 32768543 to 32768643
2020-02-24 02:48:25.012 Starting RevisionLog()
2020-02-24 02:48:25.022 Time out between pack = 7 sec.; pack size = 100; packIX = 4631 of 100000; total item processed = 463100 of 493370; ID_OBJET from 32768644 to 32768744
2020-02-24 02:49:04.049 Starting RevisionLog()
2020-02-24 02:49:04.066 Time out between pack = 7 sec.; pack size = 100; packIX = 4632 of 100000; total item processed = 463200 of 493370; ID_OBJET from 32768745 to 32768945
2020-02-24 02:49:49.578 Starting RevisionLog()
2020-02-24 02:49:49.591 Time out between pack = 7 sec.; pack size = 100; packIX = 4633 of 100000; total item processed = 463300 of 493370; ID_OBJET from 32768946 to 32769086
2020-02-24 02:50:35.723 Starting RevisionLog()
2020-02-24 02:50:35.735 Time out between pack = 7 sec.; pack size = 100; packIX = 4634 of 100000; total item processed = 463400 of 493370; ID_OBJET from 32769087 to 32769186
2020-02-24 02:51:20.502 Starting RevisionLog()
2020-02-24 02:51:20.514 Time out between pack = 7 sec.; pack size = 100; packIX = 4635 of 100000; total item processed = 463500 of 493370; ID_OBJET from 32769187 to 32769287
2020-02-24 02:52:04.877 Starting RevisionLog()
2020-02-24 02:52:04.888 Time out between pack = 7 sec.; pack size = 100; packIX = 4636 of 100000; total item processed = 463600 of 493370; ID_OBJET from 32769288 to 32769387
2020-02-24 02:52:51.145 Starting RevisionLog()
2020-02-24 02:52:51.157 Time out between pack = 7 sec.; pack size = 100; packIX = 4637 of 100000; total item processed = 463700 of 493370; ID_OBJET from 32769388 to 32769487
2020-02-24 02:53:37.347 Starting RevisionLog()
2020-02-24 02:53:37.359 Time out between pack = 7 sec.; pack size = 100; packIX = 4638 of 100000; total item processed = 463800 of 493370; ID_OBJET from 32769488 to 32769588
2020-02-24 02:54:21.163 Starting RevisionLog()
2020-02-24 02:54:21.177 Time out between pack = 7 sec.; pack size = 100; packIX = 4639 of 100000; total item processed = 463900 of 493370; ID_OBJET from 32769589 to 32769689
2020-02-24 02:55:03.605 Starting RevisionLog()
2020-02-24 02:55:03.617 Time out between pack = 7 sec.; pack size = 100; packIX = 4640 of 100000; total item processed = 464000 of 493370; ID_OBJET from 32769690 to 32769789
2020-02-24 02:55:42.459 Starting RevisionLog()
2020-02-24 02:55:42.471 Time out between pack = 7 sec.; pack size = 100; packIX = 4641 of 100000; total item processed = 464100 of 493370; ID_OBJET from 32769790 to 32769889
2020-02-24 02:56:21.221 Starting RevisionLog()
2020-02-24 02:56:21.231 Time out between pack = 7 sec.; pack size = 100; packIX = 4642 of 100000; total item processed = 464200 of 493370; ID_OBJET from 32769890 to 32769990
2020-02-24 02:56:59.915 Starting RevisionLog()
2020-02-24 02:56:59.926 Time out between pack = 7 sec.; pack size = 100; packIX = 4643 of 100000; total item processed = 464300 of 493370; ID_OBJET from 32769991 to 32770091
2020-02-24 02:57:39.112 Starting RevisionLog()
2020-02-24 02:57:39.127 Time out between pack = 7 sec.; pack size = 100; packIX = 4644 of 100000; total item processed = 464400 of 493370; ID_OBJET from 32770092 to 32770192
2020-02-24 02:58:25.592 Starting RevisionLog()
2020-02-24 02:58:25.605 Time out between pack = 7 sec.; pack size = 100; packIX = 4645 of 100000; total item processed = 464500 of 493370; ID_OBJET from 32770193 to 32770292
2020-02-24 02:59:00.574 Starting RevisionLog()
2020-02-24 02:59:00.587 Time out between pack = 7 sec.; pack size = 100; packIX = 4646 of 100000; total item processed = 464600 of 493370; ID_OBJET from 32770293 to 32770392
2020-02-24 02:59:42.528 Starting RevisionLog()
2020-02-24 02:59:42.540 Time out between pack = 7 sec.; pack size = 100; packIX = 4647 of 100000; total item processed = 464700 of 493370; ID_OBJET from 32770393 to 32770492
2020-02-24 03:00:20.562 Starting RevisionLog()
2020-02-24 03:00:20.574 Time out between pack = 7 sec.; pack size = 100; packIX = 4648 of 100000; total item processed = 464800 of 493370; ID_OBJET from 32770493 to 32770592
2020-02-24 03:01:01.747 Starting RevisionLog()
2020-02-24 03:01:01.759 Time out between pack = 7 sec.; pack size = 100; packIX = 4649 of 100000; total item processed = 464900 of 493370; ID_OBJET from 32770593 to 32770692
2020-02-24 03:01:50.252 Starting RevisionLog()
2020-02-24 03:01:50.273 Time out between pack = 7 sec.; pack size = 100; packIX = 4650 of 100000; total item processed = 465000 of 493370; ID_OBJET from 32770693 to 32770792
2020-02-24 03:02:33.422 Starting RevisionLog()
2020-02-24 03:02:33.436 Time out between pack = 7 sec.; pack size = 100; packIX = 4651 of 100000; total item processed = 465100 of 493370; ID_OBJET from 32770793 to 32770934
2020-02-24 03:03:15.346 Starting RevisionLog()
2020-02-24 03:03:15.358 Time out between pack = 7 sec.; pack size = 100; packIX = 4652 of 100000; total item processed = 465200 of 493370; ID_OBJET from 32770935 to 32771038
2020-02-24 03:03:58.708 Starting RevisionLog()
2020-02-24 03:03:58.719 Time out between pack = 7 sec.; pack size = 100; packIX = 4653 of 100000; total item processed = 465300 of 493370; ID_OBJET from 32771039 to 32771139
2020-02-24 03:04:43.221 Starting RevisionLog()
2020-02-24 03:04:43.232 Time out between pack = 7 sec.; pack size = 100; packIX = 4654 of 100000; total item processed = 465400 of 493370; ID_OBJET from 32771140 to 32771241
2020-02-24 03:05:25.329 Starting RevisionLog()
2020-02-24 03:05:25.343 Time out between pack = 7 sec.; pack size = 100; packIX = 4655 of 100000; total item processed = 465500 of 493370; ID_OBJET from 32771242 to 32771342
2020-02-24 03:06:09.749 Starting RevisionLog()
2020-02-24 03:06:09.762 Time out between pack = 7 sec.; pack size = 100; packIX = 4656 of 100000; total item processed = 465600 of 493370; ID_OBJET from 32771343 to 32771444
2020-02-24 03:06:52.880 Starting RevisionLog()
2020-02-24 03:06:52.896 Time out between pack = 7 sec.; pack size = 100; packIX = 4657 of 100000; total item processed = 465700 of 493370; ID_OBJET from 32771445 to 32771546
2020-02-24 03:07:34.136 Starting RevisionLog()
2020-02-24 03:07:34.149 Time out between pack = 7 sec.; pack size = 100; packIX = 4658 of 100000; total item processed = 465800 of 493370; ID_OBJET from 32771547 to 32771646
2020-02-24 03:08:17.704 Starting RevisionLog()
2020-02-24 03:08:17.715 Time out between pack = 7 sec.; pack size = 100; packIX = 4659 of 100000; total item processed = 465900 of 493370; ID_OBJET from 32771647 to 32771746
2020-02-24 03:08:57.282 Starting RevisionLog()
2020-02-24 03:08:57.294 Time out between pack = 7 sec.; pack size = 100; packIX = 4660 of 100000; total item processed = 466000 of 493370; ID_OBJET from 32771747 to 32771846
2020-02-24 03:09:34.523 Starting RevisionLog()
2020-02-24 03:09:34.535 Time out between pack = 7 sec.; pack size = 100; packIX = 4661 of 100000; total item processed = 466100 of 493370; ID_OBJET from 32771847 to 32771947
2020-02-24 03:10:12.502 Starting RevisionLog()
2020-02-24 03:10:12.515 Time out between pack = 7 sec.; pack size = 100; packIX = 4662 of 100000; total item processed = 466200 of 493370; ID_OBJET from 32771948 to 32772047
2020-02-24 03:10:54.216 Starting RevisionLog()
2020-02-24 03:10:54.227 Time out between pack = 7 sec.; pack size = 100; packIX = 4663 of 100000; total item processed = 466300 of 493370; ID_OBJET from 32772048 to 32772147
2020-02-24 03:11:36.601 Starting RevisionLog()
2020-02-24 03:11:36.612 Time out between pack = 7 sec.; pack size = 100; packIX = 4664 of 100000; total item processed = 466400 of 493370; ID_OBJET from 32772148 to 32772248
2020-02-24 03:12:16.687 Starting RevisionLog()
2020-02-24 03:12:16.699 Time out between pack = 7 sec.; pack size = 100; packIX = 4665 of 100000; total item processed = 466500 of 493370; ID_OBJET from 32772249 to 32772372
2020-02-24 03:12:59.193 Starting RevisionLog()
2020-02-24 03:12:59.206 Time out between pack = 7 sec.; pack size = 100; packIX = 4666 of 100000; total item processed = 466600 of 493370; ID_OBJET from 32772374 to 32772502
2020-02-24 03:13:39.655 Starting RevisionLog()
2020-02-24 03:13:39.666 Time out between pack = 7 sec.; pack size = 100; packIX = 4667 of 100000; total item processed = 466700 of 493370; ID_OBJET from 32772503 to 32772603
2020-02-24 03:14:18.873 Starting RevisionLog()
2020-02-24 03:14:18.888 Time out between pack = 7 sec.; pack size = 100; packIX = 4668 of 100000; total item processed = 466800 of 493370; ID_OBJET from 32772604 to 32772705
2020-02-24 03:14:58.731 Starting RevisionLog()
2020-02-24 03:14:58.743 Time out between pack = 7 sec.; pack size = 100; packIX = 4669 of 100000; total item processed = 466900 of 493370; ID_OBJET from 32772706 to 32772806
2020-02-24 03:15:36.637 Starting RevisionLog()
2020-02-24 03:15:36.651 Time out between pack = 7 sec.; pack size = 100; packIX = 4670 of 100000; total item processed = 467000 of 493370; ID_OBJET from 32772807 to 32772906
2020-02-24 03:16:17.904 Starting RevisionLog()
2020-02-24 03:16:17.922 Time out between pack = 7 sec.; pack size = 100; packIX = 4671 of 100000; total item processed = 467100 of 493370; ID_OBJET from 32772907 to 32773006
2020-02-24 03:16:56.331 Starting RevisionLog()
2020-02-24 03:16:56.343 Time out between pack = 7 sec.; pack size = 100; packIX = 4672 of 100000; total item processed = 467200 of 493370; ID_OBJET from 32773007 to 32773108
2020-02-24 03:17:42.714 Starting RevisionLog()
2020-02-24 03:17:42.726 Time out between pack = 7 sec.; pack size = 100; packIX = 4673 of 100000; total item processed = 467300 of 493370; ID_OBJET from 32773109 to 32773209
2020-02-24 03:18:25.229 Starting RevisionLog()
2020-02-24 03:18:25.241 Time out between pack = 7 sec.; pack size = 100; packIX = 4674 of 100000; total item processed = 467400 of 493370; ID_OBJET from 32773210 to 32773310
2020-02-24 03:19:06.722 Starting RevisionLog()
2020-02-24 03:19:06.736 Time out between pack = 7 sec.; pack size = 100; packIX = 4675 of 100000; total item processed = 467500 of 493370; ID_OBJET from 32773311 to 32773410
2020-02-24 03:19:48.588 Starting RevisionLog()
2020-02-24 03:19:48.605 Time out between pack = 7 sec.; pack size = 100; packIX = 4676 of 100000; total item processed = 467600 of 493370; ID_OBJET from 32773411 to 32773510
2020-02-24 03:20:28.324 Starting RevisionLog()
2020-02-24 03:20:28.337 Time out between pack = 7 sec.; pack size = 100; packIX = 4677 of 100000; total item processed = 467700 of 493370; ID_OBJET from 32773511 to 32773611
2020-02-24 03:21:08.930 Starting RevisionLog()
2020-02-24 03:21:08.943 Time out between pack = 7 sec.; pack size = 100; packIX = 4678 of 100000; total item processed = 467800 of 493370; ID_OBJET from 32773612 to 32773711
2020-02-24 03:21:48.164 Starting RevisionLog()
2020-02-24 03:21:48.176 Time out between pack = 7 sec.; pack size = 100; packIX = 4679 of 100000; total item processed = 467900 of 493370; ID_OBJET from 32773712 to 32773813
2020-02-24 03:22:31.052 Starting RevisionLog()
2020-02-24 03:22:31.064 Time out between pack = 7 sec.; pack size = 100; packIX = 4680 of 100000; total item processed = 468000 of 493370; ID_OBJET from 32773814 to 32773914
2020-02-24 03:23:13.295 Starting RevisionLog()
2020-02-24 03:23:13.308 Time out between pack = 7 sec.; pack size = 100; packIX = 4681 of 100000; total item processed = 468100 of 493370; ID_OBJET from 32773915 to 32774016
2020-02-24 03:23:54.085 Starting RevisionLog()
2020-02-24 03:23:54.096 Time out between pack = 7 sec.; pack size = 100; packIX = 4682 of 100000; total item processed = 468200 of 493370; ID_OBJET from 32774017 to 32774116
2020-02-24 03:24:37.134 Starting RevisionLog()
2020-02-24 03:24:37.145 Time out between pack = 7 sec.; pack size = 100; packIX = 4683 of 100000; total item processed = 468300 of 493370; ID_OBJET from 32774117 to 32774217
2020-02-24 03:25:20.835 Starting RevisionLog()
2020-02-24 03:25:20.848 Time out between pack = 7 sec.; pack size = 100; packIX = 4684 of 100000; total item processed = 468400 of 493370; ID_OBJET from 32774218 to 32774317
2020-02-24 03:25:59.300 Starting RevisionLog()
2020-02-24 03:25:59.310 Time out between pack = 7 sec.; pack size = 100; packIX = 4685 of 100000; total item processed = 468500 of 493370; ID_OBJET from 32774318 to 32774417
2020-02-24 03:26:42.731 Starting RevisionLog()
2020-02-24 03:26:42.746 Time out between pack = 7 sec.; pack size = 100; packIX = 4686 of 100000; total item processed = 468600 of 493370; ID_OBJET from 32774418 to 32774517
2020-02-24 03:27:27.346 Starting RevisionLog()
2020-02-24 03:27:27.357 Time out between pack = 7 sec.; pack size = 100; packIX = 4687 of 100000; total item processed = 468700 of 493370; ID_OBJET from 32774518 to 32774617
2020-02-24 03:28:10.326 Starting RevisionLog()
2020-02-24 03:28:10.339 Time out between pack = 7 sec.; pack size = 100; packIX = 4688 of 100000; total item processed = 468800 of 493370; ID_OBJET from 32774618 to 32774717
2020-02-24 03:28:51.404 Starting RevisionLog()
2020-02-24 03:28:51.419 Time out between pack = 7 sec.; pack size = 100; packIX = 4689 of 100000; total item processed = 468900 of 493370; ID_OBJET from 32774718 to 32774817
2020-02-24 03:29:35.354 Starting RevisionLog()
2020-02-24 03:29:35.370 Time out between pack = 7 sec.; pack size = 100; packIX = 4690 of 100000; total item processed = 469000 of 493370; ID_OBJET from 32774818 to 32774917
2020-02-24 03:30:22.445 Starting RevisionLog()
2020-02-24 03:30:22.458 Time out between pack = 7 sec.; pack size = 100; packIX = 4691 of 100000; total item processed = 469100 of 493370; ID_OBJET from 32774918 to 32775017
2020-02-24 03:31:03.965 Starting RevisionLog()
2020-02-24 03:31:03.978 Time out between pack = 7 sec.; pack size = 100; packIX = 4692 of 100000; total item processed = 469200 of 493370; ID_OBJET from 32775018 to 32775118
2020-02-24 03:31:43.462 Starting RevisionLog()
2020-02-24 03:31:43.478 Time out between pack = 7 sec.; pack size = 100; packIX = 4693 of 100000; total item processed = 469300 of 493370; ID_OBJET from 32775119 to 32775218
2020-02-24 03:32:23.707 Starting RevisionLog()
2020-02-24 03:32:23.720 Time out between pack = 7 sec.; pack size = 100; packIX = 4694 of 100000; total item processed = 469400 of 493370; ID_OBJET from 32775219 to 32775318
2020-02-24 03:33:00.594 Starting RevisionLog()
2020-02-24 03:33:00.605 Time out between pack = 7 sec.; pack size = 100; packIX = 4695 of 100000; total item processed = 469500 of 493370; ID_OBJET from 32775319 to 32775418
2020-02-24 03:33:48.829 Starting RevisionLog()
2020-02-24 03:33:48.842 Time out between pack = 7 sec.; pack size = 100; packIX = 4696 of 100000; total item processed = 469600 of 493370; ID_OBJET from 32775419 to 32775519
2020-02-24 03:34:39.938 Starting RevisionLog()
2020-02-24 03:34:39.950 Time out between pack = 7 sec.; pack size = 100; packIX = 4697 of 100000; total item processed = 469700 of 493370; ID_OBJET from 32775520 to 32775619
2020-02-24 03:35:22.288 Starting RevisionLog()
2020-02-24 03:35:22.302 Time out between pack = 7 sec.; pack size = 100; packIX = 4698 of 100000; total item processed = 469800 of 493370; ID_OBJET from 32775620 to 32775719
2020-02-24 03:36:06.364 Starting RevisionLog()
2020-02-24 03:36:06.378 Time out between pack = 7 sec.; pack size = 100; packIX = 4699 of 100000; total item processed = 469900 of 493370; ID_OBJET from 32775720 to 32775819
2020-02-24 03:36:51.004 Starting RevisionLog()
2020-02-24 03:36:51.014 Time out between pack = 7 sec.; pack size = 100; packIX = 4700 of 100000; total item processed = 470000 of 493370; ID_OBJET from 32775820 to 32775919
2020-02-24 03:37:31.612 Starting RevisionLog()
2020-02-24 03:37:31.624 Time out between pack = 7 sec.; pack size = 100; packIX = 4701 of 100000; total item processed = 470100 of 493370; ID_OBJET from 32775920 to 32776020
2020-02-24 03:38:12.663 Starting RevisionLog()
2020-02-24 03:38:12.676 Time out between pack = 7 sec.; pack size = 100; packIX = 4702 of 100000; total item processed = 470200 of 493370; ID_OBJET from 32776021 to 32776122
2020-02-24 03:38:53.377 Starting RevisionLog()
2020-02-24 03:38:53.390 Time out between pack = 7 sec.; pack size = 100; packIX = 4703 of 100000; total item processed = 470300 of 493370; ID_OBJET from 32776123 to 32776222
2020-02-24 03:39:38.822 Starting RevisionLog()
2020-02-24 03:39:38.834 Time out between pack = 7 sec.; pack size = 100; packIX = 4704 of 100000; total item processed = 470400 of 493370; ID_OBJET from 32776223 to 32776322
2020-02-24 03:40:17.480 Starting RevisionLog()
2020-02-24 03:40:17.495 Time out between pack = 7 sec.; pack size = 100; packIX = 4705 of 100000; total item processed = 470500 of 493370; ID_OBJET from 32776323 to 32776422
2020-02-24 03:40:58.664 Starting RevisionLog()
2020-02-24 03:40:58.680 Time out between pack = 7 sec.; pack size = 100; packIX = 4706 of 100000; total item processed = 470600 of 493370; ID_OBJET from 32776423 to 32776522
2020-02-24 03:41:35.913 Starting RevisionLog()
2020-02-24 03:41:35.928 Time out between pack = 7 sec.; pack size = 100; packIX = 4707 of 100000; total item processed = 470700 of 493370; ID_OBJET from 32776523 to 32776622
2020-02-24 03:42:16.029 Starting RevisionLog()
2020-02-24 03:42:16.043 Time out between pack = 7 sec.; pack size = 100; packIX = 4708 of 100000; total item processed = 470800 of 493370; ID_OBJET from 32776623 to 32776723
2020-02-24 03:42:56.627 Starting RevisionLog()
2020-02-24 03:42:56.640 Time out between pack = 7 sec.; pack size = 100; packIX = 4709 of 100000; total item processed = 470900 of 493370; ID_OBJET from 32776724 to 32776823
2020-02-24 03:43:38.679 Starting RevisionLog()
2020-02-24 03:43:38.690 Time out between pack = 7 sec.; pack size = 100; packIX = 4710 of 100000; total item processed = 471000 of 493370; ID_OBJET from 32776824 to 32776923
2020-02-24 03:44:19.252 Starting RevisionLog()
2020-02-24 03:44:19.264 Time out between pack = 7 sec.; pack size = 100; packIX = 4711 of 100000; total item processed = 471100 of 493370; ID_OBJET from 32776924 to 32777024
2020-02-24 03:44:58.739 Starting RevisionLog()
2020-02-24 03:44:58.749 Time out between pack = 7 sec.; pack size = 100; packIX = 4712 of 100000; total item processed = 471200 of 493370; ID_OBJET from 32777025 to 32777124
2020-02-24 03:45:39.079 Starting RevisionLog()
2020-02-24 03:45:39.091 Time out between pack = 7 sec.; pack size = 100; packIX = 4713 of 100000; total item processed = 471300 of 493370; ID_OBJET from 32777125 to 32777225
2020-02-24 03:46:22.788 Starting RevisionLog()
2020-02-24 03:46:22.801 Time out between pack = 7 sec.; pack size = 100; packIX = 4714 of 100000; total item processed = 471400 of 493370; ID_OBJET from 32777226 to 32777329
2020-02-24 03:47:01.931 Starting RevisionLog()
2020-02-24 03:47:01.943 Time out between pack = 7 sec.; pack size = 100; packIX = 4715 of 100000; total item processed = 471500 of 493370; ID_OBJET from 32777330 to 32777431
2020-02-24 03:47:40.486 Starting RevisionLog()
2020-02-24 03:47:40.497 Time out between pack = 7 sec.; pack size = 100; packIX = 4716 of 100000; total item processed = 471600 of 493370; ID_OBJET from 32777432 to 32777531
2020-02-24 03:48:20.224 Starting RevisionLog()
2020-02-24 03:48:20.235 Time out between pack = 7 sec.; pack size = 100; packIX = 4717 of 100000; total item processed = 471700 of 493370; ID_OBJET from 32777532 to 32777631
2020-02-24 03:48:57.495 Starting RevisionLog()
2020-02-24 03:48:57.508 Time out between pack = 7 sec.; pack size = 100; packIX = 4718 of 100000; total item processed = 471800 of 493370; ID_OBJET from 32777632 to 32777734
2020-02-24 03:49:39.277 Starting RevisionLog()
2020-02-24 03:49:39.289 Time out between pack = 7 sec.; pack size = 100; packIX = 4719 of 100000; total item processed = 471900 of 493370; ID_OBJET from 32777735 to 32777834
2020-02-24 03:50:18.030 Starting RevisionLog()
2020-02-24 03:50:18.076 Time out between pack = 7 sec.; pack size = 100; packIX = 4720 of 100000; total item processed = 472000 of 493370; ID_OBJET from 32777835 to 32777935
2020-02-24 03:50:55.130 Starting RevisionLog()
2020-02-24 03:50:55.143 Time out between pack = 7 sec.; pack size = 100; packIX = 4721 of 100000; total item processed = 472100 of 493370; ID_OBJET from 32777936 to 32778035
2020-02-24 03:51:34.812 Starting RevisionLog()
2020-02-24 03:51:34.823 Time out between pack = 7 sec.; pack size = 100; packIX = 4722 of 100000; total item processed = 472200 of 493370; ID_OBJET from 32778036 to 32778135
2020-02-24 03:52:13.103 Starting RevisionLog()
2020-02-24 03:52:13.113 Time out between pack = 7 sec.; pack size = 100; packIX = 4723 of 100000; total item processed = 472300 of 493370; ID_OBJET from 32778136 to 32778235
2020-02-24 03:52:49.352 Starting RevisionLog()
2020-02-24 03:52:49.367 Time out between pack = 7 sec.; pack size = 100; packIX = 4724 of 100000; total item processed = 472400 of 493370; ID_OBJET from 32778236 to 32778335
2020-02-24 03:53:29.153 Starting RevisionLog()
2020-02-24 03:53:29.163 Time out between pack = 7 sec.; pack size = 100; packIX = 4725 of 100000; total item processed = 472500 of 493370; ID_OBJET from 32778336 to 32778435
2020-02-24 03:54:15.736 Starting RevisionLog()
2020-02-24 03:54:15.750 Time out between pack = 7 sec.; pack size = 100; packIX = 4726 of 100000; total item processed = 472600 of 493370; ID_OBJET from 32778436 to 32778535
2020-02-24 03:54:58.745 Starting RevisionLog()
2020-02-24 03:54:58.754 Time out between pack = 7 sec.; pack size = 100; packIX = 4727 of 100000; total item processed = 472700 of 493370; ID_OBJET from 32778536 to 32778635
2020-02-24 03:55:40.910 Starting RevisionLog()
2020-02-24 03:55:40.924 Time out between pack = 7 sec.; pack size = 100; packIX = 4728 of 100000; total item processed = 472800 of 493370; ID_OBJET from 32778636 to 32778737
2020-02-24 03:56:20.489 Starting RevisionLog()
2020-02-24 03:56:20.500 Time out between pack = 7 sec.; pack size = 100; packIX = 4729 of 100000; total item processed = 472900 of 493370; ID_OBJET from 32778738 to 32778837
2020-02-24 03:57:00.910 Starting RevisionLog()
2020-02-24 03:57:00.922 Time out between pack = 7 sec.; pack size = 100; packIX = 4730 of 100000; total item processed = 473000 of 493370; ID_OBJET from 32778838 to 32778939
2020-02-24 03:57:34.065 Starting RevisionLog()
2020-02-24 03:57:34.077 Time out between pack = 7 sec.; pack size = 100; packIX = 4731 of 100000; total item processed = 473100 of 493370; ID_OBJET from 32778940 to 32779040
2020-02-24 03:58:13.039 Starting RevisionLog()
2020-02-24 03:58:13.057 Time out between pack = 7 sec.; pack size = 100; packIX = 4732 of 100000; total item processed = 473200 of 493370; ID_OBJET from 32779041 to 32779141
2020-02-24 03:58:51.962 Starting RevisionLog()
2020-02-24 03:58:51.973 Time out between pack = 7 sec.; pack size = 100; packIX = 4733 of 100000; total item processed = 473300 of 493370; ID_OBJET from 32779142 to 32779241
2020-02-24 03:59:35.718 Starting RevisionLog()
2020-02-24 03:59:35.729 Time out between pack = 7 sec.; pack size = 100; packIX = 4734 of 100000; total item processed = 473400 of 493370; ID_OBJET from 32779242 to 32779341
2020-02-24 04:00:18.983 Starting RevisionLog()
2020-02-24 04:00:18.995 Time out between pack = 7 sec.; pack size = 100; packIX = 4735 of 100000; total item processed = 473500 of 493370; ID_OBJET from 32779342 to 32779441
2020-02-24 04:00:57.647 Starting RevisionLog()
2020-02-24 04:00:57.659 Time out between pack = 7 sec.; pack size = 100; packIX = 4736 of 100000; total item processed = 473600 of 493370; ID_OBJET from 32779442 to 32779541
2020-02-24 04:01:43.817 Starting RevisionLog()
2020-02-24 04:01:43.826 Time out between pack = 7 sec.; pack size = 100; packIX = 4737 of 100000; total item processed = 473700 of 493370; ID_OBJET from 32779542 to 32779641
2020-02-24 04:02:27.371 Starting RevisionLog()
2020-02-24 04:02:27.382 Time out between pack = 7 sec.; pack size = 100; packIX = 4738 of 100000; total item processed = 473800 of 493370; ID_OBJET from 32779642 to 32779741
2020-02-24 04:03:09.759 Starting RevisionLog()
2020-02-24 04:03:09.771 Time out between pack = 7 sec.; pack size = 100; packIX = 4739 of 100000; total item processed = 473900 of 493370; ID_OBJET from 32779742 to 32779841
2020-02-24 04:03:58.394 Starting RevisionLog()
2020-02-24 04:03:58.406 Time out between pack = 7 sec.; pack size = 100; packIX = 4740 of 100000; total item processed = 474000 of 493370; ID_OBJET from 32779842 to 32779941
2020-02-24 04:04:48.388 Starting RevisionLog()
2020-02-24 04:04:48.400 Time out between pack = 7 sec.; pack size = 100; packIX = 4741 of 100000; total item processed = 474100 of 493370; ID_OBJET from 32779942 to 32780041
2020-02-24 04:05:35.593 Starting RevisionLog()
2020-02-24 04:05:35.604 Time out between pack = 7 sec.; pack size = 100; packIX = 4742 of 100000; total item processed = 474200 of 493370; ID_OBJET from 32780042 to 32780142
2020-02-24 04:06:22.409 Starting RevisionLog()
2020-02-24 04:06:22.421 Time out between pack = 7 sec.; pack size = 100; packIX = 4743 of 100000; total item processed = 474300 of 493370; ID_OBJET from 32780143 to 32780242
2020-02-24 04:07:09.133 Starting RevisionLog()
2020-02-24 04:07:09.144 Time out between pack = 7 sec.; pack size = 100; packIX = 4744 of 100000; total item processed = 474400 of 493370; ID_OBJET from 32780243 to 32780344
2020-02-24 04:07:51.997 Starting RevisionLog()
2020-02-24 04:07:52.011 Time out between pack = 7 sec.; pack size = 100; packIX = 4745 of 100000; total item processed = 474500 of 493370; ID_OBJET from 32780345 to 32780461
2020-02-24 04:08:37.999 Starting RevisionLog()
2020-02-24 04:08:38.013 Time out between pack = 7 sec.; pack size = 100; packIX = 4746 of 100000; total item processed = 474600 of 493370; ID_OBJET from 32780462 to 32780561
2020-02-24 04:09:22.363 Starting RevisionLog()
2020-02-24 04:09:22.375 Time out between pack = 7 sec.; pack size = 100; packIX = 4747 of 100000; total item processed = 474700 of 493370; ID_OBJET from 32780562 to 32780662
2020-02-24 04:10:09.200 Starting RevisionLog()
2020-02-24 04:10:09.213 Time out between pack = 7 sec.; pack size = 100; packIX = 4748 of 100000; total item processed = 474800 of 493370; ID_OBJET from 32780663 to 32780763
2020-02-24 04:11:06.876 Starting RevisionLog()
2020-02-24 04:11:06.889 Time out between pack = 7 sec.; pack size = 100; packIX = 4749 of 100000; total item processed = 474900 of 493370; ID_OBJET from 32780764 to 32780863
2020-02-24 04:11:52.177 Starting RevisionLog()
2020-02-24 04:11:52.188 Time out between pack = 7 sec.; pack size = 100; packIX = 4750 of 100000; total item processed = 475000 of 493370; ID_OBJET from 32780864 to 32780968
2020-02-24 04:12:45.572 Starting RevisionLog()
2020-02-24 04:12:45.582 Time out between pack = 7 sec.; pack size = 100; packIX = 4751 of 100000; total item processed = 475100 of 493370; ID_OBJET from 32780969 to 32781070
2020-02-24 04:13:30.993 Starting RevisionLog()
2020-02-24 04:13:31.003 Time out between pack = 7 sec.; pack size = 100; packIX = 4752 of 100000; total item processed = 475200 of 493370; ID_OBJET from 32781071 to 32781170
2020-02-24 04:14:15.288 Starting RevisionLog()
2020-02-24 04:14:15.301 Time out between pack = 7 sec.; pack size = 100; packIX = 4753 of 100000; total item processed = 475300 of 493370; ID_OBJET from 32781171 to 32781271
2020-02-24 04:15:02.353 Starting RevisionLog()
2020-02-24 04:15:02.365 Time out between pack = 7 sec.; pack size = 100; packIX = 4754 of 100000; total item processed = 475400 of 493370; ID_OBJET from 32781272 to 32781372
2020-02-24 04:16:16.563 Starting RevisionLog()
2020-02-24 04:16:16.575 Time out between pack = 7 sec.; pack size = 100; packIX = 4755 of 100000; total item processed = 475500 of 493370; ID_OBJET from 32781373 to 32781472
2020-02-24 04:18:52.441 Starting RevisionLog()
2020-02-24 04:18:52.453 Time out between pack = 7 sec.; pack size = 100; packIX = 4756 of 100000; total item processed = 475600 of 493370; ID_OBJET from 32781473 to 32781572
2020-02-24 04:19:37.286 Starting RevisionLog()
2020-02-24 04:19:37.298 Time out between pack = 7 sec.; pack size = 100; packIX = 4757 of 100000; total item processed = 475700 of 493370; ID_OBJET from 32781573 to 32781673
2020-02-24 04:20:21.015 Starting RevisionLog()
2020-02-24 04:20:21.026 Time out between pack = 7 sec.; pack size = 100; packIX = 4758 of 100000; total item processed = 475800 of 493370; ID_OBJET from 32781674 to 32781774
2020-02-24 04:21:08.546 Starting RevisionLog()
2020-02-24 04:21:08.558 Time out between pack = 7 sec.; pack size = 100; packIX = 4759 of 100000; total item processed = 475900 of 493370; ID_OBJET from 32781775 to 32781874
2020-02-24 04:21:56.576 Starting RevisionLog()
2020-02-24 04:21:56.587 Time out between pack = 7 sec.; pack size = 100; packIX = 4760 of 100000; total item processed = 476000 of 493370; ID_OBJET from 32781875 to 32781975
2020-02-24 04:22:39.964 Starting RevisionLog()
2020-02-24 04:22:39.977 Time out between pack = 7 sec.; pack size = 100; packIX = 4761 of 100000; total item processed = 476100 of 493370; ID_OBJET from 32781976 to 32782075
2020-02-24 04:23:26.279 Starting RevisionLog()
2020-02-24 04:23:26.289 Time out between pack = 7 sec.; pack size = 100; packIX = 4762 of 100000; total item processed = 476200 of 493370; ID_OBJET from 32782076 to 32782176
2020-02-24 04:24:07.544 Starting RevisionLog()
2020-02-24 04:24:07.555 Time out between pack = 7 sec.; pack size = 100; packIX = 4763 of 100000; total item processed = 476300 of 493370; ID_OBJET from 32782177 to 32782277
2020-02-24 04:24:50.936 Starting RevisionLog()
2020-02-24 04:24:50.950 Time out between pack = 7 sec.; pack size = 100; packIX = 4764 of 100000; total item processed = 476400 of 493370; ID_OBJET from 32782278 to 32782378
2020-02-24 04:25:33.119 Starting RevisionLog()
2020-02-24 04:25:33.132 Time out between pack = 7 sec.; pack size = 100; packIX = 4765 of 100000; total item processed = 476500 of 493370; ID_OBJET from 32782380 to 32782480
2020-02-24 04:26:15.310 Starting RevisionLog()
2020-02-24 04:26:15.321 Time out between pack = 7 sec.; pack size = 100; packIX = 4766 of 100000; total item processed = 476600 of 493370; ID_OBJET from 32782481 to 32782589
2020-02-24 04:27:00.652 Starting RevisionLog()
2020-02-24 04:27:00.663 Time out between pack = 7 sec.; pack size = 100; packIX = 4767 of 100000; total item processed = 476700 of 493370; ID_OBJET from 32782590 to 32782690
2020-02-24 04:27:37.269 Starting RevisionLog()
2020-02-24 04:27:37.279 Time out between pack = 7 sec.; pack size = 100; packIX = 4768 of 100000; total item processed = 476800 of 493370; ID_OBJET from 32782691 to 32782790
2020-02-24 04:28:23.001 Starting RevisionLog()
2020-02-24 04:28:23.014 Time out between pack = 7 sec.; pack size = 100; packIX = 4769 of 100000; total item processed = 476900 of 493370; ID_OBJET from 32782791 to 32782891
2020-02-24 04:29:05.785 Starting RevisionLog()
2020-02-24 04:29:05.797 Time out between pack = 7 sec.; pack size = 100; packIX = 4770 of 100000; total item processed = 477000 of 493370; ID_OBJET from 32782892 to 32782991
2020-02-24 04:29:49.385 Starting RevisionLog()
2020-02-24 04:29:49.397 Time out between pack = 7 sec.; pack size = 100; packIX = 4771 of 100000; total item processed = 477100 of 493370; ID_OBJET from 32782993 to 32783092
2020-02-24 04:30:35.403 Starting RevisionLog()
2020-02-24 04:30:35.415 Time out between pack = 7 sec.; pack size = 100; packIX = 4772 of 100000; total item processed = 477200 of 493370; ID_OBJET from 32783093 to 32783193
2020-02-24 04:31:16.746 Starting RevisionLog()
2020-02-24 04:31:16.758 Time out between pack = 7 sec.; pack size = 100; packIX = 4773 of 100000; total item processed = 477300 of 493370; ID_OBJET from 32783194 to 32783293
2020-02-24 04:31:57.554 Starting RevisionLog()
2020-02-24 04:31:57.565 Time out between pack = 7 sec.; pack size = 100; packIX = 4774 of 100000; total item processed = 477400 of 493370; ID_OBJET from 32783294 to 32783394
2020-02-24 04:32:37.728 Starting RevisionLog()
2020-02-24 04:32:37.739 Time out between pack = 7 sec.; pack size = 100; packIX = 4775 of 100000; total item processed = 477500 of 493370; ID_OBJET from 32783395 to 32783494
2020-02-24 04:33:18.625 Starting RevisionLog()
2020-02-24 04:33:18.637 Time out between pack = 7 sec.; pack size = 100; packIX = 4776 of 100000; total item processed = 477600 of 493370; ID_OBJET from 32783495 to 32783595
2020-02-24 04:33:58.025 Starting RevisionLog()
2020-02-24 04:33:58.037 Time out between pack = 7 sec.; pack size = 100; packIX = 4777 of 100000; total item processed = 477700 of 493370; ID_OBJET from 32783596 to 32783696
2020-02-24 04:34:33.686 Starting RevisionLog()
2020-02-24 04:34:33.702 Time out between pack = 7 sec.; pack size = 100; packIX = 4778 of 100000; total item processed = 477800 of 493370; ID_OBJET from 32783697 to 32783797
2020-02-24 04:35:07.277 Starting RevisionLog()
2020-02-24 04:35:07.289 Time out between pack = 7 sec.; pack size = 100; packIX = 4779 of 100000; total item processed = 477900 of 493370; ID_OBJET from 32783798 to 32783898
2020-02-24 04:35:47.467 Starting RevisionLog()
2020-02-24 04:35:47.478 Time out between pack = 7 sec.; pack size = 100; packIX = 4780 of 100000; total item processed = 478000 of 493370; ID_OBJET from 32783899 to 32783998
2020-02-24 04:36:30.638 Starting RevisionLog()
2020-02-24 04:36:30.649 Time out between pack = 7 sec.; pack size = 100; packIX = 4781 of 100000; total item processed = 478100 of 493370; ID_OBJET from 32783999 to 32784099
2020-02-24 04:37:12.634 Starting RevisionLog()
2020-02-24 04:37:12.649 Time out between pack = 7 sec.; pack size = 100; packIX = 4782 of 100000; total item processed = 478200 of 493370; ID_OBJET from 32784100 to 32784199
2020-02-24 04:37:51.260 Starting RevisionLog()
2020-02-24 04:37:51.272 Time out between pack = 7 sec.; pack size = 100; packIX = 4783 of 100000; total item processed = 478300 of 493370; ID_OBJET from 32784200 to 32784300
2020-02-24 04:38:31.184 Starting RevisionLog()
2020-02-24 04:38:31.197 Time out between pack = 7 sec.; pack size = 100; packIX = 4784 of 100000; total item processed = 478400 of 493370; ID_OBJET from 32784301 to 32784400
2020-02-24 04:39:14.337 Starting RevisionLog()
2020-02-24 04:39:14.351 Time out between pack = 7 sec.; pack size = 100; packIX = 4785 of 100000; total item processed = 478500 of 493370; ID_OBJET from 32784401 to 32784501
2020-02-24 04:40:00.610 Starting RevisionLog()
2020-02-24 04:40:00.624 Time out between pack = 7 sec.; pack size = 100; packIX = 4786 of 100000; total item processed = 478600 of 493370; ID_OBJET from 32784502 to 32784601
2020-02-24 04:40:49.494 Starting RevisionLog()
2020-02-24 04:40:49.505 Time out between pack = 7 sec.; pack size = 100; packIX = 4787 of 100000; total item processed = 478700 of 493370; ID_OBJET from 32784602 to 32784705
2020-02-24 04:41:37.745 Starting RevisionLog()
2020-02-24 04:41:37.756 Time out between pack = 7 sec.; pack size = 100; packIX = 4788 of 100000; total item processed = 478800 of 493370; ID_OBJET from 32784706 to 32784806
2020-02-24 04:42:26.549 Starting RevisionLog()
2020-02-24 04:42:26.563 Time out between pack = 7 sec.; pack size = 100; packIX = 4789 of 100000; total item processed = 478900 of 493370; ID_OBJET from 32784807 to 32784907
2020-02-24 04:43:11.297 Starting RevisionLog()
2020-02-24 04:43:11.307 Time out between pack = 7 sec.; pack size = 100; packIX = 4790 of 100000; total item processed = 479000 of 493370; ID_OBJET from 32784908 to 32785009
2020-02-24 04:43:47.832 Starting RevisionLog()
2020-02-24 04:43:47.842 Time out between pack = 7 sec.; pack size = 100; packIX = 4791 of 100000; total item processed = 479100 of 493370; ID_OBJET from 32785010 to 32785109
2020-02-24 04:44:32.072 Starting RevisionLog()
2020-02-24 04:44:32.084 Time out between pack = 7 sec.; pack size = 100; packIX = 4792 of 100000; total item processed = 479200 of 493370; ID_OBJET from 32785110 to 32785209
2020-02-24 04:45:22.836 Starting RevisionLog()
2020-02-24 04:45:22.851 Time out between pack = 7 sec.; pack size = 100; packIX = 4793 of 100000; total item processed = 479300 of 493370; ID_OBJET from 32785210 to 32785309
2020-02-24 04:46:08.876 Starting RevisionLog()
2020-02-24 04:46:08.889 Time out between pack = 7 sec.; pack size = 100; packIX = 4794 of 100000; total item processed = 479400 of 493370; ID_OBJET from 32785310 to 32785409
2020-02-24 04:46:52.990 Starting RevisionLog()
2020-02-24 04:46:53.002 Time out between pack = 7 sec.; pack size = 100; packIX = 4795 of 100000; total item processed = 479500 of 493370; ID_OBJET from 32785410 to 32785510
2020-02-24 04:47:40.243 Starting RevisionLog()
2020-02-24 04:47:40.255 Time out between pack = 7 sec.; pack size = 100; packIX = 4796 of 100000; total item processed = 479600 of 493370; ID_OBJET from 32785511 to 32785610
2020-02-24 04:48:29.962 Starting RevisionLog()
2020-02-24 04:48:29.974 Time out between pack = 7 sec.; pack size = 100; packIX = 4797 of 100000; total item processed = 479700 of 493370; ID_OBJET from 32785611 to 32785710
2020-02-24 04:49:12.961 Starting RevisionLog()
2020-02-24 04:49:12.973 Time out between pack = 7 sec.; pack size = 100; packIX = 4798 of 100000; total item processed = 479800 of 493370; ID_OBJET from 32785711 to 32785812
2020-02-24 04:49:54.300 Starting RevisionLog()
2020-02-24 04:49:54.315 Time out between pack = 7 sec.; pack size = 100; packIX = 4799 of 100000; total item processed = 479900 of 493370; ID_OBJET from 32785813 to 32785914
2020-02-24 04:50:32.502 Starting RevisionLog()
2020-02-24 04:50:32.517 Time out between pack = 7 sec.; pack size = 100; packIX = 4800 of 100000; total item processed = 480000 of 493370; ID_OBJET from 32785915 to 32786014
2020-02-24 04:51:11.129 Starting RevisionLog()
2020-02-24 04:51:11.141 Time out between pack = 7 sec.; pack size = 100; packIX = 4801 of 100000; total item processed = 480100 of 493370; ID_OBJET from 32786015 to 32786114
2020-02-24 04:51:51.353 Starting RevisionLog()
2020-02-24 04:51:51.365 Time out between pack = 7 sec.; pack size = 100; packIX = 4802 of 100000; total item processed = 480200 of 493370; ID_OBJET from 32786115 to 32786261
2020-02-24 04:52:31.460 Starting RevisionLog()
2020-02-24 04:52:31.472 Time out between pack = 7 sec.; pack size = 100; packIX = 4803 of 100000; total item processed = 480300 of 493370; ID_OBJET from 32786262 to 32786362
2020-02-24 04:53:09.478 Starting RevisionLog()
2020-02-24 04:53:09.490 Time out between pack = 7 sec.; pack size = 100; packIX = 4804 of 100000; total item processed = 480400 of 493370; ID_OBJET from 32786363 to 32786462
2020-02-24 04:53:47.198 Starting RevisionLog()
2020-02-24 04:53:47.210 Time out between pack = 7 sec.; pack size = 100; packIX = 4805 of 100000; total item processed = 480500 of 493370; ID_OBJET from 32786463 to 32786562
2020-02-24 04:54:28.563 Starting RevisionLog()
2020-02-24 04:54:28.576 Time out between pack = 7 sec.; pack size = 100; packIX = 4806 of 100000; total item processed = 480600 of 493370; ID_OBJET from 32786563 to 32786664
2020-02-24 04:55:12.039 Starting RevisionLog()
2020-02-24 04:55:12.049 Time out between pack = 7 sec.; pack size = 100; packIX = 4807 of 100000; total item processed = 480700 of 493370; ID_OBJET from 32786665 to 32786765
2020-02-24 04:55:49.148 Starting RevisionLog()
2020-02-24 04:55:49.161 Time out between pack = 7 sec.; pack size = 100; packIX = 4808 of 100000; total item processed = 480800 of 493370; ID_OBJET from 32786766 to 32786865
2020-02-24 04:56:27.229 Starting RevisionLog()
2020-02-24 04:56:27.240 Time out between pack = 7 sec.; pack size = 100; packIX = 4809 of 100000; total item processed = 480900 of 493370; ID_OBJET from 32786866 to 32786965
2020-02-24 04:57:07.343 Starting RevisionLog()
2020-02-24 04:57:07.355 Time out between pack = 7 sec.; pack size = 100; packIX = 4810 of 100000; total item processed = 481000 of 493370; ID_OBJET from 32786967 to 32787066
2020-02-24 04:57:46.944 Starting RevisionLog()
2020-02-24 04:57:46.956 Time out between pack = 7 sec.; pack size = 100; packIX = 4811 of 100000; total item processed = 481100 of 493370; ID_OBJET from 32787067 to 32787166
2020-02-24 04:58:34.068 Starting RevisionLog()
2020-02-24 04:58:34.082 Time out between pack = 7 sec.; pack size = 100; packIX = 4812 of 100000; total item processed = 481200 of 493370; ID_OBJET from 32787167 to 32787276
2020-02-24 04:59:15.525 Starting RevisionLog()
2020-02-24 04:59:15.537 Time out between pack = 7 sec.; pack size = 100; packIX = 4813 of 100000; total item processed = 481300 of 493370; ID_OBJET from 32787277 to 32787377
2020-02-24 04:59:54.335 Starting RevisionLog()
2020-02-24 04:59:54.346 Time out between pack = 7 sec.; pack size = 100; packIX = 4814 of 100000; total item processed = 481400 of 493370; ID_OBJET from 32787378 to 32787477
2020-02-24 05:00:37.096 Starting RevisionLog()
2020-02-24 05:00:37.108 Time out between pack = 7 sec.; pack size = 100; packIX = 4815 of 100000; total item processed = 481500 of 493370; ID_OBJET from 32787478 to 32787577
2020-02-24 05:01:17.780 Starting RevisionLog()
2020-02-24 05:01:17.792 Time out between pack = 7 sec.; pack size = 100; packIX = 4816 of 100000; total item processed = 481600 of 493370; ID_OBJET from 32787578 to 32787679
2020-02-24 05:01:53.319 Starting RevisionLog()
2020-02-24 05:01:53.334 Time out between pack = 7 sec.; pack size = 100; packIX = 4817 of 100000; total item processed = 481700 of 493370; ID_OBJET from 32787680 to 32787780
2020-02-24 05:02:32.189 Starting RevisionLog()
2020-02-24 05:02:32.205 Time out between pack = 7 sec.; pack size = 100; packIX = 4818 of 100000; total item processed = 481800 of 493370; ID_OBJET from 32787781 to 32787881
2020-02-24 05:03:17.160 Starting RevisionLog()
2020-02-24 05:03:17.171 Time out between pack = 7 sec.; pack size = 100; packIX = 4819 of 100000; total item processed = 481900 of 493370; ID_OBJET from 32787882 to 32787985
2020-02-24 05:03:58.706 Starting RevisionLog()
2020-02-24 05:03:58.718 Time out between pack = 7 sec.; pack size = 100; packIX = 4820 of 100000; total item processed = 482000 of 493370; ID_OBJET from 32787986 to 32788085
2020-02-24 05:04:40.771 Starting RevisionLog()
2020-02-24 05:04:40.781 Time out between pack = 7 sec.; pack size = 100; packIX = 4821 of 100000; total item processed = 482100 of 493370; ID_OBJET from 32788086 to 32788185
2020-02-24 05:05:19.544 Starting RevisionLog()
2020-02-24 05:05:19.560 Time out between pack = 7 sec.; pack size = 100; packIX = 4822 of 100000; total item processed = 482200 of 493370; ID_OBJET from 32788186 to 32788286
2020-02-24 05:06:00.794 Starting RevisionLog()
2020-02-24 05:06:00.806 Time out between pack = 7 sec.; pack size = 100; packIX = 4823 of 100000; total item processed = 482300 of 493370; ID_OBJET from 32788287 to 32788386
2020-02-24 05:06:44.406 Starting RevisionLog()
2020-02-24 05:06:44.417 Time out between pack = 7 sec.; pack size = 100; packIX = 4824 of 100000; total item processed = 482400 of 493370; ID_OBJET from 32788387 to 32788487
2020-02-24 05:07:30.791 Starting RevisionLog()
2020-02-24 05:07:30.813 Time out between pack = 7 sec.; pack size = 100; packIX = 4825 of 100000; total item processed = 482500 of 493370; ID_OBJET from 32788488 to 32788587
2020-02-24 05:08:13.931 Starting RevisionLog()
2020-02-24 05:08:13.947 Time out between pack = 7 sec.; pack size = 100; packIX = 4826 of 100000; total item processed = 482600 of 493370; ID_OBJET from 32788588 to 32788688
2020-02-24 05:08:52.674 Starting RevisionLog()
2020-02-24 05:08:52.688 Time out between pack = 7 sec.; pack size = 100; packIX = 4827 of 100000; total item processed = 482700 of 493370; ID_OBJET from 32788689 to 32788789
2020-02-24 05:09:37.285 Starting RevisionLog()
2020-02-24 05:09:37.297 Time out between pack = 7 sec.; pack size = 100; packIX = 4828 of 100000; total item processed = 482800 of 493370; ID_OBJET from 32788790 to 32788890
2020-02-24 05:10:20.087 Starting RevisionLog()
2020-02-24 05:10:20.098 Time out between pack = 7 sec.; pack size = 100; packIX = 4829 of 100000; total item processed = 482900 of 493370; ID_OBJET from 32788891 to 32788992
2020-02-24 05:10:59.970 Starting RevisionLog()
2020-02-24 05:10:59.980 Time out between pack = 7 sec.; pack size = 100; packIX = 4830 of 100000; total item processed = 483000 of 493370; ID_OBJET from 32788993 to 32789093
2020-02-24 05:11:43.164 Starting RevisionLog()
2020-02-24 05:11:43.177 Time out between pack = 7 sec.; pack size = 100; packIX = 4831 of 100000; total item processed = 483100 of 493370; ID_OBJET from 32789094 to 32789193
2020-02-24 05:12:29.523 Starting RevisionLog()
2020-02-24 05:12:29.534 Time out between pack = 7 sec.; pack size = 100; packIX = 4832 of 100000; total item processed = 483200 of 493370; ID_OBJET from 32789194 to 32789293
2020-02-24 05:13:06.173 Starting RevisionLog()
2020-02-24 05:13:06.186 Time out between pack = 7 sec.; pack size = 100; packIX = 4833 of 100000; total item processed = 483300 of 493370; ID_OBJET from 32789294 to 32789393
2020-02-24 05:13:48.935 Starting RevisionLog()
2020-02-24 05:13:48.949 Time out between pack = 7 sec.; pack size = 100; packIX = 4834 of 100000; total item processed = 483400 of 493370; ID_OBJET from 32789395 to 32789496
2020-02-24 05:14:40.555 Starting RevisionLog()
2020-02-24 05:14:40.567 Time out between pack = 7 sec.; pack size = 100; packIX = 4835 of 100000; total item processed = 483500 of 493370; ID_OBJET from 32789497 to 32789596
2020-02-24 05:15:28.554 Starting RevisionLog()
2020-02-24 05:15:28.565 Time out between pack = 7 sec.; pack size = 100; packIX = 4836 of 100000; total item processed = 483600 of 493370; ID_OBJET from 32789597 to 32789703
2020-02-24 05:16:13.808 Starting RevisionLog()
2020-02-24 05:16:13.821 Time out between pack = 7 sec.; pack size = 100; packIX = 4837 of 100000; total item processed = 483700 of 493370; ID_OBJET from 32789704 to 32789803
2020-02-24 05:17:01.368 Starting RevisionLog()
2020-02-24 05:17:01.380 Time out between pack = 7 sec.; pack size = 100; packIX = 4838 of 100000; total item processed = 483800 of 493370; ID_OBJET from 32789804 to 32789905
2020-02-24 05:17:51.016 Starting RevisionLog()
2020-02-24 05:17:51.027 Time out between pack = 7 sec.; pack size = 100; packIX = 4839 of 100000; total item processed = 483900 of 493370; ID_OBJET from 32789906 to 32790007
2020-02-24 05:18:38.817 Starting RevisionLog()
2020-02-24 05:18:38.829 Time out between pack = 7 sec.; pack size = 100; packIX = 4840 of 100000; total item processed = 484000 of 493370; ID_OBJET from 32790008 to 32790107
2020-02-24 05:19:23.386 Starting RevisionLog()
2020-02-24 05:19:23.399 Time out between pack = 7 sec.; pack size = 100; packIX = 4841 of 100000; total item processed = 484100 of 493370; ID_OBJET from 32790108 to 32790208
2020-02-24 05:20:05.768 Starting RevisionLog()
2020-02-24 05:20:05.780 Time out between pack = 7 sec.; pack size = 100; packIX = 4842 of 100000; total item processed = 484200 of 493370; ID_OBJET from 32790209 to 32790308
2020-02-24 05:20:46.079 Starting RevisionLog()
2020-02-24 05:20:46.094 Time out between pack = 7 sec.; pack size = 100; packIX = 4843 of 100000; total item processed = 484300 of 493370; ID_OBJET from 32790309 to 32790408
2020-02-24 05:21:26.707 Starting RevisionLog()
2020-02-24 05:21:26.719 Time out between pack = 7 sec.; pack size = 100; packIX = 4844 of 100000; total item processed = 484400 of 493370; ID_OBJET from 32790409 to 32790509
2020-02-24 05:22:10.795 Starting RevisionLog()
2020-02-24 05:22:10.807 Time out between pack = 7 sec.; pack size = 100; packIX = 4845 of 100000; total item processed = 484500 of 493370; ID_OBJET from 32790510 to 32790612
2020-02-24 05:22:48.785 Starting RevisionLog()
2020-02-24 05:22:48.796 Time out between pack = 7 sec.; pack size = 100; packIX = 4846 of 100000; total item processed = 484600 of 493370; ID_OBJET from 32790613 to 32790712
2020-02-24 05:23:33.167 Starting RevisionLog()
2020-02-24 05:23:33.181 Time out between pack = 7 sec.; pack size = 100; packIX = 4847 of 100000; total item processed = 484700 of 493370; ID_OBJET from 32790713 to 32790813
2020-02-24 05:24:18.203 Starting RevisionLog()
2020-02-24 05:24:18.215 Time out between pack = 7 sec.; pack size = 100; packIX = 4848 of 100000; total item processed = 484800 of 493370; ID_OBJET from 32790814 to 32790913
2020-02-24 05:25:06.140 Starting RevisionLog()
2020-02-24 05:25:06.152 Time out between pack = 7 sec.; pack size = 100; packIX = 4849 of 100000; total item processed = 484900 of 493370; ID_OBJET from 32790914 to 32791014
2020-02-24 05:25:49.935 Starting RevisionLog()
2020-02-24 05:25:49.946 Time out between pack = 7 sec.; pack size = 100; packIX = 4850 of 100000; total item processed = 485000 of 493370; ID_OBJET from 32791015 to 32791114
2020-02-24 05:26:32.550 Starting RevisionLog()
2020-02-24 05:26:32.566 Time out between pack = 7 sec.; pack size = 100; packIX = 4851 of 100000; total item processed = 485100 of 493370; ID_OBJET from 32791115 to 32791214
2020-02-24 05:27:20.871 Starting RevisionLog()
2020-02-24 05:27:20.885 Time out between pack = 7 sec.; pack size = 100; packIX = 4852 of 100000; total item processed = 485200 of 493370; ID_OBJET from 32791215 to 32791314
2020-02-24 05:28:02.633 Starting RevisionLog()
2020-02-24 05:28:02.647 Time out between pack = 7 sec.; pack size = 100; packIX = 4853 of 100000; total item processed = 485300 of 493370; ID_OBJET from 32791315 to 32791414
2020-02-24 05:28:38.983 Starting RevisionLog()
2020-02-24 05:28:38.997 Time out between pack = 7 sec.; pack size = 100; packIX = 4854 of 100000; total item processed = 485400 of 493370; ID_OBJET from 32791415 to 32791514
2020-02-24 05:29:13.937 Starting RevisionLog()
2020-02-24 05:29:13.951 Time out between pack = 7 sec.; pack size = 100; packIX = 4855 of 100000; total item processed = 485500 of 493370; ID_OBJET from 32791515 to 32791614
2020-02-24 05:29:51.753 Starting RevisionLog()
2020-02-24 05:29:51.765 Time out between pack = 7 sec.; pack size = 100; packIX = 4856 of 100000; total item processed = 485600 of 493370; ID_OBJET from 32791615 to 32791714
2020-02-24 05:30:33.250 Starting RevisionLog()
2020-02-24 05:30:33.263 Time out between pack = 7 sec.; pack size = 100; packIX = 4857 of 100000; total item processed = 485700 of 493370; ID_OBJET from 32791715 to 32791814
2020-02-24 05:31:14.237 Starting RevisionLog()
2020-02-24 05:31:14.251 Time out between pack = 7 sec.; pack size = 100; packIX = 4858 of 100000; total item processed = 485800 of 493370; ID_OBJET from 32791815 to 32791914
2020-02-24 05:31:54.241 Starting RevisionLog()
2020-02-24 05:31:54.253 Time out between pack = 7 sec.; pack size = 100; packIX = 4859 of 100000; total item processed = 485900 of 493370; ID_OBJET from 32791915 to 32792014
2020-02-24 05:32:36.465 Starting RevisionLog()
2020-02-24 05:32:36.479 Time out between pack = 7 sec.; pack size = 100; packIX = 4860 of 100000; total item processed = 486000 of 493370; ID_OBJET from 32792015 to 32792114
2020-02-24 05:33:16.428 Starting RevisionLog()
2020-02-24 05:33:16.440 Time out between pack = 7 sec.; pack size = 100; packIX = 4861 of 100000; total item processed = 486100 of 493370; ID_OBJET from 32792115 to 32792215
2020-02-24 05:33:57.388 Starting RevisionLog()
2020-02-24 05:33:57.403 Time out between pack = 7 sec.; pack size = 100; packIX = 4862 of 100000; total item processed = 486200 of 493370; ID_OBJET from 32792216 to 32792316
2020-02-24 05:34:34.922 Starting RevisionLog()
2020-02-24 05:34:34.932 Time out between pack = 7 sec.; pack size = 100; packIX = 4863 of 100000; total item processed = 486300 of 493370; ID_OBJET from 32792317 to 32792416
2020-02-24 05:35:12.018 Starting RevisionLog()
2020-02-24 05:35:12.031 Time out between pack = 7 sec.; pack size = 100; packIX = 4864 of 100000; total item processed = 486400 of 493370; ID_OBJET from 32792417 to 32792516
2020-02-24 05:35:50.181 Starting RevisionLog()
2020-02-24 05:35:50.193 Time out between pack = 7 sec.; pack size = 100; packIX = 4865 of 100000; total item processed = 486500 of 493370; ID_OBJET from 32792517 to 32792616
2020-02-24 05:36:30.636 Starting RevisionLog()
2020-02-24 05:36:30.651 Time out between pack = 7 sec.; pack size = 100; packIX = 4866 of 100000; total item processed = 486600 of 493370; ID_OBJET from 32792617 to 32792719
2020-02-24 05:37:12.988 Starting RevisionLog()
2020-02-24 05:37:13.001 Time out between pack = 7 sec.; pack size = 100; packIX = 4867 of 100000; total item processed = 486700 of 493370; ID_OBJET from 32792720 to 32792819
2020-02-24 05:37:52.344 Starting RevisionLog()
2020-02-24 05:37:52.356 Time out between pack = 7 sec.; pack size = 100; packIX = 4868 of 100000; total item processed = 486800 of 493370; ID_OBJET from 32792820 to 32792919
2020-02-24 05:38:35.835 Starting RevisionLog()
2020-02-24 05:38:35.846 Time out between pack = 7 sec.; pack size = 100; packIX = 4869 of 100000; total item processed = 486900 of 493370; ID_OBJET from 32792920 to 32793020
2020-02-24 05:39:16.990 Starting RevisionLog()
2020-02-24 05:39:17.002 Time out between pack = 7 sec.; pack size = 100; packIX = 4870 of 100000; total item processed = 487000 of 493370; ID_OBJET from 32793021 to 32793121
2020-02-24 05:39:56.515 Starting RevisionLog()
2020-02-24 05:39:56.526 Time out between pack = 7 sec.; pack size = 100; packIX = 4871 of 100000; total item processed = 487100 of 493370; ID_OBJET from 32793122 to 32793223
2020-02-24 05:40:37.166 Starting RevisionLog()
2020-02-24 05:40:37.181 Time out between pack = 7 sec.; pack size = 100; packIX = 4872 of 100000; total item processed = 487200 of 493370; ID_OBJET from 32793224 to 32793327
2020-02-24 05:41:15.793 Starting RevisionLog()
2020-02-24 05:41:15.807 Time out between pack = 7 sec.; pack size = 100; packIX = 4873 of 100000; total item processed = 487300 of 493370; ID_OBJET from 32793328 to 32793428
2020-02-24 05:41:53.428 Starting RevisionLog()
2020-02-24 05:41:53.439 Time out between pack = 7 sec.; pack size = 100; packIX = 4874 of 100000; total item processed = 487400 of 493370; ID_OBJET from 32793429 to 32793530
2020-02-24 05:42:32.582 Starting RevisionLog()
2020-02-24 05:42:32.595 Time out between pack = 7 sec.; pack size = 100; packIX = 4875 of 100000; total item processed = 487500 of 493370; ID_OBJET from 32793531 to 32793631
2020-02-24 05:43:10.466 Starting RevisionLog()
2020-02-24 05:43:10.479 Time out between pack = 7 sec.; pack size = 100; packIX = 4876 of 100000; total item processed = 487600 of 493370; ID_OBJET from 32793632 to 32793731
2020-02-24 05:43:48.697 Starting RevisionLog()
2020-02-24 05:43:48.712 Time out between pack = 7 sec.; pack size = 100; packIX = 4877 of 100000; total item processed = 487700 of 493370; ID_OBJET from 32793732 to 32793833
2020-02-24 05:44:29.630 Starting RevisionLog()
2020-02-24 05:44:29.641 Time out between pack = 7 sec.; pack size = 100; packIX = 4878 of 100000; total item processed = 487800 of 493370; ID_OBJET from 32793834 to 32793933
2020-02-24 05:45:09.026 Starting RevisionLog()
2020-02-24 05:45:09.043 Time out between pack = 7 sec.; pack size = 100; packIX = 4879 of 100000; total item processed = 487900 of 493370; ID_OBJET from 32793934 to 32794034
2020-02-24 05:45:47.872 Starting RevisionLog()
2020-02-24 05:45:47.882 Time out between pack = 7 sec.; pack size = 100; packIX = 4880 of 100000; total item processed = 488000 of 493370; ID_OBJET from 32794035 to 32794136
2020-02-24 05:46:27.861 Starting RevisionLog()
2020-02-24 05:46:27.872 Time out between pack = 7 sec.; pack size = 100; packIX = 4881 of 100000; total item processed = 488100 of 493370; ID_OBJET from 32794137 to 32794237
2020-02-24 05:47:09.602 Starting RevisionLog()
2020-02-24 05:47:09.612 Time out between pack = 7 sec.; pack size = 100; packIX = 4882 of 100000; total item processed = 488200 of 493370; ID_OBJET from 32794238 to 32794337
2020-02-24 05:48:01.345 Starting RevisionLog()
2020-02-24 05:48:01.360 Time out between pack = 7 sec.; pack size = 100; packIX = 4883 of 100000; total item processed = 488300 of 493370; ID_OBJET from 32794338 to 32794437
2020-02-24 05:48:46.251 Starting RevisionLog()
2020-02-24 05:48:46.263 Time out between pack = 7 sec.; pack size = 100; packIX = 4884 of 100000; total item processed = 488400 of 493370; ID_OBJET from 32794438 to 32794538
2020-02-24 05:49:29.378 Starting RevisionLog()
2020-02-24 05:49:29.394 Time out between pack = 7 sec.; pack size = 100; packIX = 4885 of 100000; total item processed = 488500 of 493370; ID_OBJET from 32794539 to 32794639
2020-02-24 05:50:12.548 Starting RevisionLog()
2020-02-24 05:50:12.559 Time out between pack = 7 sec.; pack size = 100; packIX = 4886 of 100000; total item processed = 488600 of 493370; ID_OBJET from 32794640 to 32794739
2020-02-24 05:50:53.735 Starting RevisionLog()
2020-02-24 05:50:53.751 Time out between pack = 7 sec.; pack size = 100; packIX = 4887 of 100000; total item processed = 488700 of 493370; ID_OBJET from 32794740 to 32794839
2020-02-24 05:51:34.143 Starting RevisionLog()
2020-02-24 05:51:34.155 Time out between pack = 7 sec.; pack size = 100; packIX = 4888 of 100000; total item processed = 488800 of 493370; ID_OBJET from 32794840 to 32794939
2020-02-24 05:52:15.083 Starting RevisionLog()
2020-02-24 05:52:15.100 Time out between pack = 7 sec.; pack size = 100; packIX = 4889 of 100000; total item processed = 488900 of 493370; ID_OBJET from 32794940 to 32795042
2020-02-24 05:53:01.249 Starting RevisionLog()
2020-02-24 05:53:01.261 Time out between pack = 7 sec.; pack size = 100; packIX = 4890 of 100000; total item processed = 489000 of 493370; ID_OBJET from 32795043 to 32795142
2020-02-24 05:53:40.211 Starting RevisionLog()
2020-02-24 05:53:40.226 Time out between pack = 7 sec.; pack size = 100; packIX = 4891 of 100000; total item processed = 489100 of 493370; ID_OBJET from 32795143 to 32795242
2020-02-24 05:54:23.899 Starting RevisionLog()
2020-02-24 05:54:23.918 Time out between pack = 7 sec.; pack size = 100; packIX = 4892 of 100000; total item processed = 489200 of 493370; ID_OBJET from 32795243 to 32795343
2020-02-24 05:55:03.390 Starting RevisionLog()
2020-02-24 05:55:03.408 Time out between pack = 7 sec.; pack size = 100; packIX = 4893 of 100000; total item processed = 489300 of 493370; ID_OBJET from 32795344 to 32795445
2020-02-24 05:55:42.150 Starting RevisionLog()
2020-02-24 05:55:42.162 Time out between pack = 7 sec.; pack size = 100; packIX = 4894 of 100000; total item processed = 489400 of 493370; ID_OBJET from 32795446 to 32795545
2020-02-24 05:56:23.590 Error: ElvisSearchElvisID; q = cf_objectId:67165 AND cf_containerType:коллекция; rc = -10; err = 
2020-02-24 05:56:23.600 Error during add to Elvis collection; ID_OBJET = 32795628; coll_Elvis_ID = null
2020-02-24 05:56:30.966 Starting RevisionLog()
2020-02-24 05:56:30.977 Time out between pack = 7 sec.; pack size = 100; packIX = 4895 of 100000; total item processed = 489500 of 493370; ID_OBJET from 32795546 to 32795646
2020-02-24 05:56:38.524 Error: ElvisSearchElvisID; q = cf_objectId:67165 AND cf_containerType:коллекция; rc = -10; err = 
2020-02-24 05:56:38.536 Error during add to Elvis collection; ID_OBJET = 32795647; coll_Elvis_ID = null
2020-02-24 05:56:42.146 Error: ElvisSearchElvisID; q = cf_objectId:67165 AND cf_containerType:коллекция; rc = -10; err = 
2020-02-24 05:56:42.158 Error during add to Elvis collection; ID_OBJET = 32795657; coll_Elvis_ID = null
2020-02-24 05:57:21.473 Starting RevisionLog()
2020-02-24 05:57:21.485 Time out between pack = 7 sec.; pack size = 100; packIX = 4896 of 100000; total item processed = 489600 of 493370; ID_OBJET from 32795647 to 32795746
2020-02-24 05:58:03.833 Starting RevisionLog()
2020-02-24 05:58:03.848 Time out between pack = 7 sec.; pack size = 100; packIX = 4897 of 100000; total item processed = 489700 of 493370; ID_OBJET from 32795747 to 32795848
2020-02-24 05:58:50.475 Starting RevisionLog()
2020-02-24 05:58:50.485 Time out between pack = 7 sec.; pack size = 100; packIX = 4898 of 100000; total item processed = 489800 of 493370; ID_OBJET from 32795849 to 32795950
2020-02-24 05:59:28.186 Starting RevisionLog()
2020-02-24 05:59:28.203 Time out between pack = 7 sec.; pack size = 100; packIX = 4899 of 100000; total item processed = 489900 of 493370; ID_OBJET from 32795951 to 32796050
2020-02-24 06:00:08.397 Starting RevisionLog()
2020-02-24 06:00:08.408 Time out between pack = 7 sec.; pack size = 100; packIX = 4900 of 100000; total item processed = 490000 of 493370; ID_OBJET from 32796051 to 32796153
2020-02-24 06:00:52.722 Starting RevisionLog()
2020-02-24 06:00:52.735 Time out between pack = 7 sec.; pack size = 100; packIX = 4901 of 100000; total item processed = 490100 of 493370; ID_OBJET from 32796154 to 32796253
2020-02-24 06:01:43.081 Starting RevisionLog()
2020-02-24 06:01:43.093 Time out between pack = 7 sec.; pack size = 100; packIX = 4902 of 100000; total item processed = 490200 of 493370; ID_OBJET from 32796254 to 32796356
2020-02-24 06:02:27.321 Starting RevisionLog()
2020-02-24 06:02:27.333 Time out between pack = 7 sec.; pack size = 100; packIX = 4903 of 100000; total item processed = 490300 of 493370; ID_OBJET from 32796357 to 32796457
2020-02-24 06:03:11.471 Starting RevisionLog()
2020-02-24 06:03:11.483 Time out between pack = 7 sec.; pack size = 100; packIX = 4904 of 100000; total item processed = 490400 of 493370; ID_OBJET from 32796458 to 32796557
2020-02-24 06:03:49.725 Starting RevisionLog()
2020-02-24 06:03:49.741 Time out between pack = 7 sec.; pack size = 100; packIX = 4905 of 100000; total item processed = 490500 of 493370; ID_OBJET from 32796558 to 32796658
2020-02-24 06:04:31.052 Starting RevisionLog()
2020-02-24 06:04:31.067 Time out between pack = 7 sec.; pack size = 100; packIX = 4906 of 100000; total item processed = 490600 of 493370; ID_OBJET from 32796659 to 32796814
2020-02-24 06:05:19.405 Starting RevisionLog()
2020-02-24 06:05:19.417 Time out between pack = 7 sec.; pack size = 100; packIX = 4907 of 100000; total item processed = 490700 of 493370; ID_OBJET from 32796815 to 32796917
2020-02-24 06:06:03.753 Starting RevisionLog()
2020-02-24 06:06:03.765 Time out between pack = 7 sec.; pack size = 100; packIX = 4908 of 100000; total item processed = 490800 of 493370; ID_OBJET from 32796918 to 32797059
2020-02-24 06:06:48.270 Starting RevisionLog()
2020-02-24 06:06:49.196 Time out between pack = 7 sec.; pack size = 100; packIX = 4909 of 100000; total item processed = 490900 of 493370; ID_OBJET from 32797060 to 32797162
2020-02-24 06:07:35.434 Starting RevisionLog()
2020-02-24 06:07:35.449 Time out between pack = 7 sec.; pack size = 100; packIX = 4910 of 100000; total item processed = 491000 of 493370; ID_OBJET from 32797163 to 32797265
2020-02-24 06:08:14.786 Starting RevisionLog()
2020-02-24 06:08:14.801 Time out between pack = 7 sec.; pack size = 100; packIX = 4911 of 100000; total item processed = 491100 of 493370; ID_OBJET from 32797266 to 32797365
2020-02-24 06:09:02.265 Starting RevisionLog()
2020-02-24 06:09:02.321 Time out between pack = 7 sec.; pack size = 100; packIX = 4912 of 100000; total item processed = 491200 of 493370; ID_OBJET from 32797366 to 32797466
2020-02-24 06:09:42.444 Starting RevisionLog()
2020-02-24 06:09:42.456 Time out between pack = 7 sec.; pack size = 100; packIX = 4913 of 100000; total item processed = 491300 of 493370; ID_OBJET from 32797467 to 32797568
2020-02-24 06:10:21.997 Starting RevisionLog()
2020-02-24 06:10:22.010 Time out between pack = 7 sec.; pack size = 100; packIX = 4914 of 100000; total item processed = 491400 of 493370; ID_OBJET from 32797569 to 32797669
2020-02-24 06:11:03.426 Starting RevisionLog()
2020-02-24 06:11:03.439 Time out between pack = 7 sec.; pack size = 100; packIX = 4915 of 100000; total item processed = 491500 of 493370; ID_OBJET from 32797670 to 32797769
2020-02-24 06:11:46.893 Starting RevisionLog()
2020-02-24 06:11:46.904 Time out between pack = 7 sec.; pack size = 100; packIX = 4916 of 100000; total item processed = 491600 of 493370; ID_OBJET from 32797770 to 32797869
2020-02-24 06:12:30.484 Starting RevisionLog()
2020-02-24 06:12:30.496 Time out between pack = 7 sec.; pack size = 100; packIX = 4917 of 100000; total item processed = 491700 of 493370; ID_OBJET from 32797870 to 32797969
2020-02-24 06:13:16.840 Starting RevisionLog()
2020-02-24 06:13:16.853 Time out between pack = 7 sec.; pack size = 100; packIX = 4918 of 100000; total item processed = 491800 of 493370; ID_OBJET from 32797970 to 32798071
2020-02-24 06:14:05.725 Starting RevisionLog()
2020-02-24 06:14:05.737 Time out between pack = 7 sec.; pack size = 100; packIX = 4919 of 100000; total item processed = 491900 of 493370; ID_OBJET from 32798072 to 32798173
2020-02-24 06:14:50.370 Starting RevisionLog()
2020-02-24 06:14:50.383 Time out between pack = 7 sec.; pack size = 100; packIX = 4920 of 100000; total item processed = 492000 of 493370; ID_OBJET from 32798174 to 32798383
2020-02-24 06:15:39.651 Starting RevisionLog()
2020-02-24 06:15:39.664 Time out between pack = 7 sec.; pack size = 100; packIX = 4921 of 100000; total item processed = 492100 of 493370; ID_OBJET from 32798392 to 32798571
2020-02-24 06:16:28.728 Starting RevisionLog()
2020-02-24 06:16:28.739 Time out between pack = 7 sec.; pack size = 100; packIX = 4922 of 100000; total item processed = 492200 of 493370; ID_OBJET from 32798572 to 32798690
2020-02-24 06:17:13.867 Starting RevisionLog()
2020-02-24 06:17:13.879 Time out between pack = 7 sec.; pack size = 100; packIX = 4923 of 100000; total item processed = 492300 of 493370; ID_OBJET from 32798691 to 32798790
2020-02-24 06:17:59.908 Starting RevisionLog()
2020-02-24 06:17:59.921 Time out between pack = 7 sec.; pack size = 100; packIX = 4924 of 100000; total item processed = 492400 of 493370; ID_OBJET from 32798791 to 32798890
2020-02-24 06:18:48.582 Starting RevisionLog()
2020-02-24 06:18:48.595 Time out between pack = 7 sec.; pack size = 100; packIX = 4925 of 100000; total item processed = 492500 of 493370; ID_OBJET from 32798891 to 32798992
2020-02-24 06:19:36.146 Starting RevisionLog()
2020-02-24 06:19:36.157 Time out between pack = 7 sec.; pack size = 100; packIX = 4926 of 100000; total item processed = 492600 of 493370; ID_OBJET from 32798993 to 32799092
2020-02-24 06:20:23.575 Starting RevisionLog()
2020-02-24 06:20:23.597 Time out between pack = 7 sec.; pack size = 100; packIX = 4927 of 100000; total item processed = 492700 of 493370; ID_OBJET from 32799093 to 32799195
2020-02-24 06:21:10.557 Starting RevisionLog()
2020-02-24 06:21:10.570 Time out between pack = 7 sec.; pack size = 100; packIX = 4928 of 100000; total item processed = 492800 of 493370; ID_OBJET from 32799196 to 32799373
2020-02-24 06:21:56.550 Starting RevisionLog()
2020-02-24 06:21:56.565 Time out between pack = 7 sec.; pack size = 100; packIX = 4929 of 100000; total item processed = 492900 of 493370; ID_OBJET from 32799374 to 32799507
2020-02-24 06:22:38.361 Starting RevisionLog()
2020-02-24 06:22:38.373 Time out between pack = 7 sec.; pack size = 100; packIX = 4930 of 100000; total item processed = 493000 of 493370; ID_OBJET from 32799508 to 32799614
2020-02-24 06:23:25.777 Starting RevisionLog()
2020-02-24 06:23:25.790 Time out between pack = 7 sec.; pack size = 100; packIX = 4931 of 100000; total item processed = 493100 of 493370; ID_OBJET from 32799615 to 32799719
2020-02-24 06:24:11.450 Starting RevisionLog()
2020-02-24 06:24:11.475 Time out between pack = 7 sec.; pack size = 100; packIX = 4932 of 100000; total item processed = 493200 of 493370; ID_OBJET from 32799720 to 32799825
2020-02-24 06:24:59.180 Starting RevisionLog()
2020-02-24 06:24:59.192 Time out between pack = 7 sec.; pack size = 100; packIX = 4933 of 100000; total item processed = 493300 of 493370; ID_OBJET from 32799826 to 32799925
2020-02-24 06:25:29.599 End of items. Program Images 1.0.7355.35756 was completed; packIX = 4933 of 100000; total item processed = 493370 of 493370; ID_OBJET from 32300100 to 32799999
