﻿0;/Recycle
4;/TASS
5;/TASS/Authors
9;/TASS
10;/TASS
24;/Partners/Leta
29;/Partners/Zenit
30;/TASS
33;/Partners/Gorkyfilm
34;/TASS
37;/Recycle
38;/Partners/RodionovPH
39;/Partners/Interpress
43;/Partners/RodionovPH
46;/Partners/Interpress
47;/Partners/RodionovPH
48;/Partners/RodionovPH
49;/TASS
51;/Hidden/TASS
54;/Partners/EPA
55;/Partners/Magphoto
60;/TASS/Archive
62;/Hidden/EPA
65;/Hidden/RIA
66;/TASS
68;/Hidden/Trend
69;/Hidden/Reuters
70;/Partners/Gastronom
72;/Hidden/TASS
73;/TASS
74;/Partners/Vedomosti
75;/Hidden/EPA
77;/Hidden/Photoshot
78;/TASS
80;/Partners/Lehtikuva
81;/Partners/Interfoto
83;/Hidden/Landov
84;/Partners/DPA
85;/Hidden/Reuters
86;/Partners/PA Photos
87;/Partners/Abaca Press
88;/Hidden/RGAKFD
90;/TASS
91;/Partners/UIG
92;/Hidden/Alinari
94;/Hidden/Fotoimedia
98;/Partners/Alamy
100;/Partners/ChinaFotoPress
101;/Hidden/FogStock
102;/Partners/Imago-Images
103;/Partners/MaryEvansPicture
104;/Hidden/Mother&Baby
106;/Hidden/Olycom
107;/TASS
108;/Partners/WellcomePhoto
110;/Hidden/Fotoimedia
115;/Hidden/TASS
116;/Partners/YAY
117;/TASS
118;/TASS
119;/Partners/Panarmenian
120;/Hidden/Actionpress
123;/TASS
124;/Partners/Photolure
126;/Partners/Granger
130;/Partners/Megafon
131;/Partners/Megafon
133;/Partners/SportExpress
134;/Partners/Zuma
135;/Partners/Zuma
136;/TASS
137;/Partners/Zuma
138;/Partners/UIG
139;/Partners/AP
140;/TASS
141;/Partners/AP
142;/TASS/RIC
143;/TASS/RIC
144;/TASS/RIC
147;/Partners/TopFoto
150;/Partners/PA Photos
151;/Partners/Imago-Images
152;/TASS
153;/Partners/AP
154;/Hidden/BarcroftMedia
155;/TASS
156;/TASS
158;/Partners/Crowdspark
159;/Partners/Forum
160;/Partners/CTK
161;/Partners/CTK
163;/TASS/Archive
165;/Partners
166;/TASS
167;/TASS
168;/TASS/Authors
169;/TASS
174;/TASS
175;/Partners/Reuters
176;/TASS/Press
177;/TASS
178;/Partners
179;/TASS
181;/Partners/Reuters
182;/Partners
183;/TASS/Press
184;/TASS
185;/TASS
186;/TASS/Press
187;/TASS/Press
188;/Partners/Ura_Ru
189;/Partners
190;/TASS/Contracts
191;/TASS/Contracts
192;/TASS/Contracts
193;/TASS/Contracts
194;/TASS/Contracts
195;/TASS/Contracts
196;/TASS/Contracts
197;/TASS/Contracts
198;/TASS/Contracts
199;/TASS/Contracts
200;/TASS/Contracts
202;/TASS/Contracts
203;/TASS/Contracts
207;/Partners/RBC
209;/TASS/Contracts
212;/TASS/Contracts
327;/TASS/Contracts
377;/TASS/Contracts
466;/TASS/Contracts
544;/TASS/Archive
587;/Partners/Depositphotos
625;/TASS/Archive
626;/TASS/Archive
627;/TASS/Archive
628;/TASS/Archive
629;/TASS/Archive
630;/TASS/Archive
631;/TASS/Archive
632;/TASS/Archive
633;/TASS/Archive
637;/TASS/Archive
643;/TASS/Archive
644;/TASS/Archive
647;/TASS/Archive
649;/TASS/Archive
650;/TASS/Archive
651;/TASS/Archive
652;/TASS/Archive
659;/TASS/Archive
661;/TASS/Archive
662;/TASS/Archive
663;/TASS/Archive
668;/TASS/Contracts
683;/TASS/Archive
698;/TASS/Archive
699;/TASS/Archive
722;/TASS/Archive
725;/TASS/Contracts
736;/TASS/Contracts
741;/Partners/Xinhua
743;/TASS/Contracts
754;/TASS/Archive
777;/TASS/Archive
778;/TASS/Archive
780;/TASS/Archive
783;/TASS/Contracts
792;/TASS/Archive
804;/TASS/Archive
837;/TASS/Archive
880;/TASS/Archive
916;/TASS/Archive
204;/TASS/Press
205;/TASS/Press
206;/TASS/Press
208;/TASS/Press
210;/TASS/Press
211;/TASS/Press
213;/TASS/Press
214;/TASS/Press
215;/TASS/Press
216;/TASS/Press
217;/TASS/Press
218;/TASS/Press
219;/TASS/Press
220;/TASS/Press
221;/TASS/Press
222;/TASS/Press
223;/TASS/Press
224;/TASS/Press
225;/TASS/Press
226;/TASS/Press
227;/TASS/Press
228;/TASS/Press
229;/TASS/Press
230;/TASS/Press
231;/TASS/Press
232;/TASS/Press
233;/TASS/Press
234;/TASS/Press
235;/TASS/Press
236;/TASS/Press
237;/TASS/Press
238;/TASS/Press
239;/TASS/Press
240;/TASS/Press
241;/TASS/Press
242;/TASS/Press
243;/TASS/Press
244;/TASS/Press
245;/TASS/Press
246;/TASS/Press
247;/TASS/Press
248;/TASS/Press
249;/TASS/Press
250;/TASS/Press
251;/TASS/Press
252;/TASS/Press
253;/TASS/Press
254;/TASS/Press
255;/TASS/Press
256;/TASS/Press
257;/TASS/Press
258;/TASS/Press
259;/TASS/Press
260;/TASS/Press
261;/TASS/Press
262;/TASS/Press
263;/TASS/Press
264;/TASS/Press
265;/TASS/Press
266;/TASS/Press
267;/TASS/Press
268;/TASS/Press
269;/TASS/Press
270;/TASS/Press
271;/TASS/Press
272;/TASS/Press
273;/TASS/Press
274;/TASS/Press
275;/TASS/Press
276;/TASS/Press
277;/TASS/Press
278;/TASS/Press
279;/TASS/Press
280;/TASS/Press
281;/TASS/Press
282;/TASS/Press
283;/TASS/Press
284;/TASS/Press
285;/TASS/Press
287;/TASS/Press
288;/TASS/Press
289;/TASS/Press
290;/TASS/Press
291;/TASS/Press
292;/TASS/Press
293;/TASS/Press
294;/TASS/Press
296;/TASS/Press
297;/TASS/Press
298;/TASS/Press
299;/TASS/Press
300;/TASS/Press
301;/TASS/Press
302;/TASS/Press
303;/TASS/Press
304;/TASS/Press
305;/TASS/Press
306;/TASS/Press
307;/TASS/Press
308;/TASS/Press
309;/TASS/Press
310;/TASS/Press
311;/TASS/Press
312;/TASS/Press
313;/TASS/Press
314;/TASS/Press
315;/TASS/Press
316;/TASS/Press
317;/TASS/Press
318;/TASS/Press
319;/TASS/Press
320;/TASS/Press
321;/TASS/Press
322;/TASS/Press
323;/TASS/Press
324;/TASS/Press
325;/TASS/Press
326;/TASS/Press
328;/TASS/Press
329;/TASS/Press
330;/TASS/Press
331;/TASS/Press
332;/TASS/Press
333;/TASS/Press
334;/TASS/Press
335;/TASS/Press
336;/TASS/Press
337;/TASS/Press
338;/TASS/Press
339;/TASS/Press
340;/TASS/Press
341;/TASS/Press
342;/TASS/Press
343;/TASS/Press
344;/TASS/Press
345;/TASS/Press
346;/TASS/Press
347;/TASS/Press
348;/TASS/Press
349;/TASS/Press
350;/TASS/Press
351;/TASS/Press
352;/TASS/Press
353;/TASS/Press
354;/TASS/Press
355;/TASS/Press
356;/TASS/Press
357;/TASS/Press
358;/TASS/Press
359;/TASS/Press
360;/TASS/Press
361;/TASS/Press
362;/TASS/Press
363;/TASS/Press
364;/TASS/Press
365;/TASS/Press
366;/TASS/Press
367;/TASS/Press
368;/TASS/Press
369;/TASS/Press
370;/TASS/Press
371;/TASS/Press
372;/TASS/Press
373;/TASS/Press
374;/TASS/Press
375;/TASS/Press
376;/TASS/Press
378;/TASS/Press
379;/TASS/Press
380;/TASS/Press
381;/TASS/Press
382;/TASS/Press
383;/TASS/Press
384;/TASS/Press
385;/TASS/Press
386;/TASS/Press
387;/TASS/Press
388;/TASS/Press
389;/TASS/Press
390;/TASS/Press
391;/TASS/Press
392;/TASS/Press
393;/TASS/Press
394;/TASS/Press
395;/TASS/Press
396;/TASS/Press
397;/TASS/Press
398;/TASS/Press
399;/TASS/Press
400;/TASS/Press
401;/TASS/Press
402;/TASS/Press
403;/TASS/Press
404;/TASS/Press
405;/TASS/Press
406;/TASS/Press
407;/TASS/Press
408;/TASS/Press
409;/TASS/Press
410;/TASS/Press
411;/TASS/Press
412;/TASS/Press
413;/TASS/Press
414;/TASS/Press
415;/TASS/Press
416;/TASS/Press
417;/TASS/Press
418;/TASS/Press
419;/TASS/Press
420;/TASS/Press
421;/TASS/Press
422;/TASS/Press
423;/TASS/Press
424;/TASS/Press
425;/TASS/Press
426;/TASS/Press
427;/TASS/Press
428;/TASS/Press
429;/TASS/Press
430;/TASS/Press
431;/TASS/Press
432;/TASS/Press
433;/TASS/Press
434;/TASS/Press
435;/TASS/Press
436;/TASS/Press
437;/TASS/Press
438;/TASS/Press
439;/TASS/Press
440;/TASS/Press
441;/TASS/Press
442;/TASS/Press
443;/TASS/Press
444;/TASS/Press
445;/TASS/Press
446;/TASS/Press
447;/TASS/Press
448;/TASS/Press
449;/TASS/Press
450;/TASS/Press
451;/TASS/Press
452;/TASS/Press
453;/TASS/Press
454;/TASS/Press
455;/TASS/Press
456;/TASS/Press
457;/TASS/Press
458;/TASS/Press
459;/TASS/Press
460;/TASS/Press
461;/TASS/Press
462;/TASS/Press
463;/TASS/Press
464;/TASS/Press
465;/TASS/Press
467;/TASS/Press
468;/TASS/Press
469;/TASS/Press
470;/TASS/Press
471;/TASS/Press
472;/TASS/Press
473;/TASS/Press
474;/TASS/Press
475;/TASS/Press
476;/TASS/Press
477;/TASS/Press
478;/TASS/Press
479;/TASS/Press
480;/TASS/Press
481;/TASS/Press
482;/TASS/Press
483;/TASS/Press
484;/TASS/Press
485;/TASS/Press
486;/TASS/Press
487;/TASS/Press
488;/TASS/Press
489;/TASS/Press
490;/TASS/Press
491;/TASS/Press
492;/TASS/Press
493;/TASS/Press
494;/TASS/Press
495;/TASS/Press
496;/TASS/Press
497;/TASS/Press
498;/TASS/Press
499;/TASS/Press
500;/TASS/Press
501;/TASS/Press
502;/TASS/Press
503;/TASS/Press
504;/TASS/Press
505;/TASS/Press
506;/TASS/Press
507;/TASS/Press
508;/TASS/Press
509;/TASS/Press
510;/TASS/Press
511;/TASS/Press
512;/TASS/Press
513;/TASS/Press
514;/TASS/Press
515;/TASS/Press
516;/TASS/Press
517;/TASS/Press
518;/TASS/Press
519;/TASS/Press
520;/TASS/Press
521;/TASS/Press
522;/TASS/Press
523;/TASS/Press
524;/TASS/Press
525;/TASS/Press
526;/TASS/Press
527;/TASS/Press
528;/TASS/Press
529;/TASS/Press
530;/TASS/Press
531;/TASS/Press
532;/TASS/Press
533;/TASS/Press
534;/TASS/Press
535;/TASS/Press
536;/TASS/Press
537;/TASS/Press
538;/TASS/Press
539;/TASS/Press
540;/TASS/Press
541;/TASS/Press
542;/TASS/Press
543;/TASS/Press
545;/TASS/Press
546;/TASS/Press
547;/TASS/Press
548;/TASS/Press
549;/TASS/Press
550;/TASS/Press
551;/TASS/Press
552;/TASS/Press
553;/TASS/Press
554;/TASS/Press
555;/TASS/Press
556;/TASS/Press
557;/TASS/Press
558;/TASS/Press
559;/TASS/Press
560;/TASS/Press
561;/TASS/Press
562;/TASS/Press
563;/TASS/Press
564;/TASS/Press
565;/TASS/Press
566;/TASS/Press
567;/TASS/Press
568;/TASS/Press
569;/TASS/Press
570;/TASS/Press
571;/TASS/Press
572;/TASS/Press
573;/TASS/Press
574;/TASS/Press
575;/TASS/Press
576;/TASS/Press
577;/TASS/Press
578;/TASS/Press
579;/TASS/Press
580;/TASS/Press
581;/TASS/Press
582;/TASS/Press
583;/TASS/Press
584;/TASS/Press
585;/TASS/Press
586;/TASS/Press
588;/TASS/Press
589;/TASS/Press
590;/TASS/Press
591;/TASS/Press
592;/TASS/Press
593;/TASS/Press
594;/TASS/Press
595;/TASS/Press
596;/TASS/Press
597;/TASS/Press
598;/TASS/Press
599;/TASS/Press
600;/TASS/Press
601;/TASS/Press
602;/TASS/Press
603;/TASS/Press
604;/TASS/Press
605;/TASS/Press
606;/TASS/Press
607;/TASS/Press
608;/TASS/Press
609;/TASS/Press
610;/TASS/Press
611;/TASS/Press
612;/TASS/Press
613;/TASS/Press
614;/TASS/Press
615;/TASS/Press
616;/TASS/Press
617;/TASS/Press
618;/TASS/Press
619;/TASS/Press
620;/TASS/Press
621;/TASS/Press
622;/TASS/Press
623;/TASS/Press
624;/TASS/Press
634;/TASS/Press
635;/TASS/Press
636;/TASS/Press
638;/TASS/Press
639;/TASS/Press
640;/TASS/Press
641;/TASS/Press
642;/TASS/Press
645;/TASS/Press
646;/TASS/Press
648;/TASS/Press
653;/TASS/Press
654;/TASS/Press
655;/TASS/Press
656;/TASS/Press
657;/TASS/Press
658;/TASS/Press
664;/TASS/Press
665;/TASS/Press
666;/TASS/Press
667;/TASS/Press
669;/TASS/Press
670;/TASS/Press
671;/TASS/Press
672;/TASS/Press
673;/TASS/Press
674;/TASS/Press
675;/TASS/Press
676;/TASS/Press
677;/TASS/Press
678;/TASS/Press
679;/TASS/Press
680;/TASS/Press
681;/TASS/Press
684;/TASS/Press
685;/TASS/Press
686;/TASS/Press
687;/TASS/Press
688;/TASS/Press
689;/TASS/Press
690;/TASS/Press
691;/TASS/Press
692;/TASS/Press
693;/TASS/Press
694;/TASS/Press
695;/TASS/Press
696;/TASS/Press
697;/TASS/Press
700;/TASS/Press
701;/TASS/Press
702;/TASS/Press
703;/TASS/Press
704;/TASS/Press
705;/TASS/Press
706;/TASS/Press
707;/TASS/Press
708;/TASS/Press
709;/TASS/Press
710;/TASS/Press
711;/TASS/Press
712;/TASS/Press
713;/TASS/Press
714;/TASS/Press
715;/TASS/Press
716;/TASS/Press
717;/TASS/Press
718;/TASS/Press
719;/TASS/Press
720;/TASS/Press
721;/TASS/Press
723;/TASS/Press
724;/TASS/Press
726;/TASS/Press
727;/TASS/Press
728;/TASS/Press
729;/TASS/Press
730;/TASS/Press
731;/TASS/Press
732;/TASS/Press
733;/TASS/Press
734;/TASS/Press
735;/TASS/Press
737;/TASS/Press
738;/TASS/Press
739;/TASS/Press
740;/TASS/Press
742;/TASS/Press
744;/TASS/Press
745;/TASS/Press
746;/TASS/Press
747;/TASS/Press
748;/TASS/Press
749;/TASS/Press
750;/TASS/Press
751;/TASS/Press
752;/TASS/Press
753;/TASS/Press
755;/TASS/Press
756;/TASS/Press
757;/TASS/Press
758;/TASS/Press
759;/TASS/Press
760;/TASS/Press
761;/TASS/Press
762;/TASS/Press
763;/TASS/Press
764;/TASS/Press
765;/TASS/Press
766;/TASS/Press
767;/TASS/Press
768;/TASS/Press
769;/TASS/Press
770;/TASS/Press
771;/TASS/Press
772;/TASS/Press
773;/TASS/Press
774;/TASS/Press
775;/TASS/Press
776;/TASS/Press
779;/TASS/Press
781;/TASS/Press
782;/TASS/Press
784;/TASS/Press
785;/TASS/Press
786;/TASS/Press
787;/TASS/Press
788;/TASS/Press
789;/TASS/Press
790;/TASS/Press
791;/TASS/Press
793;/TASS/Press
794;/TASS/Press
795;/TASS/Press
796;/TASS/Press
797;/TASS/Press
798;/TASS/Press
799;/TASS/Press
800;/TASS/Press
801;/TASS/Press
802;/TASS/Press
803;/TASS/Press
805;/TASS/Press
806;/TASS/Press
807;/TASS/Press
808;/TASS/Press
809;/TASS/Press
810;/TASS/Press
811;/TASS/Press
812;/TASS/Press
813;/TASS/Press
814;/TASS/Press
815;/TASS/Press
816;/TASS/Press
817;/TASS/Press
818;/TASS/Press
819;/TASS/Press
820;/TASS/Press
822;/TASS/Press
823;/TASS/Press
824;/TASS/Press
825;/TASS/Press
826;/TASS/Press
827;/TASS/Press
828;/TASS/Press
829;/TASS/Press
830;/TASS/Press
831;/TASS/Press
832;/TASS/Press
833;/TASS/Press
834;/TASS/Press
835;/TASS/Press
836;/TASS/Press
838;/TASS/Press
839;/TASS/Press
840;/TASS/Press
841;/TASS/Press
842;/TASS/Press
923;/TASS/Contracts
933;/TASS/Archive
934;/TASS/Archive
940;/Hidden
1019;/Partners/PrimaMedia
1020;/TASS/Archive
843;/TASS/Press
844;/TASS/Press
845;/TASS/Press
846;/TASS/Press
847;/TASS/Press
848;/TASS/Press
849;/TASS/Press
850;/TASS/Press
851;/TASS/Press
852;/TASS/Press
853;/TASS/Press
854;/TASS/Press
855;/TASS/Press
856;/TASS/Press
857;/TASS/Press
858;/TASS/Press
859;/TASS/Press
860;/TASS/Press
861;/TASS/Press
862;/TASS/Press
863;/TASS/Press
864;/TASS/Press
865;/TASS/Press
866;/TASS/Press
867;/TASS/Press
868;/TASS/Press
869;/TASS/Press
870;/TASS/Press
871;/TASS/Press
872;/TASS/Press
873;/TASS/Press
874;/TASS/Press
875;/TASS/Press
876;/TASS/Press
877;/TASS/Press
878;/TASS/Press
879;/TASS/Press
881;/TASS/Press
882;/TASS/Press
883;/TASS/Press
884;/TASS/Press
885;/TASS/Press
886;/TASS/Press
887;/TASS/Press
888;/TASS/Press
889;/TASS/Press
890;/TASS/Press
891;/TASS/Press
892;/TASS/Press
893;/TASS/Press
894;/TASS/Press
895;/TASS/Press
896;/TASS/Press
897;/TASS/Press
898;/TASS/Press
899;/TASS/Press
900;/TASS/Press
901;/TASS/Press
902;/TASS/Press
903;/TASS/Press
904;/TASS/Press
905;/TASS/Press
906;/TASS/Press
907;/TASS/Press
908;/TASS/Press
909;/TASS/Press
910;/TASS/Press
911;/TASS/Press
912;/TASS/Press
913;/TASS/Press
914;/TASS/Press
915;/TASS/Press
917;/TASS/Press
918;/TASS/Press
919;/TASS/Press
920;/TASS/Press
921;/TASS/Press
922;/TASS/Press
924;/TASS/Press
925;/TASS/Press
926;/TASS/Press
927;/TASS/Press
928;/TASS/Press
929;/TASS/Press
930;/TASS/Press
931;/TASS/Press
932;/TASS/Press
935;/TASS/Press
936;/TASS/Press
937;/TASS/Press
938;/TASS/Press
939;/TASS/Press
941;/TASS/Press
942;/TASS/Press
943;/TASS/Press
944;/TASS/Press
945;/TASS/Press
946;/TASS/Press
947;/TASS/Press
948;/TASS/Press
949;/TASS/Press
950;/TASS/Press
951;/TASS/Press
952;/TASS/Press
953;/TASS/Press
954;/TASS/Press
955;/TASS/Press
956;/TASS/Press
957;/TASS/Press
958;/TASS/Press
959;/TASS/Press
960;/TASS/Press
961;/TASS/Press
962;/TASS/Press
963;/TASS/Press
964;/TASS/Press
965;/TASS/Press
966;/TASS/Press
967;/TASS/Press
968;/TASS/Press
969;/TASS/Press
970;/TASS/Press
971;/TASS/Press
972;/TASS/Press
973;/TASS/Press
974;/TASS/Press
975;/TASS/Press
976;/TASS/Press
977;/TASS/Press
978;/TASS/Press
979;/TASS/Press
980;/TASS/Press
981;/TASS/Press
982;/TASS/Press
983;/TASS/Press
984;/TASS/Press
985;/TASS/Press
986;/TASS/Press
987;/TASS/Press
988;/TASS/Press
989;/TASS/Press
990;/TASS/Press
991;/TASS/Press
992;/TASS/Press
993;/TASS/Press
994;/TASS/Press
995;/TASS/Press
996;/TASS/Press
997;/TASS/Press
998;/TASS/Press
999;/TASS/Press
1000;/TASS/Press
1001;/TASS/Press
1002;/TASS/Press
1003;/TASS/Press
1004;/TASS/Press
1005;/TASS/Press
1006;/TASS/Press
1007;/TASS/Press
1008;/TASS/Press
1009;/TASS/Press
1010;/TASS/Press
1011;/TASS/Press
1012;/TASS/Press
1013;/TASS/Press
1014;/TASS/Press
1015;/TASS/Press
1016;/TASS/Press
1017;/TASS/Press
1018;/TASS/Press
1021;/TASS/Press
1022;/TASS/Press
1023;/TASS/Press
1024;/TASS/Press
1025;/TASS/Press
1026;/TASS/Press
1027;/TASS/Press
1028;/TASS/Press
1029;/TASS/Press
1030;/TASS/Press
1031;/TASS/Press
1032;/TASS/Press
1033;/TASS/Press
1034;/TASS/Press
1035;/TASS/Press
1036;/TASS/Press
1037;/TASS/Press
1038;/TASS/Press