﻿2020-02-07 10:41:59.928 
2020-02-07 10:41:59.940 chutier_podborka starting...
2020-02-07 10:41:59.952 Getting Connection to dmz-db05-n02.dmz.tass.ru ...
2020-02-07 10:42:00.882 34951 rows selected.
2020-02-07 10:42:00.892 0 objects has imported.
2020-02-07 10:42:00.902 34951 objects are intended for import.
2020-02-07 10:42:01.092 Elvis login success, url=http://10.11.16.13:8080/, user=api
2020-02-07 10:42:05.709 Starting RevisionLog()
2020-02-07 10:42:05.722 Time out between pack = 0 sec.; pack size = 100; packIX = 1 of 1000000; total item processed = 100 of 34951; ID_OBJET from 21 to 286
2020-02-07 10:42:09.627 Starting RevisionLog()
2020-02-07 10:42:09.640 Time out between pack = 0 sec.; pack size = 100; packIX = 2 of 1000000; total item processed = 200 of 34951; ID_OBJET from 288 to 471
2020-02-07 10:42:13.988 Starting RevisionLog()
2020-02-07 10:42:13.998 Time out between pack = 0 sec.; pack size = 100; packIX = 3 of 1000000; total item processed = 300 of 34951; ID_OBJET from 472 to 696
2020-02-07 10:42:18.812 Starting RevisionLog()
2020-02-07 10:42:18.821 Time out between pack = 0 sec.; pack size = 100; packIX = 4 of 1000000; total item processed = 400 of 34951; ID_OBJET from 697 to 987
2020-02-07 10:42:23.611 Starting RevisionLog()
2020-02-07 10:42:23.621 Time out between pack = 0 sec.; pack size = 100; packIX = 5 of 1000000; total item processed = 500 of 34951; ID_OBJET from 988 to 1295
2020-02-07 10:42:28.090 Starting RevisionLog()
2020-02-07 10:42:28.102 Time out between pack = 0 sec.; pack size = 100; packIX = 6 of 1000000; total item processed = 600 of 34951; ID_OBJET from 1298 to 1673
2020-02-07 10:42:32.994 Starting RevisionLog()
2020-02-07 10:42:33.008 Time out between pack = 0 sec.; pack size = 100; packIX = 7 of 1000000; total item processed = 700 of 34951; ID_OBJET from 1674 to 2061
2020-02-07 10:42:37.881 Starting RevisionLog()
2020-02-07 10:42:37.892 Time out between pack = 0 sec.; pack size = 100; packIX = 8 of 1000000; total item processed = 800 of 34951; ID_OBJET from 2063 to 2463
2020-02-07 10:42:42.396 Starting RevisionLog()
2020-02-07 10:42:42.407 Time out between pack = 0 sec.; pack size = 100; packIX = 9 of 1000000; total item processed = 900 of 34951; ID_OBJET from 2464 to 2818
2020-02-07 10:42:46.995 Starting RevisionLog()
2020-02-07 10:42:47.006 Time out between pack = 0 sec.; pack size = 100; packIX = 10 of 1000000; total item processed = 1000 of 34951; ID_OBJET from 2819 to 3158
2020-02-07 10:42:52.003 Starting RevisionLog()
2020-02-07 10:42:52.015 Time out between pack = 0 sec.; pack size = 100; packIX = 11 of 1000000; total item processed = 1100 of 34951; ID_OBJET from 3159 to 3390
2020-02-07 10:42:57.096 Starting RevisionLog()
2020-02-07 10:42:57.111 Time out between pack = 0 sec.; pack size = 100; packIX = 12 of 1000000; total item processed = 1200 of 34951; ID_OBJET from 3394 to 3701
2020-02-07 10:43:01.988 Starting RevisionLog()
2020-02-07 10:43:02.001 Time out between pack = 0 sec.; pack size = 100; packIX = 13 of 1000000; total item processed = 1300 of 34951; ID_OBJET from 3703 to 3996
2020-02-07 10:43:06.938 Starting RevisionLog()
2020-02-07 10:43:06.950 Time out between pack = 0 sec.; pack size = 100; packIX = 14 of 1000000; total item processed = 1400 of 34951; ID_OBJET from 4000 to 4285
2020-02-07 10:43:11.265 Starting RevisionLog()
2020-02-07 10:43:11.277 Time out between pack = 0 sec.; pack size = 100; packIX = 15 of 1000000; total item processed = 1500 of 34951; ID_OBJET from 4286 to 4484
2020-02-07 10:43:15.068 Starting RevisionLog()
2020-02-07 10:43:15.081 Time out between pack = 0 sec.; pack size = 100; packIX = 16 of 1000000; total item processed = 1600 of 34951; ID_OBJET from 4487 to 4756
2020-02-07 10:43:19.100 Starting RevisionLog()
2020-02-07 10:43:19.114 Time out between pack = 0 sec.; pack size = 100; packIX = 17 of 1000000; total item processed = 1700 of 34951; ID_OBJET from 4759 to 5001
2020-02-07 10:43:22.824 Starting RevisionLog()
2020-02-07 10:43:22.835 Time out between pack = 0 sec.; pack size = 100; packIX = 18 of 1000000; total item processed = 1800 of 34951; ID_OBJET from 5003 to 5284
2020-02-07 10:43:26.575 Starting RevisionLog()
2020-02-07 10:43:26.588 Time out between pack = 0 sec.; pack size = 100; packIX = 19 of 1000000; total item processed = 1900 of 34951; ID_OBJET from 5288 to 5553
2020-02-07 10:43:30.513 Starting RevisionLog()
2020-02-07 10:43:30.524 Time out between pack = 0 sec.; pack size = 100; packIX = 20 of 1000000; total item processed = 2000 of 34951; ID_OBJET from 5562 to 5823
2020-02-07 10:43:34.284 Starting RevisionLog()
2020-02-07 10:43:34.297 Time out between pack = 0 sec.; pack size = 100; packIX = 21 of 1000000; total item processed = 2100 of 34951; ID_OBJET from 5824 to 6085
2020-02-07 10:43:38.152 Starting RevisionLog()
2020-02-07 10:43:38.167 Time out between pack = 0 sec.; pack size = 100; packIX = 22 of 1000000; total item processed = 2200 of 34951; ID_OBJET from 6088 to 6348
2020-02-07 10:43:42.023 Starting RevisionLog()
2020-02-07 10:43:42.039 Time out between pack = 0 sec.; pack size = 100; packIX = 23 of 1000000; total item processed = 2300 of 34951; ID_OBJET from 6349 to 6595
2020-02-07 10:43:45.855 Starting RevisionLog()
2020-02-07 10:43:45.882 Time out between pack = 0 sec.; pack size = 100; packIX = 24 of 1000000; total item processed = 2400 of 34951; ID_OBJET from 6596 to 6824
2020-02-07 10:43:50.022 Starting RevisionLog()
2020-02-07 10:43:50.041 Time out between pack = 0 sec.; pack size = 100; packIX = 25 of 1000000; total item processed = 2500 of 34951; ID_OBJET from 6827 to 7084
2020-02-07 10:43:54.526 Starting RevisionLog()
2020-02-07 10:43:54.542 Time out between pack = 0 sec.; pack size = 100; packIX = 26 of 1000000; total item processed = 2600 of 34951; ID_OBJET from 7085 to 7325
2020-02-07 10:43:58.415 Starting RevisionLog()
2020-02-07 10:43:58.429 Time out between pack = 0 sec.; pack size = 100; packIX = 27 of 1000000; total item processed = 2700 of 34951; ID_OBJET from 7331 to 7551
2020-02-07 10:44:02.687 Starting RevisionLog()
2020-02-07 10:44:02.710 Time out between pack = 0 sec.; pack size = 100; packIX = 28 of 1000000; total item processed = 2800 of 34951; ID_OBJET from 7558 to 7809
2020-02-07 10:44:06.546 Starting RevisionLog()
2020-02-07 10:44:06.563 Time out between pack = 0 sec.; pack size = 100; packIX = 29 of 1000000; total item processed = 2900 of 34951; ID_OBJET from 7810 to 8095
2020-02-07 10:44:10.426 Starting RevisionLog()
2020-02-07 10:44:10.440 Time out between pack = 0 sec.; pack size = 100; packIX = 30 of 1000000; total item processed = 3000 of 34951; ID_OBJET from 8097 to 8346
2020-02-07 10:44:14.412 Starting RevisionLog()
2020-02-07 10:44:14.424 Time out between pack = 0 sec.; pack size = 100; packIX = 31 of 1000000; total item processed = 3100 of 34951; ID_OBJET from 8347 to 8553
2020-02-07 10:44:18.134 Starting RevisionLog()
2020-02-07 10:44:18.147 Time out between pack = 0 sec.; pack size = 100; packIX = 32 of 1000000; total item processed = 3200 of 34951; ID_OBJET from 8554 to 8754
2020-02-07 10:44:22.056 Starting RevisionLog()
2020-02-07 10:44:22.069 Time out between pack = 0 sec.; pack size = 100; packIX = 33 of 1000000; total item processed = 3300 of 34951; ID_OBJET from 8756 to 9005
2020-02-07 10:44:25.984 Starting RevisionLog()
2020-02-07 10:44:25.996 Time out between pack = 0 sec.; pack size = 100; packIX = 34 of 1000000; total item processed = 3400 of 34951; ID_OBJET from 9006 to 9231
2020-02-07 10:44:29.674 Starting RevisionLog()
2020-02-07 10:44:29.687 Time out between pack = 0 sec.; pack size = 100; packIX = 35 of 1000000; total item processed = 3500 of 34951; ID_OBJET from 9232 to 9485
2020-02-07 10:44:33.217 Starting RevisionLog()
2020-02-07 10:44:33.231 Time out between pack = 0 sec.; pack size = 100; packIX = 36 of 1000000; total item processed = 3600 of 34951; ID_OBJET from 9495 to 9752
2020-02-07 10:44:37.181 Starting RevisionLog()
2020-02-07 10:44:37.192 Time out between pack = 0 sec.; pack size = 100; packIX = 37 of 1000000; total item processed = 3700 of 34951; ID_OBJET from 9754 to 10040
2020-02-07 10:44:40.957 Starting RevisionLog()
2020-02-07 10:44:40.968 Time out between pack = 0 sec.; pack size = 100; packIX = 38 of 1000000; total item processed = 3800 of 34951; ID_OBJET from 10041 to 10296
2020-02-07 10:44:44.674 Starting RevisionLog()
2020-02-07 10:44:44.687 Time out between pack = 0 sec.; pack size = 100; packIX = 39 of 1000000; total item processed = 3900 of 34951; ID_OBJET from 10297 to 10543
2020-02-07 10:44:48.608 Starting RevisionLog()
2020-02-07 10:44:48.621 Time out between pack = 0 sec.; pack size = 100; packIX = 40 of 1000000; total item processed = 4000 of 34951; ID_OBJET from 10545 to 10771
2020-02-07 10:44:53.000 Starting RevisionLog()
2020-02-07 10:44:53.012 Time out between pack = 0 sec.; pack size = 100; packIX = 41 of 1000000; total item processed = 4100 of 34951; ID_OBJET from 10774 to 11016
2020-02-07 10:44:56.841 Starting RevisionLog()
2020-02-07 10:44:56.855 Time out between pack = 0 sec.; pack size = 100; packIX = 42 of 1000000; total item processed = 4200 of 34951; ID_OBJET from 11017 to 11237
2020-02-07 10:45:00.879 Starting RevisionLog()
2020-02-07 10:45:00.894 Time out between pack = 0 sec.; pack size = 100; packIX = 43 of 1000000; total item processed = 4300 of 34951; ID_OBJET from 11238 to 11440
2020-02-07 10:45:05.008 Starting RevisionLog()
2020-02-07 10:45:05.019 Time out between pack = 0 sec.; pack size = 100; packIX = 44 of 1000000; total item processed = 4400 of 34951; ID_OBJET from 11444 to 11588
2020-02-07 10:45:09.245 Starting RevisionLog()
2020-02-07 10:45:09.260 Time out between pack = 0 sec.; pack size = 100; packIX = 45 of 1000000; total item processed = 4500 of 34951; ID_OBJET from 11589 to 11751
2020-02-07 10:45:13.164 Starting RevisionLog()
2020-02-07 10:45:13.176 Time out between pack = 0 sec.; pack size = 100; packIX = 46 of 1000000; total item processed = 4600 of 34951; ID_OBJET from 11752 to 11897
2020-02-07 10:45:16.810 Starting RevisionLog()
2020-02-07 10:45:16.822 Time out between pack = 0 sec.; pack size = 100; packIX = 47 of 1000000; total item processed = 4700 of 34951; ID_OBJET from 11902 to 12067
2020-02-07 10:45:20.759 Starting RevisionLog()
2020-02-07 10:45:20.776 Time out between pack = 0 sec.; pack size = 100; packIX = 48 of 1000000; total item processed = 4800 of 34951; ID_OBJET from 12068 to 12229
2020-02-07 10:45:24.867 Starting RevisionLog()
2020-02-07 10:45:24.881 Time out between pack = 0 sec.; pack size = 100; packIX = 49 of 1000000; total item processed = 4900 of 34951; ID_OBJET from 12230 to 12428
2020-02-07 10:45:28.450 Starting RevisionLog()
2020-02-07 10:45:28.462 Time out between pack = 0 sec.; pack size = 100; packIX = 50 of 1000000; total item processed = 5000 of 34951; ID_OBJET from 12429 to 12593
2020-02-07 10:45:32.007 Starting RevisionLog()
2020-02-07 10:45:32.022 Time out between pack = 0 sec.; pack size = 100; packIX = 51 of 1000000; total item processed = 5100 of 34951; ID_OBJET from 12594 to 12737
2020-02-07 10:45:35.911 Starting RevisionLog()
2020-02-07 10:45:35.926 Time out between pack = 0 sec.; pack size = 100; packIX = 52 of 1000000; total item processed = 5200 of 34951; ID_OBJET from 12738 to 12891
2020-02-07 10:45:39.644 Starting RevisionLog()
2020-02-07 10:45:39.663 Time out between pack = 0 sec.; pack size = 100; packIX = 53 of 1000000; total item processed = 5300 of 34951; ID_OBJET from 12893 to 13043
2020-02-07 10:45:43.296 Starting RevisionLog()
2020-02-07 10:45:43.310 Time out between pack = 0 sec.; pack size = 100; packIX = 54 of 1000000; total item processed = 5400 of 34951; ID_OBJET from 13044 to 13188
2020-02-07 10:45:47.118 Starting RevisionLog()
2020-02-07 10:45:47.129 Time out between pack = 0 sec.; pack size = 100; packIX = 55 of 1000000; total item processed = 5500 of 34951; ID_OBJET from 13189 to 13331
2020-02-07 10:45:51.169 Starting RevisionLog()
2020-02-07 10:45:51.183 Time out between pack = 0 sec.; pack size = 100; packIX = 56 of 1000000; total item processed = 5600 of 34951; ID_OBJET from 13332 to 13500
2020-02-07 10:45:55.071 Starting RevisionLog()
2020-02-07 10:45:55.083 Time out between pack = 0 sec.; pack size = 100; packIX = 57 of 1000000; total item processed = 5700 of 34951; ID_OBJET from 13504 to 13645
2020-02-07 10:45:58.922 Starting RevisionLog()
2020-02-07 10:45:58.937 Time out between pack = 0 sec.; pack size = 100; packIX = 58 of 1000000; total item processed = 5800 of 34951; ID_OBJET from 13646 to 13841
2020-02-07 10:46:02.571 Starting RevisionLog()
2020-02-07 10:46:02.585 Time out between pack = 0 sec.; pack size = 100; packIX = 59 of 1000000; total item processed = 5900 of 34951; ID_OBJET from 13842 to 14013
2020-02-07 10:46:06.543 Starting RevisionLog()
2020-02-07 10:46:06.556 Time out between pack = 0 sec.; pack size = 100; packIX = 60 of 1000000; total item processed = 6000 of 34951; ID_OBJET from 14014 to 14198
2020-02-07 10:46:10.718 Starting RevisionLog()
2020-02-07 10:46:10.734 Time out between pack = 0 sec.; pack size = 100; packIX = 61 of 1000000; total item processed = 6100 of 34951; ID_OBJET from 14199 to 14418
2020-02-07 10:46:14.329 Starting RevisionLog()
2020-02-07 10:46:14.341 Time out between pack = 0 sec.; pack size = 100; packIX = 62 of 1000000; total item processed = 6200 of 34951; ID_OBJET from 14420 to 14573
2020-02-07 10:46:18.895 Starting RevisionLog()
2020-02-07 10:46:18.911 Time out between pack = 0 sec.; pack size = 100; packIX = 63 of 1000000; total item processed = 6300 of 34951; ID_OBJET from 14574 to 14701
2020-02-07 10:46:23.094 Starting RevisionLog()
2020-02-07 10:46:23.106 Time out between pack = 0 sec.; pack size = 100; packIX = 64 of 1000000; total item processed = 6400 of 34951; ID_OBJET from 14702 to 14855
2020-02-07 10:46:26.906 Starting RevisionLog()
2020-02-07 10:46:26.918 Time out between pack = 0 sec.; pack size = 100; packIX = 65 of 1000000; total item processed = 6500 of 34951; ID_OBJET from 14856 to 15052
2020-02-07 10:46:31.041 Starting RevisionLog()
2020-02-07 10:46:31.054 Time out between pack = 0 sec.; pack size = 100; packIX = 66 of 1000000; total item processed = 6600 of 34951; ID_OBJET from 15053 to 15185
2020-02-07 10:46:34.945 Starting RevisionLog()
2020-02-07 10:46:34.959 Time out between pack = 0 sec.; pack size = 100; packIX = 67 of 1000000; total item processed = 6700 of 34951; ID_OBJET from 15186 to 15324
2020-02-07 10:46:38.697 Starting RevisionLog()
2020-02-07 10:46:38.709 Time out between pack = 0 sec.; pack size = 100; packIX = 68 of 1000000; total item processed = 6800 of 34951; ID_OBJET from 15327 to 15474
2020-02-07 10:46:42.787 Starting RevisionLog()
2020-02-07 10:46:42.799 Time out between pack = 0 sec.; pack size = 100; packIX = 69 of 1000000; total item processed = 6900 of 34951; ID_OBJET from 15475 to 15689
2020-02-07 10:46:46.534 Starting RevisionLog()
2020-02-07 10:46:46.547 Time out between pack = 0 sec.; pack size = 100; packIX = 70 of 1000000; total item processed = 7000 of 34951; ID_OBJET from 15690 to 15899
2020-02-07 10:46:50.983 Starting RevisionLog()
2020-02-07 10:46:50.995 Time out between pack = 0 sec.; pack size = 100; packIX = 71 of 1000000; total item processed = 7100 of 34951; ID_OBJET from 15902 to 16060
2020-02-07 10:46:55.387 Starting RevisionLog()
2020-02-07 10:46:55.401 Time out between pack = 0 sec.; pack size = 100; packIX = 72 of 1000000; total item processed = 7200 of 34951; ID_OBJET from 16061 to 16207
2020-02-07 10:46:59.266 Starting RevisionLog()
2020-02-07 10:46:59.279 Time out between pack = 0 sec.; pack size = 100; packIX = 73 of 1000000; total item processed = 7300 of 34951; ID_OBJET from 16215 to 16400
2020-02-07 10:47:03.854 Starting RevisionLog()
2020-02-07 10:47:03.867 Time out between pack = 0 sec.; pack size = 100; packIX = 74 of 1000000; total item processed = 7400 of 34951; ID_OBJET from 16401 to 16566
2020-02-07 10:47:07.924 Starting RevisionLog()
2020-02-07 10:47:07.939 Time out between pack = 0 sec.; pack size = 100; packIX = 75 of 1000000; total item processed = 7500 of 34951; ID_OBJET from 16567 to 16725
2020-02-07 10:47:11.966 Starting RevisionLog()
2020-02-07 10:47:11.977 Time out between pack = 0 sec.; pack size = 100; packIX = 76 of 1000000; total item processed = 7600 of 34951; ID_OBJET from 16726 to 16900
2020-02-07 10:47:16.288 Starting RevisionLog()
2020-02-07 10:47:16.299 Time out between pack = 0 sec.; pack size = 100; packIX = 77 of 1000000; total item processed = 7700 of 34951; ID_OBJET from 16902 to 17078
2020-02-07 10:47:20.223 Starting RevisionLog()
2020-02-07 10:47:20.236 Time out between pack = 0 sec.; pack size = 100; packIX = 78 of 1000000; total item processed = 7800 of 34951; ID_OBJET from 17079 to 17256
2020-02-07 10:47:24.125 Starting RevisionLog()
2020-02-07 10:47:24.137 Time out between pack = 0 sec.; pack size = 100; packIX = 79 of 1000000; total item processed = 7900 of 34951; ID_OBJET from 17263 to 17422
2020-02-07 10:47:28.201 Starting RevisionLog()
2020-02-07 10:47:28.216 Time out between pack = 0 sec.; pack size = 100; packIX = 80 of 1000000; total item processed = 8000 of 34951; ID_OBJET from 17425 to 17603
2020-02-07 10:47:32.037 Starting RevisionLog()
2020-02-07 10:47:32.050 Time out between pack = 0 sec.; pack size = 100; packIX = 81 of 1000000; total item processed = 8100 of 34951; ID_OBJET from 17604 to 17771
2020-02-07 10:47:35.879 Starting RevisionLog()
2020-02-07 10:47:35.894 Time out between pack = 0 sec.; pack size = 100; packIX = 82 of 1000000; total item processed = 8200 of 34951; ID_OBJET from 17772 to 17889
2020-02-07 10:47:40.018 Starting RevisionLog()
2020-02-07 10:47:40.031 Time out between pack = 0 sec.; pack size = 100; packIX = 83 of 1000000; total item processed = 8300 of 34951; ID_OBJET from 17890 to 18021
2020-02-07 10:47:44.081 Starting RevisionLog()
2020-02-07 10:47:44.092 Time out between pack = 0 sec.; pack size = 100; packIX = 84 of 1000000; total item processed = 8400 of 34951; ID_OBJET from 18023 to 18170
2020-02-07 10:47:48.264 Starting RevisionLog()
2020-02-07 10:47:48.276 Time out between pack = 0 sec.; pack size = 100; packIX = 85 of 1000000; total item processed = 8500 of 34951; ID_OBJET from 18171 to 18287
2020-02-07 10:47:52.718 Starting RevisionLog()
2020-02-07 10:47:52.732 Time out between pack = 0 sec.; pack size = 100; packIX = 86 of 1000000; total item processed = 8600 of 34951; ID_OBJET from 18288 to 18424
2020-02-07 10:47:56.830 Starting RevisionLog()
2020-02-07 10:47:56.843 Time out between pack = 0 sec.; pack size = 100; packIX = 87 of 1000000; total item processed = 8700 of 34951; ID_OBJET from 18425 to 18578
2020-02-07 10:48:01.220 Starting RevisionLog()
2020-02-07 10:48:01.232 Time out between pack = 0 sec.; pack size = 100; packIX = 88 of 1000000; total item processed = 8800 of 34951; ID_OBJET from 18579 to 18703
2020-02-07 10:48:05.312 Starting RevisionLog()
2020-02-07 10:48:05.325 Time out between pack = 0 sec.; pack size = 100; packIX = 89 of 1000000; total item processed = 8900 of 34951; ID_OBJET from 18704 to 18865
2020-02-07 10:48:09.733 Starting RevisionLog()
2020-02-07 10:48:09.746 Time out between pack = 0 sec.; pack size = 100; packIX = 90 of 1000000; total item processed = 9000 of 34951; ID_OBJET from 18866 to 19008
2020-02-07 10:48:13.709 Starting RevisionLog()
2020-02-07 10:48:13.723 Time out between pack = 0 sec.; pack size = 100; packIX = 91 of 1000000; total item processed = 9100 of 34951; ID_OBJET from 19009 to 19149
2020-02-07 10:48:17.631 Starting RevisionLog()
2020-02-07 10:48:17.642 Time out between pack = 0 sec.; pack size = 100; packIX = 92 of 1000000; total item processed = 9200 of 34951; ID_OBJET from 19152 to 19308
2020-02-07 10:48:21.766 Starting RevisionLog()
2020-02-07 10:48:21.779 Time out between pack = 0 sec.; pack size = 100; packIX = 93 of 1000000; total item processed = 9300 of 34951; ID_OBJET from 19309 to 19468
2020-02-07 10:48:25.548 Starting RevisionLog()
2020-02-07 10:48:25.559 Time out between pack = 0 sec.; pack size = 100; packIX = 94 of 1000000; total item processed = 9400 of 34951; ID_OBJET from 19469 to 19599
2020-02-07 10:48:29.246 Starting RevisionLog()
2020-02-07 10:48:29.258 Time out between pack = 0 sec.; pack size = 100; packIX = 95 of 1000000; total item processed = 9500 of 34951; ID_OBJET from 19600 to 19730
2020-02-07 10:48:33.310 Starting RevisionLog()
2020-02-07 10:48:33.327 Time out between pack = 0 sec.; pack size = 100; packIX = 96 of 1000000; total item processed = 9600 of 34951; ID_OBJET from 19731 to 19879
2020-02-07 10:48:37.214 Starting RevisionLog()
2020-02-07 10:48:37.228 Time out between pack = 0 sec.; pack size = 100; packIX = 97 of 1000000; total item processed = 9700 of 34951; ID_OBJET from 19880 to 20020
2020-02-07 10:48:41.165 Starting RevisionLog()
2020-02-07 10:48:41.178 Time out between pack = 0 sec.; pack size = 100; packIX = 98 of 1000000; total item processed = 9800 of 34951; ID_OBJET from 20021 to 20161
2020-02-07 10:48:45.331 Starting RevisionLog()
2020-02-07 10:48:45.343 Time out between pack = 0 sec.; pack size = 100; packIX = 99 of 1000000; total item processed = 9900 of 34951; ID_OBJET from 20162 to 20312
2020-02-07 10:48:49.524 Starting RevisionLog()
2020-02-07 10:48:49.537 Time out between pack = 0 sec.; pack size = 100; packIX = 100 of 1000000; total item processed = 10000 of 34951; ID_OBJET from 20313 to 20450
2020-02-07 10:48:53.846 Starting RevisionLog()
2020-02-07 10:48:53.859 Time out between pack = 0 sec.; pack size = 100; packIX = 101 of 1000000; total item processed = 10100 of 34951; ID_OBJET from 20452 to 20588
2020-02-07 10:48:58.002 Starting RevisionLog()
2020-02-07 10:48:58.013 Time out between pack = 0 sec.; pack size = 100; packIX = 102 of 1000000; total item processed = 10200 of 34951; ID_OBJET from 20590 to 20722
2020-02-07 10:49:02.378 Starting RevisionLog()
2020-02-07 10:49:02.389 Time out between pack = 0 sec.; pack size = 100; packIX = 103 of 1000000; total item processed = 10300 of 34951; ID_OBJET from 20723 to 20860
2020-02-07 10:49:06.699 Starting RevisionLog()
2020-02-07 10:49:06.711 Time out between pack = 0 sec.; pack size = 100; packIX = 104 of 1000000; total item processed = 10400 of 34951; ID_OBJET from 20861 to 20990
2020-02-07 10:49:10.518 Starting RevisionLog()
2020-02-07 10:49:10.530 Time out between pack = 0 sec.; pack size = 100; packIX = 105 of 1000000; total item processed = 10500 of 34951; ID_OBJET from 20991 to 21125
2020-02-07 10:49:14.531 Starting RevisionLog()
2020-02-07 10:49:14.543 Time out between pack = 0 sec.; pack size = 100; packIX = 106 of 1000000; total item processed = 10600 of 34951; ID_OBJET from 21126 to 21234
2020-02-07 10:49:18.857 Starting RevisionLog()
2020-02-07 10:49:18.882 Time out between pack = 0 sec.; pack size = 100; packIX = 107 of 1000000; total item processed = 10700 of 34951; ID_OBJET from 21235 to 21362
2020-02-07 10:49:22.761 Starting RevisionLog()
2020-02-07 10:49:22.773 Time out between pack = 0 sec.; pack size = 100; packIX = 108 of 1000000; total item processed = 10800 of 34951; ID_OBJET from 21363 to 21477
2020-02-07 10:49:26.805 Starting RevisionLog()
2020-02-07 10:49:26.817 Time out between pack = 0 sec.; pack size = 100; packIX = 109 of 1000000; total item processed = 10900 of 34951; ID_OBJET from 21478 to 21605
2020-02-07 10:49:30.748 Starting RevisionLog()
2020-02-07 10:49:30.763 Time out between pack = 0 sec.; pack size = 100; packIX = 110 of 1000000; total item processed = 11000 of 34951; ID_OBJET from 21606 to 21735
2020-02-07 10:49:34.899 Starting RevisionLog()
2020-02-07 10:49:34.912 Time out between pack = 0 sec.; pack size = 100; packIX = 111 of 1000000; total item processed = 11100 of 34951; ID_OBJET from 21736 to 21874
2020-02-07 10:49:38.955 Starting RevisionLog()
2020-02-07 10:49:38.967 Time out between pack = 0 sec.; pack size = 100; packIX = 112 of 1000000; total item processed = 11200 of 34951; ID_OBJET from 21875 to 22010
2020-02-07 10:49:42.941 Starting RevisionLog()
2020-02-07 10:49:42.952 Time out between pack = 0 sec.; pack size = 100; packIX = 113 of 1000000; total item processed = 11300 of 34951; ID_OBJET from 22011 to 22145
2020-02-07 10:49:46.735 Starting RevisionLog()
2020-02-07 10:49:46.747 Time out between pack = 0 sec.; pack size = 100; packIX = 114 of 1000000; total item processed = 11400 of 34951; ID_OBJET from 22146 to 22260
2020-02-07 10:49:51.444 Starting RevisionLog()
2020-02-07 10:49:51.458 Time out between pack = 0 sec.; pack size = 100; packIX = 115 of 1000000; total item processed = 11500 of 34951; ID_OBJET from 22261 to 22388
2020-02-07 10:49:55.570 Starting RevisionLog()
2020-02-07 10:49:55.583 Time out between pack = 0 sec.; pack size = 100; packIX = 116 of 1000000; total item processed = 11600 of 34951; ID_OBJET from 22389 to 22508
2020-02-07 10:50:00.253 Starting RevisionLog()
2020-02-07 10:50:00.265 Time out between pack = 0 sec.; pack size = 100; packIX = 117 of 1000000; total item processed = 11700 of 34951; ID_OBJET from 22509 to 22625
2020-02-07 10:50:04.450 Starting RevisionLog()
2020-02-07 10:50:04.463 Time out between pack = 0 sec.; pack size = 100; packIX = 118 of 1000000; total item processed = 11800 of 34951; ID_OBJET from 22626 to 22734
2020-02-07 10:50:08.374 Starting RevisionLog()
2020-02-07 10:50:08.386 Time out between pack = 0 sec.; pack size = 100; packIX = 119 of 1000000; total item processed = 11900 of 34951; ID_OBJET from 22735 to 22850
2020-02-07 10:50:12.558 Starting RevisionLog()
2020-02-07 10:50:12.570 Time out between pack = 0 sec.; pack size = 100; packIX = 120 of 1000000; total item processed = 12000 of 34951; ID_OBJET from 22851 to 23008
2020-02-07 10:50:16.404 Starting RevisionLog()
2020-02-07 10:50:16.414 Time out between pack = 0 sec.; pack size = 100; packIX = 121 of 1000000; total item processed = 12100 of 34951; ID_OBJET from 23009 to 23124
2020-02-07 10:50:20.268 Starting RevisionLog()
2020-02-07 10:50:20.279 Time out between pack = 0 sec.; pack size = 100; packIX = 122 of 1000000; total item processed = 12200 of 34951; ID_OBJET from 23125 to 23243
2020-02-07 10:50:24.111 Starting RevisionLog()
2020-02-07 10:50:24.124 Time out between pack = 0 sec.; pack size = 100; packIX = 123 of 1000000; total item processed = 12300 of 34951; ID_OBJET from 23244 to 23347
2020-02-07 10:50:28.047 Starting RevisionLog()
2020-02-07 10:50:28.058 Time out between pack = 0 sec.; pack size = 100; packIX = 124 of 1000000; total item processed = 12400 of 34951; ID_OBJET from 23348 to 23458
2020-02-07 10:50:31.880 Starting RevisionLog()
2020-02-07 10:50:31.892 Time out between pack = 0 sec.; pack size = 100; packIX = 125 of 1000000; total item processed = 12500 of 34951; ID_OBJET from 23459 to 23562
2020-02-07 10:50:36.271 Starting RevisionLog()
2020-02-07 10:50:36.287 Time out between pack = 0 sec.; pack size = 100; packIX = 126 of 1000000; total item processed = 12600 of 34951; ID_OBJET from 23563 to 23671
2020-02-07 10:50:40.334 Starting RevisionLog()
2020-02-07 10:50:40.358 Time out between pack = 0 sec.; pack size = 100; packIX = 127 of 1000000; total item processed = 12700 of 34951; ID_OBJET from 23672 to 23787
2020-02-07 10:50:44.246 Starting RevisionLog()
2020-02-07 10:50:44.263 Time out between pack = 0 sec.; pack size = 100; packIX = 128 of 1000000; total item processed = 12800 of 34951; ID_OBJET from 23788 to 23900
2020-02-07 10:50:48.302 Starting RevisionLog()
2020-02-07 10:50:48.316 Time out between pack = 0 sec.; pack size = 100; packIX = 129 of 1000000; total item processed = 12900 of 34951; ID_OBJET from 23901 to 24004
2020-02-07 10:50:52.492 Starting RevisionLog()
2020-02-07 10:50:52.505 Time out between pack = 0 sec.; pack size = 100; packIX = 130 of 1000000; total item processed = 13000 of 34951; ID_OBJET from 24005 to 24120
2020-02-07 10:50:57.139 Starting RevisionLog()
2020-02-07 10:50:57.151 Time out between pack = 0 sec.; pack size = 100; packIX = 131 of 1000000; total item processed = 13100 of 34951; ID_OBJET from 24121 to 25022
2020-02-07 10:51:01.338 Starting RevisionLog()
2020-02-07 10:51:01.354 Time out between pack = 0 sec.; pack size = 100; packIX = 132 of 1000000; total item processed = 13200 of 34951; ID_OBJET from 25024 to 25160
2020-02-07 10:51:05.335 Starting RevisionLog()
2020-02-07 10:51:05.348 Time out between pack = 0 sec.; pack size = 100; packIX = 133 of 1000000; total item processed = 13300 of 34951; ID_OBJET from 25162 to 25311
2020-02-07 10:51:09.452 Starting RevisionLog()
2020-02-07 10:51:09.465 Time out between pack = 0 sec.; pack size = 100; packIX = 134 of 1000000; total item processed = 13400 of 34951; ID_OBJET from 25313 to 25465
2020-02-07 10:51:13.438 Starting RevisionLog()
2020-02-07 10:51:13.450 Time out between pack = 0 sec.; pack size = 100; packIX = 135 of 1000000; total item processed = 13500 of 34951; ID_OBJET from 25466 to 25592
2020-02-07 10:51:17.388 Starting RevisionLog()
2020-02-07 10:51:17.400 Time out between pack = 0 sec.; pack size = 100; packIX = 136 of 1000000; total item processed = 13600 of 34951; ID_OBJET from 25593 to 25737
2020-02-07 10:51:21.316 Starting RevisionLog()
2020-02-07 10:51:21.329 Time out between pack = 0 sec.; pack size = 100; packIX = 137 of 1000000; total item processed = 13700 of 34951; ID_OBJET from 25739 to 25890
2020-02-07 10:51:25.113 Starting RevisionLog()
2020-02-07 10:51:25.127 Time out between pack = 0 sec.; pack size = 100; packIX = 138 of 1000000; total item processed = 13800 of 34951; ID_OBJET from 25893 to 26069
2020-02-07 10:51:29.069 Starting RevisionLog()
2020-02-07 10:51:29.084 Time out between pack = 0 sec.; pack size = 100; packIX = 139 of 1000000; total item processed = 13900 of 34951; ID_OBJET from 26070 to 26309
2020-02-07 10:51:33.312 Starting RevisionLog()
2020-02-07 10:51:33.324 Time out between pack = 0 sec.; pack size = 100; packIX = 140 of 1000000; total item processed = 14000 of 34951; ID_OBJET from 26310 to 26536
2020-02-07 10:51:37.214 Starting RevisionLog()
2020-02-07 10:51:37.228 Time out between pack = 0 sec.; pack size = 100; packIX = 141 of 1000000; total item processed = 14100 of 34951; ID_OBJET from 26537 to 26738
2020-02-07 10:51:41.120 Starting RevisionLog()
2020-02-07 10:51:41.133 Time out between pack = 0 sec.; pack size = 100; packIX = 142 of 1000000; total item processed = 14200 of 34951; ID_OBJET from 26742 to 26951
2020-02-07 10:51:44.977 Starting RevisionLog()
2020-02-07 10:51:44.991 Time out between pack = 0 sec.; pack size = 100; packIX = 143 of 1000000; total item processed = 14300 of 34951; ID_OBJET from 26952 to 27204
2020-02-07 10:51:49.344 Starting RevisionLog()
2020-02-07 10:51:49.356 Time out between pack = 0 sec.; pack size = 100; packIX = 144 of 1000000; total item processed = 14400 of 34951; ID_OBJET from 27205 to 27377
2020-02-07 10:51:53.769 Starting RevisionLog()
2020-02-07 10:51:53.784 Time out between pack = 0 sec.; pack size = 100; packIX = 145 of 1000000; total item processed = 14500 of 34951; ID_OBJET from 27379 to 27540
2020-02-07 10:51:57.667 Starting RevisionLog()
2020-02-07 10:51:57.678 Time out between pack = 0 sec.; pack size = 100; packIX = 146 of 1000000; total item processed = 14600 of 34951; ID_OBJET from 27541 to 27687
2020-02-07 10:52:01.398 Starting RevisionLog()
2020-02-07 10:52:01.410 Time out between pack = 0 sec.; pack size = 100; packIX = 147 of 1000000; total item processed = 14700 of 34951; ID_OBJET from 27690 to 27864
2020-02-07 10:52:05.403 Starting RevisionLog()
2020-02-07 10:52:05.413 Time out between pack = 0 sec.; pack size = 100; packIX = 148 of 1000000; total item processed = 14800 of 34951; ID_OBJET from 27866 to 28009
2020-02-07 10:52:08.961 Starting RevisionLog()
2020-02-07 10:52:08.973 Time out between pack = 0 sec.; pack size = 100; packIX = 149 of 1000000; total item processed = 14900 of 34951; ID_OBJET from 28010 to 28190
2020-02-07 10:52:12.639 Starting RevisionLog()
2020-02-07 10:52:12.663 Time out between pack = 0 sec.; pack size = 100; packIX = 150 of 1000000; total item processed = 15000 of 34951; ID_OBJET from 28194 to 28393
2020-02-07 10:52:16.290 Starting RevisionLog()
2020-02-07 10:52:16.301 Time out between pack = 0 sec.; pack size = 100; packIX = 151 of 1000000; total item processed = 15100 of 34951; ID_OBJET from 28395 to 28590
2020-02-07 10:52:19.957 Starting RevisionLog()
2020-02-07 10:52:19.969 Time out between pack = 0 sec.; pack size = 100; packIX = 152 of 1000000; total item processed = 15200 of 34951; ID_OBJET from 28591 to 28813
2020-02-07 10:52:23.619 Starting RevisionLog()
2020-02-07 10:52:23.629 Time out between pack = 0 sec.; pack size = 100; packIX = 153 of 1000000; total item processed = 15300 of 34951; ID_OBJET from 28814 to 29015
2020-02-07 10:52:27.747 Starting RevisionLog()
2020-02-07 10:52:27.766 Time out between pack = 0 sec.; pack size = 100; packIX = 154 of 1000000; total item processed = 15400 of 34951; ID_OBJET from 29018 to 29209
2020-02-07 10:52:31.457 Starting RevisionLog()
2020-02-07 10:52:31.471 Time out between pack = 0 sec.; pack size = 100; packIX = 155 of 1000000; total item processed = 15500 of 34951; ID_OBJET from 29214 to 29396
2020-02-07 10:52:35.493 Starting RevisionLog()
2020-02-07 10:52:35.505 Time out between pack = 0 sec.; pack size = 100; packIX = 156 of 1000000; total item processed = 15600 of 34951; ID_OBJET from 29397 to 29557
2020-02-07 10:52:39.453 Starting RevisionLog()
2020-02-07 10:52:39.466 Time out between pack = 0 sec.; pack size = 100; packIX = 157 of 1000000; total item processed = 15700 of 34951; ID_OBJET from 29560 to 29754
2020-02-07 10:52:43.134 Starting RevisionLog()
2020-02-07 10:52:43.148 Time out between pack = 0 sec.; pack size = 100; packIX = 158 of 1000000; total item processed = 15800 of 34951; ID_OBJET from 29756 to 29923
2020-02-07 10:52:46.815 Starting RevisionLog()
2020-02-07 10:52:46.830 Time out between pack = 0 sec.; pack size = 100; packIX = 159 of 1000000; total item processed = 15900 of 34951; ID_OBJET from 29924 to 30096
2020-02-07 10:52:51.407 Starting RevisionLog()
2020-02-07 10:52:51.419 Time out between pack = 0 sec.; pack size = 100; packIX = 160 of 1000000; total item processed = 16000 of 34951; ID_OBJET from 30097 to 30269
2020-02-07 10:52:55.196 Starting RevisionLog()
2020-02-07 10:52:55.208 Time out between pack = 0 sec.; pack size = 100; packIX = 161 of 1000000; total item processed = 16100 of 34951; ID_OBJET from 30270 to 30430
2020-02-07 10:52:59.117 Starting RevisionLog()
2020-02-07 10:52:59.131 Time out between pack = 0 sec.; pack size = 100; packIX = 162 of 1000000; total item processed = 16200 of 34951; ID_OBJET from 30432 to 30601
2020-02-07 10:53:03.149 Starting RevisionLog()
2020-02-07 10:53:03.165 Time out between pack = 0 sec.; pack size = 100; packIX = 163 of 1000000; total item processed = 16300 of 34951; ID_OBJET from 30603 to 30754
2020-02-07 10:53:07.013 Starting RevisionLog()
2020-02-07 10:53:07.030 Time out between pack = 0 sec.; pack size = 100; packIX = 164 of 1000000; total item processed = 16400 of 34951; ID_OBJET from 30756 to 30936
2020-02-07 10:53:10.964 Starting RevisionLog()
2020-02-07 10:53:10.980 Time out between pack = 0 sec.; pack size = 100; packIX = 165 of 1000000; total item processed = 16500 of 34951; ID_OBJET from 30937 to 31104
2020-02-07 10:53:14.668 Starting RevisionLog()
2020-02-07 10:53:14.682 Time out between pack = 0 sec.; pack size = 100; packIX = 166 of 1000000; total item processed = 16600 of 34951; ID_OBJET from 31105 to 31262
2020-02-07 10:53:18.393 Starting RevisionLog()
2020-02-07 10:53:18.419 Time out between pack = 0 sec.; pack size = 100; packIX = 167 of 1000000; total item processed = 16700 of 34951; ID_OBJET from 31263 to 31436
2020-02-07 10:53:22.225 Starting RevisionLog()
2020-02-07 10:53:22.242 Time out between pack = 0 sec.; pack size = 100; packIX = 168 of 1000000; total item processed = 16800 of 34951; ID_OBJET from 31439 to 31616
2020-02-07 10:53:25.736 Starting RevisionLog()
2020-02-07 10:53:25.752 Time out between pack = 0 sec.; pack size = 100; packIX = 169 of 1000000; total item processed = 16900 of 34951; ID_OBJET from 31617 to 31774
2020-02-07 10:53:29.399 Starting RevisionLog()
2020-02-07 10:53:29.411 Time out between pack = 0 sec.; pack size = 100; packIX = 170 of 1000000; total item processed = 17000 of 34951; ID_OBJET from 31775 to 31926
2020-02-07 10:53:33.533 Starting RevisionLog()
2020-02-07 10:53:33.544 Time out between pack = 0 sec.; pack size = 100; packIX = 171 of 1000000; total item processed = 17100 of 34951; ID_OBJET from 31927 to 32069
2020-02-07 10:53:37.277 Starting RevisionLog()
2020-02-07 10:53:37.290 Time out between pack = 0 sec.; pack size = 100; packIX = 172 of 1000000; total item processed = 17200 of 34951; ID_OBJET from 32071 to 32210
2020-02-07 10:53:40.885 Starting RevisionLog()
2020-02-07 10:53:40.899 Time out between pack = 0 sec.; pack size = 100; packIX = 173 of 1000000; total item processed = 17300 of 34951; ID_OBJET from 32211 to 32362
2020-02-07 10:53:44.664 Starting RevisionLog()
2020-02-07 10:53:44.676 Time out between pack = 0 sec.; pack size = 100; packIX = 174 of 1000000; total item processed = 17400 of 34951; ID_OBJET from 32363 to 32502
2020-02-07 10:53:48.373 Starting RevisionLog()
2020-02-07 10:53:48.385 Time out between pack = 0 sec.; pack size = 100; packIX = 175 of 1000000; total item processed = 17500 of 34951; ID_OBJET from 32503 to 32633
2020-02-07 10:53:52.351 Starting RevisionLog()
2020-02-07 10:53:52.363 Time out between pack = 0 sec.; pack size = 100; packIX = 176 of 1000000; total item processed = 17600 of 34951; ID_OBJET from 32638 to 32795
2020-02-07 10:53:56.142 Starting RevisionLog()
2020-02-07 10:53:56.154 Time out between pack = 0 sec.; pack size = 100; packIX = 177 of 1000000; total item processed = 17700 of 34951; ID_OBJET from 32796 to 32969
2020-02-07 10:53:59.991 Starting RevisionLog()
2020-02-07 10:54:00.005 Time out between pack = 0 sec.; pack size = 100; packIX = 178 of 1000000; total item processed = 17800 of 34951; ID_OBJET from 32971 to 33138
2020-02-07 10:54:04.226 Starting RevisionLog()
2020-02-07 10:54:04.240 Time out between pack = 0 sec.; pack size = 100; packIX = 179 of 1000000; total item processed = 17900 of 34951; ID_OBJET from 33139 to 33282
2020-02-07 10:54:08.320 Starting RevisionLog()
2020-02-07 10:54:08.333 Time out between pack = 0 sec.; pack size = 100; packIX = 180 of 1000000; total item processed = 18000 of 34951; ID_OBJET from 33288 to 33466
2020-02-07 10:54:11.966 Starting RevisionLog()
2020-02-07 10:54:11.978 Time out between pack = 0 sec.; pack size = 100; packIX = 181 of 1000000; total item processed = 18100 of 34951; ID_OBJET from 33468 to 33655
2020-02-07 10:54:15.606 Starting RevisionLog()
2020-02-07 10:54:15.618 Time out between pack = 0 sec.; pack size = 100; packIX = 182 of 1000000; total item processed = 18200 of 34951; ID_OBJET from 33656 to 33805
2020-02-07 10:54:19.510 Starting RevisionLog()
2020-02-07 10:54:19.523 Time out between pack = 0 sec.; pack size = 100; packIX = 183 of 1000000; total item processed = 18300 of 34951; ID_OBJET from 33806 to 33949
2020-02-07 10:54:23.133 Starting RevisionLog()
2020-02-07 10:54:23.145 Time out between pack = 0 sec.; pack size = 100; packIX = 184 of 1000000; total item processed = 18400 of 34951; ID_OBJET from 33951 to 34080
2020-02-07 10:54:26.958 Starting RevisionLog()
2020-02-07 10:54:26.975 Time out between pack = 0 sec.; pack size = 100; packIX = 185 of 1000000; total item processed = 18500 of 34951; ID_OBJET from 34081 to 34223
2020-02-07 10:54:30.733 Starting RevisionLog()
2020-02-07 10:54:30.747 Time out between pack = 0 sec.; pack size = 100; packIX = 186 of 1000000; total item processed = 18600 of 34951; ID_OBJET from 34224 to 34356
2020-02-07 10:54:34.626 Starting RevisionLog()
2020-02-07 10:54:34.638 Time out between pack = 0 sec.; pack size = 100; packIX = 187 of 1000000; total item processed = 18700 of 34951; ID_OBJET from 34357 to 34473
2020-02-07 10:54:38.292 Starting RevisionLog()
2020-02-07 10:54:38.306 Time out between pack = 0 sec.; pack size = 100; packIX = 188 of 1000000; total item processed = 18800 of 34951; ID_OBJET from 34474 to 34600
2020-02-07 10:54:42.088 Starting RevisionLog()
2020-02-07 10:54:42.101 Time out between pack = 0 sec.; pack size = 100; packIX = 189 of 1000000; total item processed = 18900 of 34951; ID_OBJET from 34601 to 34726
2020-02-07 10:54:45.845 Starting RevisionLog()
2020-02-07 10:54:45.857 Time out between pack = 0 sec.; pack size = 100; packIX = 190 of 1000000; total item processed = 19000 of 34951; ID_OBJET from 34727 to 34859
2020-02-07 10:54:49.933 Starting RevisionLog()
2020-02-07 10:54:49.945 Time out between pack = 0 sec.; pack size = 100; packIX = 191 of 1000000; total item processed = 19100 of 34951; ID_OBJET from 34860 to 35006
2020-02-07 10:54:53.994 Starting RevisionLog()
2020-02-07 10:54:54.006 Time out between pack = 0 sec.; pack size = 100; packIX = 192 of 1000000; total item processed = 19200 of 34951; ID_OBJET from 35007 to 35166
2020-02-07 10:54:57.910 Starting RevisionLog()
2020-02-07 10:54:57.923 Time out between pack = 0 sec.; pack size = 100; packIX = 193 of 1000000; total item processed = 19300 of 34951; ID_OBJET from 35167 to 35335
2020-02-07 10:55:01.915 Starting RevisionLog()
2020-02-07 10:55:01.929 Time out between pack = 0 sec.; pack size = 100; packIX = 194 of 1000000; total item processed = 19400 of 34951; ID_OBJET from 35336 to 35444
2020-02-07 10:55:06.071 Starting RevisionLog()
2020-02-07 10:55:06.102 Time out between pack = 0 sec.; pack size = 100; packIX = 195 of 1000000; total item processed = 19500 of 34951; ID_OBJET from 35445 to 35545
2020-02-07 10:55:09.693 Starting RevisionLog()
2020-02-07 10:55:09.707 Time out between pack = 0 sec.; pack size = 100; packIX = 196 of 1000000; total item processed = 19600 of 34951; ID_OBJET from 35546 to 35645
2020-02-07 10:55:13.472 Starting RevisionLog()
2020-02-07 10:55:13.484 Time out between pack = 0 sec.; pack size = 100; packIX = 197 of 1000000; total item processed = 19700 of 34951; ID_OBJET from 35646 to 35746
2020-02-07 10:55:17.319 Starting RevisionLog()
2020-02-07 10:55:17.333 Time out between pack = 0 sec.; pack size = 100; packIX = 198 of 1000000; total item processed = 19800 of 34951; ID_OBJET from 35747 to 35846
2020-02-07 10:55:21.181 Starting RevisionLog()
2020-02-07 10:55:21.197 Time out between pack = 0 sec.; pack size = 100; packIX = 199 of 1000000; total item processed = 19900 of 34951; ID_OBJET from 35847 to 35946
2020-02-07 10:55:25.018 Starting RevisionLog()
2020-02-07 10:55:25.035 Time out between pack = 0 sec.; pack size = 100; packIX = 200 of 1000000; total item processed = 20000 of 34951; ID_OBJET from 35947 to 36046
2020-02-07 10:55:28.755 Starting RevisionLog()
2020-02-07 10:55:28.773 Time out between pack = 0 sec.; pack size = 100; packIX = 201 of 1000000; total item processed = 20100 of 34951; ID_OBJET from 36047 to 36147
2020-02-07 10:55:32.415 Starting RevisionLog()
2020-02-07 10:55:32.477 Time out between pack = 0 sec.; pack size = 100; packIX = 202 of 1000000; total item processed = 20200 of 34951; ID_OBJET from 36148 to 36248
2020-02-07 10:55:36.482 Starting RevisionLog()
2020-02-07 10:55:36.498 Time out between pack = 0 sec.; pack size = 100; packIX = 203 of 1000000; total item processed = 20300 of 34951; ID_OBJET from 36249 to 36393
2020-02-07 10:55:40.208 Starting RevisionLog()
2020-02-07 10:55:40.229 Time out between pack = 0 sec.; pack size = 100; packIX = 204 of 1000000; total item processed = 20400 of 34951; ID_OBJET from 36394 to 36561
2020-02-07 10:55:43.870 Starting RevisionLog()
2020-02-07 10:55:43.882 Time out between pack = 0 sec.; pack size = 100; packIX = 205 of 1000000; total item processed = 20500 of 34951; ID_OBJET from 36562 to 36731
2020-02-07 10:55:47.768 Starting RevisionLog()
2020-02-07 10:55:47.780 Time out between pack = 0 sec.; pack size = 100; packIX = 206 of 1000000; total item processed = 20600 of 34951; ID_OBJET from 36732 to 36859
2020-02-07 10:55:51.845 Starting RevisionLog()
2020-02-07 10:55:51.875 Time out between pack = 0 sec.; pack size = 100; packIX = 207 of 1000000; total item processed = 20700 of 34951; ID_OBJET from 36860 to 36997
2020-02-07 10:55:55.983 Starting RevisionLog()
2020-02-07 10:55:55.996 Time out between pack = 0 sec.; pack size = 100; packIX = 208 of 1000000; total item processed = 20800 of 34951; ID_OBJET from 36999 to 37155
2020-02-07 10:56:00.203 Starting RevisionLog()
2020-02-07 10:56:00.223 Time out between pack = 0 sec.; pack size = 100; packIX = 209 of 1000000; total item processed = 20900 of 34951; ID_OBJET from 37156 to 37315
2020-02-07 10:56:04.227 Starting RevisionLog()
2020-02-07 10:56:04.241 Time out between pack = 0 sec.; pack size = 100; packIX = 210 of 1000000; total item processed = 21000 of 34951; ID_OBJET from 37316 to 37442
2020-02-07 10:56:08.087 Starting RevisionLog()
2020-02-07 10:56:08.100 Time out between pack = 0 sec.; pack size = 100; packIX = 211 of 1000000; total item processed = 21100 of 34951; ID_OBJET from 37443 to 37577
2020-02-07 10:56:11.923 Starting RevisionLog()
2020-02-07 10:56:11.936 Time out between pack = 0 sec.; pack size = 100; packIX = 212 of 1000000; total item processed = 21200 of 34951; ID_OBJET from 37579 to 37712
2020-02-07 10:56:15.789 Starting RevisionLog()
2020-02-07 10:56:15.805 Time out between pack = 0 sec.; pack size = 100; packIX = 213 of 1000000; total item processed = 21300 of 34951; ID_OBJET from 37713 to 37867
2020-02-07 10:56:19.617 Starting RevisionLog()
2020-02-07 10:56:19.633 Time out between pack = 0 sec.; pack size = 100; packIX = 214 of 1000000; total item processed = 21400 of 34951; ID_OBJET from 37869 to 38031
2020-02-07 10:56:23.520 Starting RevisionLog()
2020-02-07 10:56:23.535 Time out between pack = 0 sec.; pack size = 100; packIX = 215 of 1000000; total item processed = 21500 of 34951; ID_OBJET from 38032 to 38175
2020-02-07 10:56:27.356 Starting RevisionLog()
2020-02-07 10:56:27.371 Time out between pack = 0 sec.; pack size = 100; packIX = 216 of 1000000; total item processed = 21600 of 34951; ID_OBJET from 38176 to 38362
2020-02-07 10:56:31.035 Starting RevisionLog()
2020-02-07 10:56:31.049 Time out between pack = 0 sec.; pack size = 100; packIX = 217 of 1000000; total item processed = 21700 of 34951; ID_OBJET from 38365 to 38528
2020-02-07 10:56:35.199 Starting RevisionLog()
2020-02-07 10:56:35.211 Time out between pack = 0 sec.; pack size = 100; packIX = 218 of 1000000; total item processed = 21800 of 34951; ID_OBJET from 38531 to 38675
2020-02-07 10:56:39.074 Starting RevisionLog()
2020-02-07 10:56:39.087 Time out between pack = 0 sec.; pack size = 100; packIX = 219 of 1000000; total item processed = 21900 of 34951; ID_OBJET from 38676 to 38836
2020-02-07 10:56:43.004 Starting RevisionLog()
2020-02-07 10:56:43.016 Time out between pack = 0 sec.; pack size = 100; packIX = 220 of 1000000; total item processed = 22000 of 34951; ID_OBJET from 38837 to 39002
2020-02-07 10:56:46.974 Starting RevisionLog()
2020-02-07 10:56:46.987 Time out between pack = 0 sec.; pack size = 100; packIX = 221 of 1000000; total item processed = 22100 of 34951; ID_OBJET from 39003 to 39179
2020-02-07 10:56:51.102 Starting RevisionLog()
2020-02-07 10:56:51.115 Time out between pack = 0 sec.; pack size = 100; packIX = 222 of 1000000; total item processed = 22200 of 34951; ID_OBJET from 39187 to 39355
2020-02-07 10:56:55.192 Starting RevisionLog()
2020-02-07 10:56:55.203 Time out between pack = 0 sec.; pack size = 100; packIX = 223 of 1000000; total item processed = 22300 of 34951; ID_OBJET from 39356 to 39497
2020-02-07 10:56:58.915 Starting RevisionLog()
2020-02-07 10:56:58.927 Time out between pack = 0 sec.; pack size = 100; packIX = 224 of 1000000; total item processed = 22400 of 34951; ID_OBJET from 39503 to 39676
2020-02-07 10:57:02.847 Starting RevisionLog()
2020-02-07 10:57:02.864 Time out between pack = 0 sec.; pack size = 100; packIX = 225 of 1000000; total item processed = 22500 of 34951; ID_OBJET from 39687 to 39858
2020-02-07 10:57:07.029 Starting RevisionLog()
2020-02-07 10:57:07.041 Time out between pack = 0 sec.; pack size = 100; packIX = 226 of 1000000; total item processed = 22600 of 34951; ID_OBJET from 39859 to 39990
2020-02-07 10:57:10.789 Starting RevisionLog()
2020-02-07 10:57:10.805 Time out between pack = 0 sec.; pack size = 100; packIX = 227 of 1000000; total item processed = 22700 of 34951; ID_OBJET from 39991 to 40177
2020-02-07 10:57:14.524 Starting RevisionLog()
2020-02-07 10:57:14.538 Time out between pack = 0 sec.; pack size = 100; packIX = 228 of 1000000; total item processed = 22800 of 34951; ID_OBJET from 40178 to 40376
2020-02-07 10:57:18.396 Starting RevisionLog()
2020-02-07 10:57:18.408 Time out between pack = 0 sec.; pack size = 100; packIX = 229 of 1000000; total item processed = 22900 of 34951; ID_OBJET from 40377 to 40600
2020-02-07 10:57:22.287 Starting RevisionLog()
2020-02-07 10:57:22.299 Time out between pack = 0 sec.; pack size = 100; packIX = 230 of 1000000; total item processed = 23000 of 34951; ID_OBJET from 40602 to 40765
2020-02-07 10:57:26.075 Starting RevisionLog()
2020-02-07 10:57:26.090 Time out between pack = 0 sec.; pack size = 100; packIX = 231 of 1000000; total item processed = 23100 of 34951; ID_OBJET from 40766 to 40907
2020-02-07 10:57:29.955 Starting RevisionLog()
2020-02-07 10:57:29.969 Time out between pack = 0 sec.; pack size = 100; packIX = 232 of 1000000; total item processed = 23200 of 34951; ID_OBJET from 40908 to 41091
2020-02-07 10:57:33.851 Starting RevisionLog()
2020-02-07 10:57:33.866 Time out between pack = 0 sec.; pack size = 100; packIX = 233 of 1000000; total item processed = 23300 of 34951; ID_OBJET from 41092 to 41236
2020-02-07 10:57:37.793 Starting RevisionLog()
2020-02-07 10:57:37.806 Time out between pack = 0 sec.; pack size = 100; packIX = 234 of 1000000; total item processed = 23400 of 34951; ID_OBJET from 41237 to 41373
2020-02-07 10:57:41.698 Starting RevisionLog()
2020-02-07 10:57:41.711 Time out between pack = 0 sec.; pack size = 100; packIX = 235 of 1000000; total item processed = 23500 of 34951; ID_OBJET from 41374 to 41555
2020-02-07 10:57:45.382 Starting RevisionLog()
2020-02-07 10:57:45.394 Time out between pack = 0 sec.; pack size = 100; packIX = 236 of 1000000; total item processed = 23600 of 34951; ID_OBJET from 41556 to 41682
2020-02-07 10:57:49.111 Starting RevisionLog()
2020-02-07 10:57:49.126 Time out between pack = 0 sec.; pack size = 100; packIX = 237 of 1000000; total item processed = 23700 of 34951; ID_OBJET from 41683 to 41804
2020-02-07 10:57:53.430 Starting RevisionLog()
2020-02-07 10:57:53.441 Time out between pack = 0 sec.; pack size = 100; packIX = 238 of 1000000; total item processed = 23800 of 34951; ID_OBJET from 41805 to 41941
2020-02-07 10:57:57.360 Starting RevisionLog()
2020-02-07 10:57:57.375 Time out between pack = 0 sec.; pack size = 100; packIX = 239 of 1000000; total item processed = 23900 of 34951; ID_OBJET from 41945 to 42120
2020-02-07 10:58:01.071 Starting RevisionLog()
2020-02-07 10:58:01.086 Time out between pack = 0 sec.; pack size = 100; packIX = 240 of 1000000; total item processed = 24000 of 34951; ID_OBJET from 42121 to 42265
2020-02-07 10:58:05.275 Starting RevisionLog()
2020-02-07 10:58:05.288 Time out between pack = 0 sec.; pack size = 100; packIX = 241 of 1000000; total item processed = 24100 of 34951; ID_OBJET from 42266 to 42405
2020-02-07 10:58:09.044 Starting RevisionLog()
2020-02-07 10:58:09.058 Time out between pack = 0 sec.; pack size = 100; packIX = 242 of 1000000; total item processed = 24200 of 34951; ID_OBJET from 42406 to 42602
2020-02-07 10:58:12.781 Starting RevisionLog()
2020-02-07 10:58:12.795 Time out between pack = 0 sec.; pack size = 100; packIX = 243 of 1000000; total item processed = 24300 of 34951; ID_OBJET from 42604 to 42781
2020-02-07 10:58:16.549 Starting RevisionLog()
2020-02-07 10:58:16.566 Time out between pack = 0 sec.; pack size = 100; packIX = 244 of 1000000; total item processed = 24400 of 34951; ID_OBJET from 42786 to 42970
2020-02-07 10:58:20.409 Starting RevisionLog()
2020-02-07 10:58:20.424 Time out between pack = 0 sec.; pack size = 100; packIX = 245 of 1000000; total item processed = 24500 of 34951; ID_OBJET from 42972 to 43124
2020-02-07 10:58:24.161 Starting RevisionLog()
2020-02-07 10:58:24.171 Time out between pack = 0 sec.; pack size = 100; packIX = 246 of 1000000; total item processed = 24600 of 34951; ID_OBJET from 43126 to 43280
2020-02-07 10:58:27.920 Starting RevisionLog()
2020-02-07 10:58:27.932 Time out between pack = 0 sec.; pack size = 100; packIX = 247 of 1000000; total item processed = 24700 of 34951; ID_OBJET from 43281 to 43441
2020-02-07 10:58:31.607 Starting RevisionLog()
2020-02-07 10:58:31.620 Time out between pack = 0 sec.; pack size = 100; packIX = 248 of 1000000; total item processed = 24800 of 34951; ID_OBJET from 43443 to 43602
2020-02-07 10:58:36.363 Starting RevisionLog()
2020-02-07 10:58:36.377 Time out between pack = 0 sec.; pack size = 100; packIX = 249 of 1000000; total item processed = 24900 of 34951; ID_OBJET from 43603 to 43759
2020-02-07 10:58:40.307 Starting RevisionLog()
2020-02-07 10:58:40.320 Time out between pack = 0 sec.; pack size = 100; packIX = 250 of 1000000; total item processed = 25000 of 34951; ID_OBJET from 43760 to 43926
2020-02-07 10:58:44.763 Starting RevisionLog()
2020-02-07 10:58:44.787 Time out between pack = 0 sec.; pack size = 100; packIX = 251 of 1000000; total item processed = 25100 of 34951; ID_OBJET from 43927 to 44060
2020-02-07 10:58:48.755 Starting RevisionLog()
2020-02-07 10:58:48.768 Time out between pack = 0 sec.; pack size = 100; packIX = 252 of 1000000; total item processed = 25200 of 34951; ID_OBJET from 44061 to 44238
2020-02-07 10:58:52.920 Starting RevisionLog()
2020-02-07 10:58:52.934 Time out between pack = 0 sec.; pack size = 100; packIX = 253 of 1000000; total item processed = 25300 of 34951; ID_OBJET from 44239 to 44408
2020-02-07 10:58:56.976 Starting RevisionLog()
2020-02-07 10:58:56.989 Time out between pack = 0 sec.; pack size = 100; packIX = 254 of 1000000; total item processed = 25400 of 34951; ID_OBJET from 44410 to 44542
2020-02-07 10:59:01.171 Starting RevisionLog()
2020-02-07 10:59:01.184 Time out between pack = 0 sec.; pack size = 100; packIX = 255 of 1000000; total item processed = 25500 of 34951; ID_OBJET from 44544 to 44699
2020-02-07 10:59:05.103 Starting RevisionLog()
2020-02-07 10:59:05.115 Time out between pack = 0 sec.; pack size = 100; packIX = 256 of 1000000; total item processed = 25600 of 34951; ID_OBJET from 44700 to 44853
2020-02-07 10:59:08.973 Starting RevisionLog()
2020-02-07 10:59:08.984 Time out between pack = 0 sec.; pack size = 100; packIX = 257 of 1000000; total item processed = 25700 of 34951; ID_OBJET from 44857 to 45024
2020-02-07 10:59:13.044 Starting RevisionLog()
2020-02-07 10:59:13.056 Time out between pack = 0 sec.; pack size = 100; packIX = 258 of 1000000; total item processed = 25800 of 34951; ID_OBJET from 45025 to 45220
2020-02-07 10:59:16.741 Starting RevisionLog()
2020-02-07 10:59:16.752 Time out between pack = 0 sec.; pack size = 100; packIX = 259 of 1000000; total item processed = 25900 of 34951; ID_OBJET from 45222 to 45375
2020-02-07 10:59:21.014 Starting RevisionLog()
2020-02-07 10:59:21.027 Time out between pack = 0 sec.; pack size = 100; packIX = 260 of 1000000; total item processed = 26000 of 34951; ID_OBJET from 45376 to 45566
2020-02-07 10:59:24.675 Starting RevisionLog()
2020-02-07 10:59:24.687 Time out between pack = 0 sec.; pack size = 100; packIX = 261 of 1000000; total item processed = 26100 of 34951; ID_OBJET from 45569 to 45749
2020-02-07 10:59:29.043 Starting RevisionLog()
2020-02-07 10:59:29.055 Time out between pack = 0 sec.; pack size = 100; packIX = 262 of 1000000; total item processed = 26200 of 34951; ID_OBJET from 45750 to 45920
2020-02-07 10:59:32.912 Starting RevisionLog()
2020-02-07 10:59:32.925 Time out between pack = 0 sec.; pack size = 100; packIX = 263 of 1000000; total item processed = 26300 of 34951; ID_OBJET from 45925 to 46187
2020-02-07 10:59:36.715 Starting RevisionLog()
2020-02-07 10:59:36.727 Time out between pack = 0 sec.; pack size = 100; packIX = 264 of 1000000; total item processed = 26400 of 34951; ID_OBJET from 46190 to 46365
2020-02-07 10:59:40.350 Starting RevisionLog()
2020-02-07 10:59:40.366 Time out between pack = 0 sec.; pack size = 100; packIX = 265 of 1000000; total item processed = 26500 of 34951; ID_OBJET from 46366 to 46554
2020-02-07 10:59:44.277 Starting RevisionLog()
2020-02-07 10:59:44.288 Time out between pack = 0 sec.; pack size = 100; packIX = 266 of 1000000; total item processed = 26600 of 34951; ID_OBJET from 46555 to 46721
2020-02-07 10:59:48.425 Starting RevisionLog()
2020-02-07 10:59:48.438 Time out between pack = 0 sec.; pack size = 100; packIX = 267 of 1000000; total item processed = 26700 of 34951; ID_OBJET from 46722 to 46911
2020-02-07 10:59:53.735 Starting RevisionLog()
2020-02-07 10:59:53.748 Time out between pack = 0 sec.; pack size = 100; packIX = 268 of 1000000; total item processed = 26800 of 34951; ID_OBJET from 46913 to 47106
2020-02-07 10:59:58.988 Starting RevisionLog()
2020-02-07 10:59:59.000 Time out between pack = 0 sec.; pack size = 100; packIX = 269 of 1000000; total item processed = 26900 of 34951; ID_OBJET from 47108 to 47281
2020-02-07 11:00:03.389 Starting RevisionLog()
2020-02-07 11:00:03.404 Time out between pack = 0 sec.; pack size = 100; packIX = 270 of 1000000; total item processed = 27000 of 34951; ID_OBJET from 47284 to 47503
2020-02-07 11:00:08.255 Starting RevisionLog()
2020-02-07 11:00:08.269 Time out between pack = 0 sec.; pack size = 100; packIX = 271 of 1000000; total item processed = 27100 of 34951; ID_OBJET from 47504 to 47707
2020-02-07 11:00:12.376 Starting RevisionLog()
2020-02-07 11:00:12.389 Time out between pack = 0 sec.; pack size = 100; packIX = 272 of 1000000; total item processed = 27200 of 34951; ID_OBJET from 47713 to 47925
2020-02-07 11:00:16.427 Starting RevisionLog()
2020-02-07 11:00:16.438 Time out between pack = 0 sec.; pack size = 100; packIX = 273 of 1000000; total item processed = 27300 of 34951; ID_OBJET from 47926 to 48152
2020-02-07 11:00:20.848 Starting RevisionLog()
2020-02-07 11:00:20.862 Time out between pack = 0 sec.; pack size = 100; packIX = 274 of 1000000; total item processed = 27400 of 34951; ID_OBJET from 48154 to 48419
2020-02-07 11:00:25.102 Starting RevisionLog()
2020-02-07 11:00:25.117 Time out between pack = 0 sec.; pack size = 100; packIX = 275 of 1000000; total item processed = 27500 of 34951; ID_OBJET from 48420 to 48655
2020-02-07 11:00:29.545 Starting RevisionLog()
2020-02-07 11:00:29.558 Time out between pack = 0 sec.; pack size = 100; packIX = 276 of 1000000; total item processed = 27600 of 34951; ID_OBJET from 48661 to 48885
2020-02-07 11:00:33.782 Starting RevisionLog()
2020-02-07 11:00:33.793 Time out between pack = 0 sec.; pack size = 100; packIX = 277 of 1000000; total item processed = 27700 of 34951; ID_OBJET from 48887 to 49128
2020-02-07 11:00:38.309 Starting RevisionLog()
2020-02-07 11:00:38.321 Time out between pack = 0 sec.; pack size = 100; packIX = 278 of 1000000; total item processed = 27800 of 34951; ID_OBJET from 49129 to 49324
2020-02-07 11:00:42.570 Starting RevisionLog()
2020-02-07 11:00:42.582 Time out between pack = 0 sec.; pack size = 100; packIX = 279 of 1000000; total item processed = 27900 of 34951; ID_OBJET from 49326 to 49503
2020-02-07 11:00:46.389 Starting RevisionLog()
2020-02-07 11:00:46.402 Time out between pack = 0 sec.; pack size = 100; packIX = 280 of 1000000; total item processed = 28000 of 34951; ID_OBJET from 49505 to 49704
2020-02-07 11:00:50.938 Starting RevisionLog()
2020-02-07 11:00:50.952 Time out between pack = 0 sec.; pack size = 100; packIX = 281 of 1000000; total item processed = 28100 of 34951; ID_OBJET from 49705 to 49913
2020-02-07 11:00:54.926 Starting RevisionLog()
2020-02-07 11:00:54.937 Time out between pack = 0 sec.; pack size = 100; packIX = 282 of 1000000; total item processed = 28200 of 34951; ID_OBJET from 49914 to 50116
2020-02-07 11:00:59.169 Starting RevisionLog()
2020-02-07 11:00:59.182 Time out between pack = 0 sec.; pack size = 100; packIX = 283 of 1000000; total item processed = 28300 of 34951; ID_OBJET from 50123 to 50300
2020-02-07 11:01:03.425 Starting RevisionLog()
2020-02-07 11:01:03.441 Time out between pack = 0 sec.; pack size = 100; packIX = 284 of 1000000; total item processed = 28400 of 34951; ID_OBJET from 50303 to 50499
2020-02-07 11:01:07.396 Starting RevisionLog()
2020-02-07 11:01:07.415 Time out between pack = 0 sec.; pack size = 100; packIX = 285 of 1000000; total item processed = 28500 of 34951; ID_OBJET from 50500 to 50661
2020-02-07 11:01:11.610 Starting RevisionLog()
2020-02-07 11:01:11.628 Time out between pack = 0 sec.; pack size = 100; packIX = 286 of 1000000; total item processed = 28600 of 34951; ID_OBJET from 50662 to 50845
2020-02-07 11:01:15.764 Starting RevisionLog()
2020-02-07 11:01:15.780 Time out between pack = 0 sec.; pack size = 100; packIX = 287 of 1000000; total item processed = 28700 of 34951; ID_OBJET from 50846 to 51043
2020-02-07 11:01:19.777 Starting RevisionLog()
2020-02-07 11:01:19.792 Time out between pack = 0 sec.; pack size = 100; packIX = 288 of 1000000; total item processed = 28800 of 34951; ID_OBJET from 51045 to 51243
2020-02-07 11:01:24.490 Starting RevisionLog()
2020-02-07 11:01:24.507 Time out between pack = 0 sec.; pack size = 100; packIX = 289 of 1000000; total item processed = 28900 of 34951; ID_OBJET from 51244 to 51390
2020-02-07 11:01:28.735 Starting RevisionLog()
2020-02-07 11:01:28.747 Time out between pack = 0 sec.; pack size = 100; packIX = 290 of 1000000; total item processed = 29000 of 34951; ID_OBJET from 51391 to 51559
2020-02-07 11:01:33.165 Starting RevisionLog()
2020-02-07 11:01:33.179 Time out between pack = 0 sec.; pack size = 100; packIX = 291 of 1000000; total item processed = 29100 of 34951; ID_OBJET from 51561 to 51714
2020-02-07 11:01:37.502 Starting RevisionLog()
2020-02-07 11:01:37.514 Time out between pack = 0 sec.; pack size = 100; packIX = 292 of 1000000; total item processed = 29200 of 34951; ID_OBJET from 51717 to 51899
2020-02-07 11:01:41.677 Starting RevisionLog()
2020-02-07 11:01:41.692 Time out between pack = 0 sec.; pack size = 100; packIX = 293 of 1000000; total item processed = 29300 of 34951; ID_OBJET from 51903 to 52083
2020-02-07 11:01:46.010 Starting RevisionLog()
2020-02-07 11:01:46.022 Time out between pack = 0 sec.; pack size = 100; packIX = 294 of 1000000; total item processed = 29400 of 34951; ID_OBJET from 52090 to 52266
2020-02-07 11:01:50.640 Starting RevisionLog()
2020-02-07 11:01:50.662 Time out between pack = 0 sec.; pack size = 100; packIX = 295 of 1000000; total item processed = 29500 of 34951; ID_OBJET from 52268 to 52466
2020-02-07 11:01:55.072 Starting RevisionLog()
2020-02-07 11:01:55.084 Time out between pack = 0 sec.; pack size = 100; packIX = 296 of 1000000; total item processed = 29600 of 34951; ID_OBJET from 52471 to 52712
2020-02-07 11:01:59.803 Starting RevisionLog()
2020-02-07 11:01:59.816 Time out between pack = 0 sec.; pack size = 100; packIX = 297 of 1000000; total item processed = 29700 of 34951; ID_OBJET from 52713 to 52910
2020-02-07 11:02:04.266 Starting RevisionLog()
2020-02-07 11:02:04.279 Time out between pack = 0 sec.; pack size = 100; packIX = 298 of 1000000; total item processed = 29800 of 34951; ID_OBJET from 52911 to 53183
2020-02-07 11:02:08.718 Starting RevisionLog()
2020-02-07 11:02:08.731 Time out between pack = 0 sec.; pack size = 100; packIX = 299 of 1000000; total item processed = 29900 of 34951; ID_OBJET from 53187 to 53406
2020-02-07 11:02:12.718 Starting RevisionLog()
2020-02-07 11:02:12.730 Time out between pack = 0 sec.; pack size = 100; packIX = 300 of 1000000; total item processed = 30000 of 34951; ID_OBJET from 53412 to 53664
2020-02-07 11:02:17.126 Starting RevisionLog()
2020-02-07 11:02:17.140 Time out between pack = 0 sec.; pack size = 100; packIX = 301 of 1000000; total item processed = 30100 of 34951; ID_OBJET from 53667 to 53989
2020-02-07 11:02:21.546 Starting RevisionLog()
2020-02-07 11:02:21.557 Time out between pack = 0 sec.; pack size = 100; packIX = 302 of 1000000; total item processed = 30200 of 34951; ID_OBJET from 53990 to 54276
2020-02-07 11:02:26.074 Starting RevisionLog()
2020-02-07 11:02:26.087 Time out between pack = 0 sec.; pack size = 100; packIX = 303 of 1000000; total item processed = 30300 of 34951; ID_OBJET from 54278 to 54611
2020-02-07 11:02:30.456 Starting RevisionLog()
2020-02-07 11:02:30.467 Time out between pack = 0 sec.; pack size = 100; packIX = 304 of 1000000; total item processed = 30400 of 34951; ID_OBJET from 54612 to 54945
2020-02-07 11:02:34.811 Starting RevisionLog()
2020-02-07 11:02:34.824 Time out between pack = 0 sec.; pack size = 100; packIX = 305 of 1000000; total item processed = 30500 of 34951; ID_OBJET from 54948 to 55293
2020-02-07 11:02:39.118 Starting RevisionLog()
2020-02-07 11:02:39.130 Time out between pack = 0 sec.; pack size = 100; packIX = 306 of 1000000; total item processed = 30600 of 34951; ID_OBJET from 55294 to 55555
2020-02-07 11:02:43.255 Starting RevisionLog()
2020-02-07 11:02:43.269 Time out between pack = 0 sec.; pack size = 100; packIX = 307 of 1000000; total item processed = 30700 of 34951; ID_OBJET from 55556 to 55808
2020-02-07 11:02:47.294 Starting RevisionLog()
2020-02-07 11:02:47.308 Time out between pack = 0 sec.; pack size = 100; packIX = 308 of 1000000; total item processed = 30800 of 34951; ID_OBJET from 55809 to 56047
2020-02-07 11:02:52.072 Starting RevisionLog()
2020-02-07 11:02:52.085 Time out between pack = 0 sec.; pack size = 100; packIX = 309 of 1000000; total item processed = 30900 of 34951; ID_OBJET from 56048 to 56321
2020-02-07 11:02:56.498 Starting RevisionLog()
2020-02-07 11:02:56.509 Time out between pack = 0 sec.; pack size = 100; packIX = 310 of 1000000; total item processed = 31000 of 34951; ID_OBJET from 56324 to 56659
2020-02-07 11:03:01.114 Starting RevisionLog()
2020-02-07 11:03:01.126 Time out between pack = 0 sec.; pack size = 100; packIX = 311 of 1000000; total item processed = 31100 of 34951; ID_OBJET from 56662 to 56898
2020-02-07 11:03:05.858 Starting RevisionLog()
2020-02-07 11:03:05.872 Time out between pack = 0 sec.; pack size = 100; packIX = 312 of 1000000; total item processed = 31200 of 34951; ID_OBJET from 56907 to 57338
2020-02-07 11:03:10.107 Starting RevisionLog()
2020-02-07 11:03:10.121 Time out between pack = 0 sec.; pack size = 100; packIX = 313 of 1000000; total item processed = 31300 of 34951; ID_OBJET from 57339 to 57686
2020-02-07 11:03:14.380 Starting RevisionLog()
2020-02-07 11:03:14.396 Time out between pack = 0 sec.; pack size = 100; packIX = 314 of 1000000; total item processed = 31400 of 34951; ID_OBJET from 57687 to 57952
2020-02-07 11:03:18.724 Starting RevisionLog()
2020-02-07 11:03:18.735 Time out between pack = 0 sec.; pack size = 100; packIX = 315 of 1000000; total item processed = 31500 of 34951; ID_OBJET from 57953 to 58179
2020-02-07 11:03:23.032 Starting RevisionLog()
2020-02-07 11:03:23.047 Time out between pack = 0 sec.; pack size = 100; packIX = 316 of 1000000; total item processed = 31600 of 34951; ID_OBJET from 58183 to 58539
2020-02-07 11:03:27.409 Starting RevisionLog()
2020-02-07 11:03:27.430 Time out between pack = 0 sec.; pack size = 100; packIX = 317 of 1000000; total item processed = 31700 of 34951; ID_OBJET from 58542 to 58894
2020-02-07 11:03:31.595 Starting RevisionLog()
2020-02-07 11:03:31.607 Time out between pack = 0 sec.; pack size = 100; packIX = 318 of 1000000; total item processed = 31800 of 34951; ID_OBJET from 58897 to 59248
2020-02-07 11:03:36.375 Starting RevisionLog()
2020-02-07 11:03:36.387 Time out between pack = 0 sec.; pack size = 100; packIX = 319 of 1000000; total item processed = 31900 of 34951; ID_OBJET from 59256 to 59685
2020-02-07 11:03:40.646 Starting RevisionLog()
2020-02-07 11:03:40.660 Time out between pack = 0 sec.; pack size = 100; packIX = 320 of 1000000; total item processed = 32000 of 34951; ID_OBJET from 59687 to 60083
2020-02-07 11:03:44.815 Starting RevisionLog()
2020-02-07 11:03:44.828 Time out between pack = 0 sec.; pack size = 100; packIX = 321 of 1000000; total item processed = 32100 of 34951; ID_OBJET from 60087 to 60383
2020-02-07 11:03:49.474 Starting RevisionLog()
2020-02-07 11:03:49.488 Time out between pack = 0 sec.; pack size = 100; packIX = 322 of 1000000; total item processed = 32200 of 34951; ID_OBJET from 60390 to 60709
2020-02-07 11:03:54.532 Starting RevisionLog()
2020-02-07 11:03:54.546 Time out between pack = 0 sec.; pack size = 100; packIX = 323 of 1000000; total item processed = 32300 of 34951; ID_OBJET from 60712 to 60962
2020-02-07 11:03:59.361 Starting RevisionLog()
2020-02-07 11:03:59.377 Time out between pack = 0 sec.; pack size = 100; packIX = 324 of 1000000; total item processed = 32400 of 34951; ID_OBJET from 60964 to 61327
2020-02-07 11:04:04.071 Starting RevisionLog()
2020-02-07 11:04:04.083 Time out between pack = 0 sec.; pack size = 100; packIX = 325 of 1000000; total item processed = 32500 of 34951; ID_OBJET from 61337 to 61655
2020-02-07 11:04:08.930 Starting RevisionLog()
2020-02-07 11:04:08.943 Time out between pack = 0 sec.; pack size = 100; packIX = 326 of 1000000; total item processed = 32600 of 34951; ID_OBJET from 61656 to 61939
2020-02-07 11:04:13.332 Starting RevisionLog()
2020-02-07 11:04:13.344 Time out between pack = 0 sec.; pack size = 100; packIX = 327 of 1000000; total item processed = 32700 of 34951; ID_OBJET from 61940 to 62254
2020-02-07 11:04:17.889 Starting RevisionLog()
2020-02-07 11:04:17.903 Time out between pack = 0 sec.; pack size = 100; packIX = 328 of 1000000; total item processed = 32800 of 34951; ID_OBJET from 62255 to 62459
2020-02-07 11:04:22.125 Starting RevisionLog()
2020-02-07 11:04:22.136 Time out between pack = 0 sec.; pack size = 100; packIX = 329 of 1000000; total item processed = 32900 of 34951; ID_OBJET from 62464 to 62677
2020-02-07 11:04:26.416 Starting RevisionLog()
2020-02-07 11:04:26.427 Time out between pack = 0 sec.; pack size = 100; packIX = 330 of 1000000; total item processed = 33000 of 34951; ID_OBJET from 62678 to 62905
2020-02-07 11:04:30.671 Starting RevisionLog()
2020-02-07 11:04:30.683 Time out between pack = 0 sec.; pack size = 100; packIX = 331 of 1000000; total item processed = 33100 of 34951; ID_OBJET from 62906 to 63084
2020-02-07 11:04:35.242 Starting RevisionLog()
2020-02-07 11:04:35.253 Time out between pack = 0 sec.; pack size = 100; packIX = 332 of 1000000; total item processed = 33200 of 34951; ID_OBJET from 63088 to 63238
2020-02-07 11:04:39.481 Starting RevisionLog()
2020-02-07 11:04:39.492 Time out between pack = 0 sec.; pack size = 100; packIX = 333 of 1000000; total item processed = 33300 of 34951; ID_OBJET from 63240 to 63473
2020-02-07 11:04:43.632 Starting RevisionLog()
2020-02-07 11:04:43.646 Time out between pack = 0 sec.; pack size = 100; packIX = 334 of 1000000; total item processed = 33400 of 34951; ID_OBJET from 63475 to 63696
2020-02-07 11:04:48.040 Starting RevisionLog()
2020-02-07 11:04:48.054 Time out between pack = 0 sec.; pack size = 100; packIX = 335 of 1000000; total item processed = 33500 of 34951; ID_OBJET from 63698 to 63890
2020-02-07 11:04:52.842 Starting RevisionLog()
2020-02-07 11:04:52.854 Time out between pack = 0 sec.; pack size = 100; packIX = 336 of 1000000; total item processed = 33600 of 34951; ID_OBJET from 63891 to 64098
2020-02-07 11:04:57.358 Starting RevisionLog()
2020-02-07 11:04:57.372 Time out between pack = 0 sec.; pack size = 100; packIX = 337 of 1000000; total item processed = 33700 of 34951; ID_OBJET from 64099 to 64311
2020-02-07 11:05:01.965 Starting RevisionLog()
2020-02-07 11:05:03.265 Time out between pack = 0 sec.; pack size = 100; packIX = 338 of 1000000; total item processed = 33800 of 34951; ID_OBJET from 64312 to 64520
2020-02-07 11:05:07.725 Starting RevisionLog()
2020-02-07 11:05:07.739 Time out between pack = 0 sec.; pack size = 100; packIX = 339 of 1000000; total item processed = 33900 of 34951; ID_OBJET from 64522 to 64725
2020-02-07 11:05:12.213 Starting RevisionLog()
2020-02-07 11:05:12.225 Time out between pack = 0 sec.; pack size = 100; packIX = 340 of 1000000; total item processed = 34000 of 34951; ID_OBJET from 64728 to 65001
2020-02-07 11:05:16.647 Starting RevisionLog()
2020-02-07 11:05:16.661 Time out between pack = 0 sec.; pack size = 100; packIX = 341 of 1000000; total item processed = 34100 of 34951; ID_OBJET from 65003 to 65235
2020-02-07 11:05:21.157 Starting RevisionLog()
2020-02-07 11:05:21.171 Time out between pack = 0 sec.; pack size = 100; packIX = 342 of 1000000; total item processed = 34200 of 34951; ID_OBJET from 65237 to 65402
2020-02-07 11:05:25.541 Starting RevisionLog()
2020-02-07 11:05:25.555 Time out between pack = 0 sec.; pack size = 100; packIX = 343 of 1000000; total item processed = 34300 of 34951; ID_OBJET from 65403 to 65618
2020-02-07 11:05:29.843 Starting RevisionLog()
2020-02-07 11:05:29.854 Time out between pack = 0 sec.; pack size = 100; packIX = 344 of 1000000; total item processed = 34400 of 34951; ID_OBJET from 65622 to 65940
2020-02-07 11:05:34.763 Starting RevisionLog()
2020-02-07 11:05:34.776 Time out between pack = 0 sec.; pack size = 100; packIX = 345 of 1000000; total item processed = 34500 of 34951; ID_OBJET from 65941 to 66145
2020-02-07 11:05:39.274 Starting RevisionLog()
2020-02-07 11:05:39.287 Time out between pack = 0 sec.; pack size = 100; packIX = 346 of 1000000; total item processed = 34600 of 34951; ID_OBJET from 66147 to 66300
2020-02-07 11:05:44.291 Starting RevisionLog()
2020-02-07 11:05:44.306 Time out between pack = 0 sec.; pack size = 100; packIX = 347 of 1000000; total item processed = 34700 of 34951; ID_OBJET from 66301 to 66520
2020-02-07 11:05:48.681 Starting RevisionLog()
2020-02-07 11:05:48.693 Time out between pack = 0 sec.; pack size = 100; packIX = 348 of 1000000; total item processed = 34800 of 34951; ID_OBJET from 66521 to 66733
2020-02-07 11:05:53.546 Starting RevisionLog()
2020-02-07 11:05:53.561 Time out between pack = 0 sec.; pack size = 100; packIX = 349 of 1000000; total item processed = 34900 of 34951; ID_OBJET from 66735 to 66907
2020-02-07 11:05:56.090 End of items. Program Chutier was completed; packIX = 349 of 1000000; total item processed = 34951 of 34951
