﻿2020-02-07 11:16:58.334 Elvis login success, url=http://10.11.16.13:8080/, user=api
2020-02-07 11:17:03.992 
2020-02-07 11:17:04.004 reportage starting...
2020-02-07 11:17:04.016 Getting Connection to dmz-db05-n02.dmz.tass.ru ...
2020-02-07 11:17:04.661 28 rows selected.
2020-02-07 11:17:04.670 0 objects has imported.
2020-02-07 11:17:04.679 28 objects are intended for import.
2020-02-07 11:17:04.763 Reportage Error: Oracle.ManagedDataAccess.Client.OracleException (0x80004005): ORA-00904: "LIASSES_I18N"."LIB_LIASSE": недопустимый идентификатор
   at OracleInternal.ServiceObjects.OracleConnectionImpl.VerifyExecution(Int32& cursorId, Boolean bThrowArrayBindRelatedErrors, SqlStatementType sqlStatementType, Int32 arrayBindCount, OracleException& exceptionForArrayBindDML, Boolean& hasMoreRowsInDB, Boolean bFirstIterationDone)
   at OracleInternal.ServiceObjects.OracleCommandImpl.ExecuteReader(String commandText, OracleParameterCollection paramColl, CommandType commandType, OracleConnectionImpl connectionImpl, OracleDataReaderImpl& rdrImpl, Int32 longFetchSize, Int64 clientInitialLOBFS, OracleDependencyImpl orclDependencyImpl, Int64[] scnForExecution, Int64[]& scnFromExecution, OracleParameterCollection& bindByPositionParamColl, Boolean& bBindParamPresent, Int64& internalInitialLOBFS, OracleException& exceptionForArrayBindDML, OracleConnection connection, OracleLogicalTransaction& oracleLogicalTransaction, IEnumerable`1 adrianParsedStmt, Boolean isDescribeOnly, Boolean isFromEF)
   at Oracle.ManagedDataAccess.Client.OracleCommand.ExecuteReader(Boolean requery, Boolean fillRequest, CommandBehavior behavior)
   at Oracle.ManagedDataAccess.Client.OracleCommand.ExecuteReader()
   at reportage.OracleUtils.Select_MetaData(OracleConnection conn, String sql, Int32 ID_OBJET, List`1& elv_metaVals, Dictionary`2& transVals, Dictionary`2& checkingVals) in C:\Users\svadh\source\repos\axio2elvis\reportage\OracleUtils.cs:line 159
   at reportage.main_rep.reportageIteration(OracleConnection conn, String SQL_for_Select_MetaData, String SQL_for_SortOrder, String SQL_for_ActualCount, Int32 ID_OBJET) in C:\Users\svadh\source\repos\axio2elvis\reportage\main_rep.cs:line 237
   at reportage.main_rep.Main(String[] args) in C:\Users\svadh\source\repos\axio2elvis\reportage\main_rep.cs:line 124
2020-02-07 11:17:04.779 Reportage StackTrace:    at OracleInternal.ServiceObjects.OracleConnectionImpl.VerifyExecution(Int32& cursorId, Boolean bThrowArrayBindRelatedErrors, SqlStatementType sqlStatementType, Int32 arrayBindCount, OracleException& exceptionForArrayBindDML, Boolean& hasMoreRowsInDB, Boolean bFirstIterationDone)
   at OracleInternal.ServiceObjects.OracleCommandImpl.ExecuteReader(String commandText, OracleParameterCollection paramColl, CommandType commandType, OracleConnectionImpl connectionImpl, OracleDataReaderImpl& rdrImpl, Int32 longFetchSize, Int64 clientInitialLOBFS, OracleDependencyImpl orclDependencyImpl, Int64[] scnForExecution, Int64[]& scnFromExecution, OracleParameterCollection& bindByPositionParamColl, Boolean& bBindParamPresent, Int64& internalInitialLOBFS, OracleException& exceptionForArrayBindDML, OracleConnection connection, OracleLogicalTransaction& oracleLogicalTransaction, IEnumerable`1 adrianParsedStmt, Boolean isDescribeOnly, Boolean isFromEF)
   at Oracle.ManagedDataAccess.Client.OracleCommand.ExecuteReader(Boolean requery, Boolean fillRequest, CommandBehavior behavior)
   at Oracle.ManagedDataAccess.Client.OracleCommand.ExecuteReader()
   at reportage.OracleUtils.Select_MetaData(OracleConnection conn, String sql, Int32 ID_OBJET, List`1& elv_metaVals, Dictionary`2& transVals, Dictionary`2& checkingVals) in C:\Users\svadh\source\repos\axio2elvis\reportage\OracleUtils.cs:line 159
   at reportage.main_rep.reportageIteration(OracleConnection conn, String SQL_for_Select_MetaData, String SQL_for_SortOrder, String SQL_for_ActualCount, Int32 ID_OBJET) in C:\Users\svadh\source\repos\axio2elvis\reportage\main_rep.cs:line 237
   at reportage.main_rep.Main(String[] args) in C:\Users\svadh\source\repos\axio2elvis\reportage\main_rep.cs:line 124
2020-02-07 11:17:04.808 Program Reportage terminated due to an error; packIX = 0 of 1000000; total item processed = 0
