﻿2020-02-07 14:24:43.760 Elvis login success, url=http://10.11.16.13:8080/, user=api
2020-02-07 14:24:49.334 
2020-02-07 14:24:49.345 reportage starting...
2020-02-07 14:24:49.355 Getting Connection to dmz-db05-n02.dmz.tass.ru ...
2020-02-07 14:24:50.170 1 rows selected.
2020-02-07 14:24:50.179 0 objects has imported.
2020-02-07 14:24:50.189 1 objects are intended for import.
2020-02-07 14:24:50.248 Reportage Error: Oracle.ManagedDataAccess.Client.OracleException (0x80004005): ORA-00923: ключевое слово FROM не найдено там, где оно ожидалось
   at OracleInternal.ServiceObjects.OracleConnectionImpl.VerifyExecution(Int32& cursorId, Boolean bThrowArrayBindRelatedErrors, SqlStatementType sqlStatementType, Int32 arrayBindCount, OracleException& exceptionForArrayBindDML, Boolean& hasMoreRowsInDB, Boolean bFirstIterationDone)
   at OracleInternal.ServiceObjects.OracleCommandImpl.ExecuteReader(String commandText, OracleParameterCollection paramColl, CommandType commandType, OracleConnectionImpl connectionImpl, OracleDataReaderImpl& rdrImpl, Int32 longFetchSize, Int64 clientInitialLOBFS, OracleDependencyImpl orclDependencyImpl, Int64[] scnForExecution, Int64[]& scnFromExecution, OracleParameterCollection& bindByPositionParamColl, Boolean& bBindParamPresent, Int64& internalInitialLOBFS, OracleException& exceptionForArrayBindDML, OracleConnection connection, OracleLogicalTransaction& oracleLogicalTransaction, IEnumerable`1 adrianParsedStmt, Boolean isDescribeOnly, Boolean isFromEF)
   at Oracle.ManagedDataAccess.Client.OracleCommand.ExecuteReader(Boolean requery, Boolean fillRequest, CommandBehavior behavior)
   at Oracle.ManagedDataAccess.Client.OracleCommand.ExecuteReader()
   at reportage.OracleUtils.Select_MetaData(OracleConnection conn, String sql, Int32 ID_OBJET, List`1& elv_metaVals, Dictionary`2& transVals, Dictionary`2& checkingVals) in C:\Users\svadh\source\repos\axio2elvis\reportage\OracleUtils.cs:line 159
   at reportage.main_rep.reportageIteration(OracleConnection conn, String SQL_for_Select_MetaData, String SQL_for_SortOrder, String SQL_for_ActualCount, Int32 ID_OBJET) in C:\Users\svadh\source\repos\axio2elvis\reportage\main_rep.cs:line 237
   at reportage.main_rep.Main(String[] args) in C:\Users\svadh\source\repos\axio2elvis\reportage\main_rep.cs:line 124
2020-02-07 14:24:50.263 Reportage StackTrace:    at OracleInternal.ServiceObjects.OracleConnectionImpl.VerifyExecution(Int32& cursorId, Boolean bThrowArrayBindRelatedErrors, SqlStatementType sqlStatementType, Int32 arrayBindCount, OracleException& exceptionForArrayBindDML, Boolean& hasMoreRowsInDB, Boolean bFirstIterationDone)
   at OracleInternal.ServiceObjects.OracleCommandImpl.ExecuteReader(String commandText, OracleParameterCollection paramColl, CommandType commandType, OracleConnectionImpl connectionImpl, OracleDataReaderImpl& rdrImpl, Int32 longFetchSize, Int64 clientInitialLOBFS, OracleDependencyImpl orclDependencyImpl, Int64[] scnForExecution, Int64[]& scnFromExecution, OracleParameterCollection& bindByPositionParamColl, Boolean& bBindParamPresent, Int64& internalInitialLOBFS, OracleException& exceptionForArrayBindDML, OracleConnection connection, OracleLogicalTransaction& oracleLogicalTransaction, IEnumerable`1 adrianParsedStmt, Boolean isDescribeOnly, Boolean isFromEF)
   at Oracle.ManagedDataAccess.Client.OracleCommand.ExecuteReader(Boolean requery, Boolean fillRequest, CommandBehavior behavior)
   at Oracle.ManagedDataAccess.Client.OracleCommand.ExecuteReader()
   at reportage.OracleUtils.Select_MetaData(OracleConnection conn, String sql, Int32 ID_OBJET, List`1& elv_metaVals, Dictionary`2& transVals, Dictionary`2& checkingVals) in C:\Users\svadh\source\repos\axio2elvis\reportage\OracleUtils.cs:line 159
   at reportage.main_rep.reportageIteration(OracleConnection conn, String SQL_for_Select_MetaData, String SQL_for_SortOrder, String SQL_for_ActualCount, Int32 ID_OBJET) in C:\Users\svadh\source\repos\axio2elvis\reportage\main_rep.cs:line 237
   at reportage.main_rep.Main(String[] args) in C:\Users\svadh\source\repos\axio2elvis\reportage\main_rep.cs:line 124
2020-02-07 14:24:50.291 Program Reportage terminated due to an error; packIX = 0 of 1000000; total item processed = 0
2020-02-07 14:27:58.864 Elvis login success, url=http://10.11.16.13:8080/, user=api
2020-02-07 14:28:03.171 
2020-02-07 14:28:03.184 reportage starting...
2020-02-07 14:28:03.200 Getting Connection to dmz-db05-n02.dmz.tass.ru ...
2020-02-07 14:28:03.789 1 rows selected.
2020-02-07 14:28:03.802 0 objects has imported.
2020-02-07 14:28:03.815 1 objects are intended for import.
2020-02-07 14:28:04.805 End of items. Program Reportage was completed; packIX = 0 of 1000000; total item processed = 1 of 1
2020-02-07 14:31:57.334 Elvis login success, url=http://10.11.16.13:8080/, user=api
2020-02-07 14:32:01.973 
2020-02-07 14:32:01.984 reportage starting...
2020-02-07 14:32:01.997 Getting Connection to dmz-db05-n02.dmz.tass.ru ...
2020-02-07 14:32:02.593 229 rows selected.
2020-02-07 14:32:02.606 0 objects has imported.
2020-02-07 14:32:02.617 229 objects are intended for import.
2020-02-07 14:32:32.669 Starting RevisionLog()
2020-02-07 14:32:32.681 Time out between pack = 0 sec.; pack size = 100; packIX = 1 of 1000000; total item processed = 100 of 229; ID_OBJET from 121270 to 208320
2020-02-07 14:33:07.406 Starting RevisionLog()
2020-02-07 14:33:07.420 Time out between pack = 0 sec.; pack size = 100; packIX = 2 of 1000000; total item processed = 200 of 229; ID_OBJET from 208324 to 245159
2020-02-07 14:33:15.864 End of items. Program Reportage was completed; packIX = 2 of 1000000; total item processed = 229 of 229
